Division,WeightClassKg,Place,Name,Team,BodyweightKg,Best3SquatKg,Best3BenchKg,Best3DeadliftKg,TotalKg,Equipment,Event,Sex
Varsity,51.71,1,Bryan Martinez,Taylor,44.91,83.91,38.56,92.99,215.46,Single-ply,SBD,M
Varsity,51.71,2,Andrew Cabrera,Seguin,42.91,68.04,40.82,90.72,199.58,Single-ply,SBD,M
Varsity,51.71,3,Chad Gouge,Pflugerville Hendrickson,46.9,72.57,34.02,65.77,172.37,Single-ply,SBD,M
Varsity,59.87,1,Marcus Manley,Del Valle,55.97,185.97,90.72,174.63,451.32,Single-ply,SBD,M
Varsity,55.79,2,Mario Leos,Seguin,55.43,140.61,102.06,167.83,410.5,Single-ply,SBD,M
Varsity,59.87,3,Jeremy Gamel,Pflugerville Hendrickson,56.02,115.67,56.7,133.81,306.17,Single-ply,SBD,M
Varsity,59.87,4,Brandon Negus,Taylor,55.88,102.06,63.5,133.81,299.37,Single-ply,SBD,M
Varsity,55.79,DQ,Codie Hall,Taylor,55.61,,,,,Single-ply,SBD,M
Varsity,59.87,1,David Salazar,Taylor,59.87,136.08,74.84,163.29,374.21,Single-ply,SBD,M
Varsity,59.87,2,Matt Maldonado,Del Valle,59.15,136.08,83.91,151.95,371.95,Single-ply,SBD,M
Varsity,59.87,3,Zach Cheyne,College Station A&M Cons,59.24,131.54,77.11,158.76,367.41,Single-ply,SBD,M
Varsity,59.87,4,Calvin Guillory,Round Rock McNeil,59.24,140.61,72.57,149.69,362.87,Single-ply,SBD,M
Varsity,59.87,5,Lee Mitchell,Hutto,58.6,113.4,92.99,138.35,344.73,Single-ply,SBD,M
Varsity,59.87,6,Kyle McKay,Elgin,57.7,113.4,65.77,133.81,312.98,Single-ply,SBD,M
Varsity,59.87,7,Kevion Harris,Pflugerville Connally,56.7,106.59,63.5,127.01,297.1,Single-ply,SBD,M
Varsity,59.87,8,Andrew Peterson,Bastrop,58.79,102.06,79.38,115.67,297.1,Single-ply,SBD,M
Varsity,59.87,DQ,Max Payton,Bastrop,57.7,92.99,,,,Single-ply,SBD,M
Varsity,67.13,1,Josefas Martinez,Round Rock,65.95,204.12,113.4,185.97,503.49,Single-ply,SBD,M
Varsity,74.84,2,Kristian Cogdill,San Marcos,67.31,195.04,117.93,188.24,501.22,Single-ply,SBD,M
Varsity,67.13,3,Lon Robinson,Round Rock,64.59,183.7,102.06,,285.76,Single-ply,SB,M
Varsity,67.13,4,Daniel Nieto,San Marcos,66.77,158.76,113.4,165.56,437.72,Single-ply,SBD,M
Varsity,67.13,5,Rodney Ross,Taylor,66.32,154.22,86.18,170.1,410.5,Single-ply,SBD,M
Varsity,67.13,6,Royal Lucas,Taylor,66.86,142.88,86.18,170.1,399.16,Single-ply,SBD,M
Varsity,67.13,7,Trace Gain,College Station A&M Cons,64.77,136.08,102.06,142.88,381.02,Single-ply,SBD,M
Varsity,67.13,8,Patrick Williams #4,Hutto,65.77,133.81,79.38,167.83,381.02,Single-ply,SBD,M
Varsity,67.13,9,Emilio Olivarez,Elgin,63.05,151.95,72.57,151.95,376.48,Single-ply,SBD,M
Varsity,67.13,10,Jarad Cummings,Thrall,66.22,136.08,77.11,158.76,371.95,Single-ply,SBD,M
Varsity,67.13,11,Austin Stephen,College Station A&M Cons,63.87,136.08,77.11,147.42,360.61,Single-ply,SBD,M
Varsity,67.13,12,Justin Stautz,Thrall,66.59,111.13,72.57,127.01,310.71,Single-ply,SBD,M
Varsity,67.13,13,Matt Doss,Seguin,64.68,90.72,58.97,129.27,278.96,Single-ply,SBD,M
Varsity,67.13,14,Tanner Nelson,Bastrop,61.96,95.25,52.16,113.4,260.82,Single-ply,SBD,M
Varsity,67.13,DQ,Marcus Reed,Bastrop,65.41,,,,,Single-ply,SBD,M
Varsity,82.1,1,John Monreal,Del Valle,75.02,256.28,131.54,215.46,603.28,Single-ply,SBD,M
Varsity,74.84,2,Frank Ortiz,Hutto,74.48,181.44,102.06,174.63,458.13,Single-ply,SBD,M
Varsity,74.84,3,Greg Wnek,Elgin,74.21,170.1,92.99,192.78,455.86,Single-ply,SBD,M
Varsity,74.84,4,Schuyler Wrinkle,Round Rock McNeil,74.21,142.88,102.06,167.83,412.77,Single-ply,SBD,M
Varsity,74.84,5,Jonathan Hernandez,Taylor,73.75,142.88,124.74,142.88,410.5,Single-ply,SBD,M
Varsity,74.84,6,Cris Reeves,Hutto,68.86,136.08,97.52,156.49,390.09,Single-ply,SBD,M
Varsity,74.84,7,Eri Flores,College Station A&M Cons,68.95,158.76,83.91,147.42,390.09,Single-ply,SBD,M
Varsity,74.84,8,Dylan Righter,Hutto,74.03,154.22,88.45,147.42,390.09,Single-ply,SBD,M
Varsity,82.1,DQ,Eric Vinten,Bastrop,75.02,133.81,,,,Single-ply,SBD,M
Varsity,74.84,DQ,Mike Jones #15,Elgin,73.12,183.7,,,,Single-ply,SBD,M
Varsity,74.84,DQ,Russell Eppinger,Elgin,72.03,172.37,,,,Single-ply,SBD,M
Varsity,82.1,1,Brandon Fisher,Round Rock,78.56,265.35,133.81,233.6,632.76,Single-ply,SBD,M
Varsity,82.1,2,James Perry #1,Manor,79.74,249.48,122.47,204.12,576.06,Single-ply,SBD,M
Varsity,82.1,3,Tyler McCoy,Giddings,76.48,213.19,138.35,199.58,551.11,Single-ply,SBD,M
Varsity,82.1,4,Pablo Nieto,San Marcos,79.2,210.92,124.74,197.31,532.97,Single-ply,SBD,M
Varsity,89.81,5,Nii Tagoe,Pflugerville Connally,82.19,204.12,117.93,210.92,532.97,Single-ply,SBD,M
Varsity,82.1,6,Nelson Lugula,Pflugerville Connally,78.93,206.38,102.06,206.38,514.83,Single-ply,SBD,M
Varsity,82.1,7,Joe Waithaka,College Station A&M Cons,77.84,192.78,124.74,185.97,503.49,Single-ply,SBD,M
Varsity,82.1,8,Smiley Keith,Manor,79.56,183.7,111.13,195.04,489.88,Single-ply,SBD,M
Varsity,82.1,9,Joel Aleman,Round Rock,80.92,192.78,120.2,174.63,487.61,Single-ply,SBD,M
Varsity,82.1,10,Javier Garcia #4,Seguin,81.56,174.63,90.72,195.04,460.4,Single-ply,SBD,M
Varsity,82.1,11,Stephan Beran,Del Valle,79.92,170.1,104.33,179.17,453.59,Single-ply,SBD,M
Varsity,89.81,12,Max Mullins,Seguin,82.28,158.76,86.18,183.7,428.64,Single-ply,SBD,M
Varsity,82.1,13,Carlos Zepeda,Seguin,80.92,158.76,106.59,147.42,412.77,Single-ply,SBD,M
Varsity,82.1,14,Erik Rodriguez,Del Valle,76.66,138.35,92.99,161.03,392.36,Single-ply,SBD,M
Varsity,82.1,15,Michael Clouston,College Station A&M Cons,78.74,147.42,81.65,147.42,376.48,Single-ply,SBD,M
Varsity,89.81,16,Justin Luttrell,Pflugerville Connally,82.19,145.15,81.65,142.88,369.68,Single-ply,SBD,M
Varsity,82.1,17,Jp Gonzales,Taylor,80.1,111.13,79.38,170.1,360.61,Single-ply,SBD,M
Varsity,82.1,DQ,Brandon Stautz,Thrall,75.48,213.19,,,,Single-ply,SBD,M
Varsity,82.1,DQ,Bradley Haag,Round Rock McNeil,76.11,147.42,,,,Single-ply,SBD,M
Varsity,89.81,1,Colby Wollin,Giddings,86.73,260.82,165.56,254.01,680.39,Single-ply,SBD,M
Varsity,89.81,2,Dallas Glass,Elgin,88.45,226.8,147.42,233.6,607.81,Single-ply,SBD,M
Varsity,89.81,3,Leo Castro,Elgin,86.18,226.8,138.35,235.87,601.01,Single-ply,SBD,M
Varsity,89.81,4,Terrance Wilburn,San Marcos,89.45,204.12,127.01,215.46,546.58,Single-ply,SBD,M
Varsity,89.81,5,Elijah Brown,Pflugerville Connally,85.46,210.92,117.93,215.46,544.31,Single-ply,SBD,M
Varsity,89.81,6,Jesse Barker,Seguin,88.99,185.97,131.54,204.12,521.63,Single-ply,SBD,M
Varsity,89.81,7,Philip Fitzgerald,Round Rock,88.18,213.19,113.4,192.78,519.36,Single-ply,SBD,M
Varsity,89.81,8,Chris McLeod,Seguin,89.36,192.78,108.86,215.46,517.1,Single-ply,SBD,M
Varsity,89.81,9,Matt Mainiero,Round Rock McNeil,85.46,201.85,102.06,201.85,505.76,Single-ply,SBD,M
Varsity,89.81,10,Kevin Henderson,Hutto,84.55,204.12,111.13,188.24,503.49,Single-ply,SBD,M
Varsity,89.81,11,Deon Hutchinson,Giddings,84.37,190.51,113.4,183.7,487.61,Single-ply,SBD,M
Varsity,89.81,12,Cody Villarreal,San Marcos,88.72,174.63,106.59,165.56,446.79,Single-ply,SBD,M
Varsity,89.81,13,Tycom Wright,Taylor,83.82,142.88,90.72,190.51,424.11,Single-ply,SBD,M
Varsity,89.81,14,Colton Jenkins,Seguin,86.82,142.88,86.18,172.37,401.43,Single-ply,SBD,M
Varsity,89.81,DQ,Louis Edwards,Del Valle,83.82,185.97,106.59,,,Single-ply,SBD,M
Varsity,99.79,1,James Limon,Del Valle,95.98,215.46,133.81,,349.27,Single-ply,SB,M
Varsity,99.79,2,Jared Hallman,Round Rock McNeil,97.07,219.99,138.35,249.48,607.81,Single-ply,SBD,M
Varsity,99.79,3,Logan Bradshaw,Round Rock,96.71,249.48,113.4,226.8,589.67,Single-ply,SBD,M
Varsity,99.79,4,Jose Lerma,Bastrop,93.98,210.92,133.81,213.19,557.92,Single-ply,SBD,M
Varsity,99.79,5,Austin Cash,Elgin,90.63,204.12,108.86,226.8,539.77,Single-ply,SBD,M
Varsity,99.79,6,Corben Marroquin,Round Rock,98.61,213.19,113.4,192.78,519.36,Single-ply,SBD,M
Varsity,99.79,7,Victor Ironkansi,Pflugerville Hendrickson,96.98,183.7,122.47,197.31,503.49,Single-ply,SBD,M
Varsity,99.79,8,Alex Bogan,Taylor,91.53,192.78,120.2,185.97,498.95,Single-ply,SBD,M
Varsity,99.79,9,Chief Okarocha,Pflugerville Connally,90.81,174.63,97.52,219.99,492.15,Single-ply,SBD,M
Varsity,99.79,10,Wayne Lum,Bastrop,90.54,204.12,99.79,183.7,487.61,Single-ply,SBD,M
Varsity,99.79,11,Terrence Hall,Manor,95.16,167.83,92.99,179.17,439.98,Single-ply,SBD,M
Varsity,99.79,12,Jonathan Roman,Pflugerville Connally,98.88,165.56,106.59,163.29,435.45,Single-ply,SBD,M
Varsity,99.79,13,Ron Lee,Bastrop,96.16,158.76,97.52,174.63,430.91,Single-ply,SBD,M
Varsity,99.79,14,Chris Woods #2,Pflugerville Connally,94.98,147.42,83.91,170.1,401.43,Single-ply,SBD,M
Varsity,99.79,15,Kyle Kavanaugh,College Station A&M Cons,96.34,165.56,88.45,142.88,396.89,Single-ply,SBD,M
Varsity,99.79,16,Jon Batot,Seguin,98.52,149.69,65.77,136.08,351.53,Single-ply,SBD,M
Varsity,99.79,DQ,Chris Carpenter #3,Seguin,92.35,222.26,,,,Single-ply,SBD,M
Varsity,99.79,DQ,David Cassens,College Station A&M Cons,95.44,210.92,127.01,,,Single-ply,SBD,M
Varsity,109.77,1,Morgan Hohle,Giddings,106.59,254.01,131.54,233.6,619.15,Single-ply,SBD,M
Varsity,109.77,2,Colby Kaasch,Round Rock,107.95,249.48,138.35,231.33,619.15,Single-ply,SBD,M
Varsity,109.77,3,Dominique Steptoe,Round Rock,103.33,215.46,124.74,226.8,566.99,Single-ply,SBD,M
Varsity,109.77,4,Dayon Denmon,Del Valle,104.14,222.26,113.4,226.8,562.45,Single-ply,SBD,M
Varsity,109.77,5,Mac Arnett,Hutto,104.14,210.92,115.67,226.8,553.38,Single-ply,SBD,M
Varsity,109.77,6,Tyler Mills,Round Rock McNeil,100.88,192.78,97.52,233.6,523.9,Single-ply,SBD,M
Varsity,109.77,7,Cody Sisemore,Round Rock,106.41,204.12,106.59,204.12,514.83,Single-ply,SBD,M
Varsity,124.74,8,Adam Burns,Pflugerville Connally,109.95,185.97,90.72,195.04,471.74,Single-ply,SBD,M
Varsity,109.77,9,James Heath,Round Rock McNeil,102.06,158.76,104.33,170.1,433.18,Single-ply,SBD,M
Varsity,109.77,DQ,Urias Martinez,Bastrop,108.14,195.04,,,,Single-ply,SBD,M
Varsity,124.74,1,Rico Lopez,Del Valle,112.13,254.01,133.81,231.33,619.15,Single-ply,SBD,M
Varsity,124.74,2,Ulysses Loving,Elgin,115.21,210.92,131.54,215.46,557.92,Single-ply,SBD,M
Varsity,124.74,3,Clayton Anderson,Elgin,113.85,215.46,136.08,192.78,544.31,Single-ply,SBD,M
Varsity,124.74,4,Jason McVey,Round Rock McNeil,119.02,204.12,104.33,226.8,535.24,Single-ply,SBD,M
Varsity,124.74,5,Benson Hinze,Round Rock McNeil,110.68,204.12,106.59,188.24,498.95,Single-ply,SBD,M
Varsity,124.74,6,Carlos Lopez,Manor,113.04,174.63,102.06,142.88,419.57,Single-ply,SBD,M
Varsity,124.74,7,Angel Munoz,Thrall,121.38,131.54,92.99,142.88,367.41,Single-ply,SBD,M
Varsity,124.74+,1,DeVontae Robinson,Pflugerville Hendrickson,130.18,240.4,149.69,226.8,616.89,Single-ply,SBD,M
Varsity,124.74+,2,Alex Fitzgerald,Round Rock,130.45,240.4,158.76,215.46,614.62,Single-ply,SBD,M
Varsity,124.74+,3,Eddie Casares,Giddings,126.46,238.14,106.59,233.6,578.33,Single-ply,SBD,M
Varsity,124.74+,4,Johnathan Ramirez,Giddings,135.53,195.04,117.93,206.38,519.36,Single-ply,SBD,M
Varsity,124.74+,5,Brian Cain,Thrall,134.26,217.72,120.2,172.37,510.29,Single-ply,SBD,M
Varsity,124.74+,6,Jacob Shanks,Elgin,127.96,183.7,97.52,215.46,496.68,Single-ply,SBD,M
Varsity,124.74+,7,Dylan Hinojosa,Pflugerville Connally,164.11,147.42,99.79,147.42,394.63,Single-ply,SBD,M
Varsity,124.74+,DQ,Austin Pando,Bastrop,165.38,183.7,,,,Single-ply,SBD,M
Junior Varsity,55.79,1,Eric Bond,Bastrop,55.61,97.52,70.31,120.2,288.03,Single-ply,SBD,M
Junior Varsity,55.79,2,Chase Allen,San Marcos,54.7,83.91,77.11,92.99,254.01,Single-ply,SBD,M
Junior Varsity,59.87,1,Steven Cruz,Pflugerville Hendrickson,56.52,68.04,38.56,102.06,208.65,Single-ply,SBD,M
Junior Varsity,67.13,1,Javier Amador,Bastrop,67.13,142.88,79.38,138.35,360.61,Single-ply,SBD,M
Junior Varsity,67.13,2,Brandon Gonzalez,Bastrop,66.5,142.88,70.31,138.35,351.53,Single-ply,SBD,M
Junior Varsity,67.13,3,Marquel Davis,Manor,66.04,122.47,74.84,145.15,342.46,Single-ply,SBD,M
Junior Varsity,67.13,4,Luke Wells,Pflugerville Hendrickson,65.05,129.27,68.04,142.88,340.19,Single-ply,SBD,M
Junior Varsity,74.84,5,Quinton Baker,Manor,67.22,108.86,79.38,142.88,331.12,Single-ply,SBD,M
Junior Varsity,67.13,6,Trevon Pradia,Manor,64.14,102.06,56.7,136.08,294.84,Single-ply,SBD,M
Junior Varsity,67.13,DQ,Shaquille Roberts,Manor,60.96,92.99,,,,Single-ply,SBD,M
Junior Varsity,74.84,1,Ej Rollie,Elgin,73.66,170.1,83.91,161.03,415.04,Single-ply,SBD,M
Junior Varsity,74.84,2,Matt Madewell,Elgin,70.4,111.13,72.57,149.69,333.39,Single-ply,SBD,M
Junior Varsity,74.84,DQ,Caleb Chapman,Giddings,74.84,,,,,Single-ply,SBD,M
Junior Varsity,82.1,1,Christian Jones,Pflugerville Hendrickson,75.39,149.69,106.59,172.37,428.64,Single-ply,SBD,M
Junior Varsity,82.1,2,Kelly McBride,Del Valle,76.48,151.95,92.99,170.1,415.04,Single-ply,SBD,M
Junior Varsity,89.81,3,Daniel Green,Pflugerville Hendrickson,82.28,163.29,79.38,158.76,401.43,Single-ply,SBD,M
Junior Varsity,82.1,4,Garrett Hoover,Pflugerville Hendrickson,81.47,142.88,92.99,142.88,378.75,Single-ply,SBD,M
Junior Varsity,82.1,5,Charlie Mowen,San Marcos,81.83,136.08,83.91,142.88,362.87,Single-ply,SBD,M
Junior Varsity,82.1,6,Joey Willis,Manor,77.29,142.88,52.16,165.56,360.61,Single-ply,SBD,M
Junior Varsity,82.1,7,Austin Fisher,Elgin,78.65,136.08,74.84,142.88,353.8,Single-ply,SBD,M
Junior Varsity,89.81,1,Dominique Green,Manor,86.82,142.88,86.18,170.1,399.16,Single-ply,SBD,M
Junior Varsity,89.81,2,Simon Castillo,Bastrop,83.01,136.08,90.72,138.35,365.14,Single-ply,SBD,M
Junior Varsity,89.81,3,Everett Holloway,Pflugerville Hendrickson,85.91,124.74,86.18,142.88,353.8,Single-ply,SBD,M
Junior Varsity,89.81,4,Trevor Brooks,Giddings,85.82,86.18,61.23,95.25,242.67,Single-ply,SBD,M
Junior Varsity,99.79,1,Zech Roberson,Giddings,94.17,206.38,102.06,219.99,528.44,Single-ply,SBD,M
Junior Varsity,99.79,2,Allah Hicks,Bastrop,96.07,183.7,138.35,199.58,521.63,Single-ply,SBD,M
Junior Varsity,99.79,3,Ricky Hernandez,San Marcos,91.26,172.37,111.13,176.9,460.4,Single-ply,SBD,M
Junior Varsity,99.79,4,Taylor Gregg #3,Pflugerville Hendrickson,98.97,149.69,90.72,181.44,421.84,Single-ply,SBD,M
Junior Varsity,99.79,5,Leron Hutto,San Marcos,91.44,151.95,88.45,163.29,403.7,Single-ply,SBD,M
Junior Varsity,99.79,6,Chris Marquez,Giddings,95.53,154.22,88.45,158.76,401.43,Single-ply,SBD,M
Junior Varsity,99.79,7,Xavier Gadlin,Manor,96.62,138.35,102.06,154.22,394.63,Single-ply,SBD,M
Junior Varsity,99.79,8,Adrian Conner,Pflugerville Hendrickson,92.8,136.08,70.31,136.08,342.46,Single-ply,SBD,M
Junior Varsity,99.79,9,David Villalobos,Manor,96.8,102.06,61.23,156.49,319.78,Single-ply,SBD,M
Junior Varsity,99.79,10,Joeseph Ankeiwu,Pflugerville Connally,95.62,106.59,68.04,117.93,292.57,Single-ply,SBD,M
Junior Varsity,109.77,1,Nick Kosic,Bastrop,102.15,145.15,88.45,174.63,408.23,Single-ply,SBD,M
Junior Varsity,109.77,2,Adan Martinez,Pflugerville Hendrickson,108.59,136.08,83.91,154.22,374.21,Single-ply,SBD,M
Junior Varsity,109.77,3,Anthony Rivera,Bastrop,104.87,124.74,65.77,147.42,337.93,Single-ply,SBD,M
Junior Varsity,109.77,DQ,Lucas Burklund,Elgin,104.96,,,,,Single-ply,SBD,M
Junior Varsity,124.74,1,Paul Guerra,Pflugerville Connally,114.94,158.76,113.4,167.83,439.98,Single-ply,SBD,M
Junior Varsity,124.74+,1,Justin O'Neal,Manor,126.82,167.83,92.99,183.7,444.52,Single-ply,SBD,M
Junior Varsity,124.74+,2,Quentin Freeman,Bastrop,136.71,154.22,83.91,129.27,367.41,Single-ply,SBD,M
