Division,WeightClassKg,Place,Name,Team,BodyweightKg,Best3SquatKg,Best3BenchKg,Best3DeadliftKg,TotalKg,Equipment,Event,Sex,BirthDate
Boys,51.71,1,Peyton Langhor,Iraan,50.71,117.93,63.5,124.74,306.17,Single-ply,SBD,M,
Boys,51.71,2,Lucas McNeely,Monahans,51.53,115.67,58.97,117.93,292.57,Single-ply,SBD,M,
Boys,51.71,3,David Haygood,Andrews,51.26,104.33,68.04,117.93,290.3,Single-ply,SBD,M,
Boys,51.71,4,Jarred Brantley,Pecos,51.62,106.59,70.31,113.4,290.3,Single-ply,SBD,M,
Boys,55.79,1,Angel Martinez #11,Big Lake Reagan County,55.16,170.1,92.99,156.49,419.57,Single-ply,SBD,M,
Boys,55.79,2,Javi Garcia,Pecos,55.52,147.42,79.38,145.15,371.95,Single-ply,SBD,M,
Boys,55.79,3,Luis Ramos #7,Fort Stockton,54.52,113.4,68.04,124.74,306.17,Single-ply,SBD,M,
Boys,55.79,4,Andrew Rangel,Fort Stockton,54.25,115.67,61.23,124.74,301.64,Single-ply,SBD,M,
Boys,55.79,DQ,Leonardo Murillo,Odessa,55.43,147.42,,,,Single-ply,SBD,M,
Boys,59.87,1,Andy Martinez,Odessa,59.78,181.44,95.25,151.95,428.64,Single-ply,SBD,M,
Boys,59.87,2,Caleb Lee,Monahans,59.42,163.29,86.18,161.03,410.5,Single-ply,SBD,M,
Boys,59.87,3,Daniel Renteria,Fort Stockton,59.78,147.42,83.91,176.9,408.23,Single-ply,SBD,M,
Boys,59.87,DQ,Gabriel Caballero,Fort Stockton,59.87,142.88,86.18,,,Single-ply,SBD,M,
Boys,59.87,DQ,Cristian Garcia #5,Fort Stockton,59.78,151.95,90.72,,,Single-ply,SBD,M,
Boys,59.87,DQ,Jesse Rodriguez,Monahans,56.84,117.93,63.5,,,Single-ply,SBD,M,
Boys,67.13,1,Daniel Montano,Andrews,66.59,210.92,99.79,204.12,514.83,Single-ply,SBD,M,
Boys,67.13,2,Diego Mendoza,Crane,66.04,195.04,117.93,183.7,496.68,Single-ply,SBD,M,
Boys,67.13,3,Matt Rosas,McCamey,65.86,192.78,104.33,197.31,494.42,Single-ply,SBD,M,
Boys,67.13,4,Toby Blankenship,Odessa,65.68,145.15,74.84,183.7,403.7,Single-ply,SBD,M,
Boys,67.13,5,Daughtry Hazelwood,McCamey,64.5,90.72,45.36,92.99,229.06,Single-ply,SBD,M,
Boys,74.84,1,David Madrid,Pecos,73.75,199.58,133.81,219.99,553.38,Single-ply,SBD,M,
Boys,74.84,2,Dravon Valenzuela,Big Lake Reagan County,73.84,204.12,115.67,192.78,512.56,Single-ply,SBD,M,
Boys,74.84,3,Jose Armendariz,Andrews,74.75,201.85,106.59,181.44,489.88,Single-ply,SBD,M,
Boys,74.84,4,Gaviel Burrola,Kermit,71.21,188.24,97.52,181.44,467.2,Single-ply,SBD,M,
Boys,74.84,5,Tanner Jones,Monahans,74.12,174.63,113.4,170.1,458.13,Single-ply,SBD,M,
Boys,74.84,6,Tyson Valenzuela,Andrews,73.75,176.9,90.72,188.24,455.86,Single-ply,SBD,M,
Boys,74.84,7,Jd Solis,Iraan,72.03,183.7,81.65,167.83,433.18,Single-ply,SBD,M,
Boys,74.84,8,Dylan Soltero,Wink,68.49,151.95,88.45,165.56,405.97,Single-ply,SBD,M,
Boys,74.84,9,Rene Orona,Monahans,72.48,140.61,95.25,156.49,392.36,Single-ply,SBD,M,
Boys,74.84,10,Muaro Torres,Iraan,71.67,111.13,61.23,161.03,333.39,Single-ply,SBD,M,
Boys,74.84,DQ,Gilbert Garcia,McCamey,74.48,158.76,88.45,,,Single-ply,SBD,M,
Boys,74.84,DQ,Martin Stone,McCamey,70.49,127.01,77.11,,,Single-ply,SBD,M,
Boys,74.84,DQ,Jesse Valerio,Odessa,72.67,68.04,52.16,,,Single-ply,SBD,M,
Boys,74.84,DQ,Michael Smith,Iraan,71.49,,,,,Single-ply,SBD,M,
Boys,82.1,1,Connor McCrary,Andrews,80.47,226.8,113.4,208.65,548.85,Single-ply,SBD,M,
Boys,82.1,2,Aiden Gonzales,Odessa,81.92,210.92,129.27,183.7,523.9,Single-ply,SBD,M,
Boys,82.1,3,Adiel Rodriguez,Kermit,80.56,210.92,117.93,188.24,517.1,Single-ply,SBD,M,
Boys,82.1,4,Jovany Hernandez,Fort Stockton,79.56,183.7,124.74,199.58,508.02,Single-ply,SBD,M,
Boys,82.1,5,Michael Acosta,McCamey,79.47,181.44,104.33,185.97,471.74,Single-ply,SBD,M,
Boys,82.1,6,Jose Mota,McCamey,78.2,197.31,99.79,154.22,451.32,Single-ply,SBD,M,
Boys,82.1,7,Cole Purcell,Wink,82.1,154.22,92.99,163.29,410.5,Single-ply,SBD,M,
Boys,82.1,8,Kolton Overcash,Pecos,77.84,154.22,97.52,149.69,401.43,Single-ply,SBD,M,
Boys,89.81,1,Brandon Castillo,Andrews,87.18,226.8,117.93,199.58,544.31,Single-ply,SBD,M,
Boys,89.81,2,Jadyn Natividad,Pecos,89.63,226.8,129.27,181.44,537.51,Single-ply,SBD,M,
Boys,89.81,3,Jesus Montes,Odessa,85.91,190.51,120.2,192.78,503.49,Single-ply,SBD,M,
Boys,89.81,4,Adan Sanchez,Iraan,82.74,183.7,124.74,183.7,492.15,Single-ply,SBD,M,
Boys,89.81,5,Miguel Sanchez,McCamey,85.46,190.51,111.13,170.1,471.74,Single-ply,SBD,M,
Boys,89.81,6,Even Mendoza,Pecos,89.54,174.63,111.13,183.7,469.47,Single-ply,SBD,M,
Boys,99.79,1,Elijah Escajeda,Fort Stockton,99.06,226.8,145.15,199.58,571.53,Single-ply,SBD,M,
Boys,99.79,2,Mat Guerrero,Big Lake Reagan County,93.62,235.87,129.27,195.04,560.19,Single-ply,SBD,M,
Boys,99.79,3,Rigo Molina,McCamey,97.25,235.87,99.79,204.12,539.77,Single-ply,SBD,M,
Boys,99.79,4,Tristan Smith,Alpine,98.34,170.1,122.47,206.38,498.95,Single-ply,SBD,M,
Boys,99.79,DQ,Isaih Montoya,Andrews,93.35,215.46,136.08,,,Single-ply,SBD,M,
Boys,99.79,DQ,Rowdy Mendoza,Odessa,99.25,,,,,Single-ply,SBD,M,
Boys,99.79,DQ,Michael Marin,Odessa,98.16,192.78,,,,Single-ply,SBD,M,
Boys,99.79,DQ,Lucas Ordonez #1,Monahans,92.76,199.58,131.54,,,Single-ply,SBD,M,
Boys,109.77,1,Eli Hernandez,Big Lake Reagan County,100.7,267.62,147.42,219.99,635.03,Single-ply,SBD,M,
Boys,109.77,2,Gage Strain,Pecos,107.23,260.82,142.88,219.99,623.69,Single-ply,SBD,M,
Boys,109.77,3,Jesse Putnam,Wink,104.14,226.8,158.76,229.06,614.62,Single-ply,SBD,M,
Boys,109.77,4,David Zamora,Andrews,105.69,226.8,140.61,233.6,601.01,Single-ply,SBD,M,
Boys,109.77,5,Jacob Payne,Monahans,108.41,240.4,136.08,208.65,585.13,Single-ply,SBD,M,
Boys,109.77,6,Damian Dominguez,Odessa,108.05,238.14,113.4,219.99,571.53,Single-ply,SBD,M,
Boys,109.77,7,Isidro Rodriguez,Big Lake Reagan County,105.23,231.33,127.01,190.51,548.85,Single-ply,SBD,M,
Boys,109.77,8,Gavin Garcia,Andrews,102.15,210.92,122.47,174.63,508.02,Single-ply,SBD,M,
Boys,109.77,9,Jesus Carrillo,Wink,103.42,195.04,129.27,181.44,505.76,Single-ply,SBD,M,
Boys,109.77,10,Nathan Pena,Marfa,108.68,163.29,142.88,195.04,501.22,Single-ply,SBD,M,
Boys,109.77,11,Joel Avitia,Odessa,101.51,195.04,95.25,204.12,494.42,Single-ply,SBD,M,
Boys,109.77,12,Luis Solis,Marfa,103.15,142.88,70.31,147.42,360.61,Single-ply,SBD,M,
Boys,109.77,13,Diego Jurado,Marfa,109.04,111.13,97.52,97.52,306.17,Single-ply,SBD,M,
Boys,109.77,DQ,Bryan Gutierrez,Big Lake Reagan County,102.97,240.4,138.35,,,Single-ply,SBD,M,
Boys,124.74,1,Isaiah Garcia,McCamey,122.83,278.96,120.2,222.26,621.42,Single-ply,SBD,M,
Boys,124.74,2,Moises Rodriguez,Monahans,112.22,217.72,147.42,235.87,601.01,Single-ply,SBD,M,
Boys,124.74,3,Eliseo Bonilla,Kermit,110.95,210.92,138.35,210.92,560.19,Single-ply,SBD,M,
Boys,124.74,4,Mason Rivero,Pecos,115.39,249.48,138.35,167.83,555.65,Single-ply,SBD,M,
Boys,124.74,5,Ivan Mendoza,Iraan,119.02,204.12,102.06,226.8,532.97,Single-ply,SBD,M,
Boys,124.74,6,Sebastian De La Rosa,Kermit,116.3,208.65,111.13,204.12,523.9,Single-ply,SBD,M,
Boys,124.74,7,Raymond Epley,Wink,115.58,163.29,92.99,158.76,415.04,Single-ply,SBD,M,
Boys,124.74,8,Jonathan Santiago,McCamey,118.12,131.54,77.11,147.42,356.07,Single-ply,SBD,M,
Boys,124.74,DQ,Ivan Montes,Monahans,110.86,215.46,111.13,,,Single-ply,SBD,M,
Boys,124.74,DQ,Andrew Gonzales #1,Fort Stockton,115.39,219.99,120.2,,,Single-ply,SBD,M,
Boys,139.71,1,Jayce Harris,Pecos,125.37,208.65,142.88,204.12,555.65,Single-ply,SBD,M,
Boys,139.71,2,Skylen Copeland,Wink,126.37,192.78,120.2,161.03,474,Single-ply,SBD,M,
Boys,139.71+,1,Hunter Cobb,Pecos,155.95,274.42,174.63,219.99,669.05,Single-ply,SBD,M,
Boys,139.71+,2,Jalen Ramirez,Wink,151.59,265.35,142.88,249.48,657.71,Single-ply,SBD,M,
Boys,,NS,Ethan Turegano,Wink,,,,,,Single-ply,SBD,M,
Boys,,NS,Grayson Ellis,Wink,,,,,,Single-ply,SBD,M,
Boys,,NS,Alex Alcantar,San Angelo Lake View,,,,,,Single-ply,SBD,M,
Boys,,NS,Juan Ortiz,San Angelo Lake View,,,,,,Single-ply,SBD,M,
Boys,,NS,Isaac Cordova,San Angelo Lake View,,,,,,Single-ply,SBD,M,
Boys,,NS,John Cepeda,San Angelo Lake View,,,,,,Single-ply,SBD,M,
Boys,,NS,Eli Hinojos,Odessa,,,,,,Single-ply,SBD,M,
Boys,,NS,Joseph Vowles,Monahans,,,,,,Single-ply,SBD,M,
Boys,,NS,Abraham Gonzalez,Iraan,,,,,,Single-ply,SBD,M,
Boys,,NS,Isiah Ureste,Fort Stockton,,,,,,Single-ply,SBD,M,
Boys,,NS,Jayden Guevara,Fort Stockton,,,,,,Single-ply,SBD,M,
Boys,,NS,David Olivas,Andrews,,,,,,Single-ply,SBD,M,
