Division,WeightClassKg,Place,Name,Team,BodyweightKg,Best3SquatKg,Best3BenchKg,Best3DeadliftKg,TotalKg,Equipment,Event,Sex,BirthDate
Boys,51.71,1,Mason Falcone,Comal Davenport,49.35,106.59,36.29,111.13,254.01,Single-ply,SBD,M,
Boys,51.71,2,Cole Coffee,Comal Canyon Lake,51.71,90.72,56.7,106.59,254.01,Single-ply,SBD,M,
Boys,55.79,1,Marc Perez,San Antonio Southwest Legacy,54.43,127.01,68.04,145.15,340.19,Single-ply,SBD,M,
Boys,55.79,2,Diego Mendoza,Devine,54.61,136.08,65.77,136.08,337.93,Single-ply,SBD,M,
Boys,55.79,3,Inclan Silas,San Antonio Southside,55.34,122.47,61.23,131.54,315.25,Single-ply,SBD,M,
Boys,55.79,4,Christopher Loera,San Antonio Kennedy,55.61,113.4,72.57,127.01,312.98,Single-ply,SBD,M,
Boys,55.79,5,Jacob Tuckness,Comal Canyon Lake,54.7,106.59,63.5,117.93,288.03,Single-ply,SBD,M,
Boys,55.79,6,Joey Wilson,Comal Canyon Lake,55.16,106.59,56.7,111.13,274.42,Single-ply,SBD,M,
Boys,59.87,1,Miguel H Cruz,San Antonio Southwest Legacy,58.97,147.42,95.25,190.51,433.18,Single-ply,SBD,M,
Boys,59.87,2,Thomas Dorman,Comal Canyon Lake,59.6,163.29,88.45,145.15,396.89,Single-ply,SBD,M,
Boys,59.87,3,Justin Abbott,Comal Canyon Lake,59.33,145.15,79.38,147.42,371.95,Single-ply,SBD,M,
Boys,59.87,4,Kaiden Lewis,Comal Canyon Lake,59.33,127.01,77.11,136.08,340.19,Single-ply,SBD,M,
Boys,59.87,5,Connor Starjak,Comal Davenport,56.7,92.99,74.84,131.54,299.37,Single-ply,SBD,M,
Boys,59.87,6,Sebastian Lleverino,Marion,56.52,56.7,34.02,77.11,167.83,Single-ply,SBD,M,
Boys,67.13,1,Jacob Rodriguez #17,San Antonio Southside,64.5,188.24,90.72,170.1,449.06,Single-ply,SBD,M,
Boys,67.13,2,Reid Simpson,Comal Canyon Lake,66.22,158.76,106.59,161.03,426.38,Single-ply,SBD,M,
Boys,67.13,3,Talan Smith,Comal Canyon Lake,66.04,131.54,90.72,142.88,365.14,Single-ply,SBD,M,
Boys,67.13,4,Maddox Gonzales,Wimberley,61.42,122.47,74.84,136.08,333.39,Single-ply,SBD,M,
Boys,67.13,5,Matthew Yarbrough,San Antonio Cornerstone Christian School,66.86,127.01,65.77,129.27,322.05,Single-ply,SBD,M,
Boys,67.13,6,Dillyn Dehoyos,Marion,63.87,104.33,79.38,136.08,319.78,Single-ply,SBD,M,
Boys,67.13,7,Matthew Rodriguez,San Antonio Kennedy,62.78,102.06,61.23,149.69,312.98,Single-ply,SBD,M,
Boys,67.13,8,Zack Junkin,Marion,63.96,97.52,56.7,120.2,274.42,Single-ply,SBD,M,
Boys,67.13,9,Anndres Garcia,Comal Davenport,62.87,102.06,61.23,106.59,269.89,Single-ply,SBD,M,
Boys,67.13,10,Brandon Gonzaba,Comal Davenport,66.68,68.04,43.09,102.06,213.19,Single-ply,SBD,M,
Boys,67.13,DQ,Nacious Jaquez,San Antonio Kennedy,66.59,,,,,Single-ply,SBD,M,
Boys,74.84,1,Christopher Rodriguez,San Antonio Southside,69.49,215.46,124.74,199.58,539.77,Single-ply,SBD,M,
Boys,74.84,2,Jayden Correa,San Antonio Southwest Legacy,73.94,192.78,108.86,197.31,498.95,Single-ply,SBD,M,
Boys,74.84,3,Adam Gonzalez,San Antonio Southwest Legacy,73.57,179.17,90.72,204.12,474,Single-ply,SBD,M,
Boys,74.84,4,Chris Gabriel,Marion,72.21,172.37,88.45,192.78,453.59,Single-ply,SBD,M,
Boys,74.84,5,Aidan Rios,Marion,74.84,170.1,108.86,174.63,453.59,Single-ply,SBD,M,
Boys,74.84,6,Patrick Hecox,Comal Davenport,69.13,145.15,106.59,154.22,405.97,Single-ply,SBD,M,
Boys,74.84,7,Randy Contreras,San Antonio Kennedy,72.21,142.88,77.11,183.7,403.7,Single-ply,SBD,M,
Boys,74.84,8,Gio Alvarado,Wimberley,73.94,167.83,83.91,142.88,394.63,Single-ply,SBD,M,
Boys,74.84,9,Ryan Howe,Comal Davenport,74.12,142.88,83.91,151.95,378.75,Single-ply,SBD,M,
Boys,74.84,10,Jaysen Ramirez,Devine,70.03,142.88,74.84,158.76,376.48,Single-ply,SBD,M,
Boys,74.84,11,Broc Birdwell,Marion,74.75,140.61,63.5,129.27,333.39,Single-ply,SBD,M,
Boys,82.1,1,Jacob Montoya,San Antonio Southside,79.56,195.04,133.81,192.78,521.63,Single-ply,SBD,M,
Boys,82.1,2,Matthew Elson,Comal Canyon Lake,79.11,206.38,111.13,188.24,505.76,Single-ply,SBD,M,
Boys,82.1,3,Jacob Guajardo,Devine,80.38,185.97,117.93,170.1,474,Single-ply,SBD,M,
Boys,82.1,4,Timothy Donihoo,Yoakum,80.29,145.15,92.99,183.7,421.84,Single-ply,SBD,M,
Boys,82.1,5,Donavon Kirby,Comal Davenport,77.84,161.03,68.04,176.9,405.97,Single-ply,SBD,M,
Boys,82.1,6,Judge Erickson,Comal Davenport,81.74,158.76,90.72,154.22,403.7,Single-ply,SBD,M,
Boys,82.1,7,Caden Rodriguez,Comal Canyon Lake,75.3,149.69,79.38,142.88,371.95,Single-ply,SBD,M,
Boys,82.1,DQ,Elijah Callahan-Souza,Marion,79.02,92.99,,,,Single-ply,SBD,M,
Boys,89.81,1,Nathan Peralta,San Antonio Southside,86.91,238.14,145.15,240.4,623.69,Single-ply,SBD,M,
Boys,89.81,2,Trace Higginbotham,San Antonio Cornerstone Christian School,83.46,215.46,117.93,199.58,532.97,Single-ply,SBD,M,
Boys,89.81,3,Andrew Chavez,San Antonio Southside,89.27,197.31,124.74,190.51,512.56,Single-ply,SBD,M,
Boys,89.81,4,Rafael Estala,Devine,88.09,195.04,117.93,195.04,508.02,Single-ply,SBD,M,
Boys,89.81,5,Abraham Padilla,San Antonio Southwest Legacy,88.72,206.38,122.47,170.1,498.95,Single-ply,SBD,M,
Boys,89.81,6,Naythan Pena,San Antonio Southwest Legacy,87.72,174.63,127.01,183.7,485.34,Single-ply,SBD,M,
Boys,89.81,7,Nathan Shearer,San Antonio Southwest Legacy,88.54,179.17,106.59,174.63,460.4,Single-ply,SBD,M,
Boys,89.81,8,Wyatt Franchione,Wimberley,87,170.1,111.13,172.37,453.59,Single-ply,SBD,M,
Boys,89.81,9,Jack Boyle,Wimberley,85.28,165.56,102.06,179.17,446.79,Single-ply,SBD,M,
Boys,89.81,10,Rafael Villalpando,San Antonio Southwest Legacy,83.1,151.95,104.33,183.7,439.98,Single-ply,SBD,M,
Boys,89.81,11,Owen O'Neil,Wimberley,88.99,165.56,97.52,176.9,439.98,Single-ply,SBD,M,
Boys,89.81,12,Adam Guerrero #3,Devine,89.45,138.35,63.5,124.74,326.59,Single-ply,SBD,M,
Boys,89.81,DQ,Hector Bernal,Devine,86.36,,,,,Single-ply,SBD,M,
Boys,89.81,DQ,Zachary Martinez,Devine,89.63,238.14,,,,Single-ply,SBD,M,
Boys,99.79,1,Fabian Alvarez,San Antonio Southwest Legacy,97.98,219.99,142.88,238.14,601.01,Single-ply,SBD,M,
Boys,99.79,2,Alfredo Romero,San Antonio Kennedy,91.99,226.8,124.74,226.8,578.33,Single-ply,SBD,M,
Boys,99.79,3,Justin Dehoyos,Marion,90.81,170.1,113.4,183.7,467.2,Single-ply,SBD,M,
Boys,99.79,4,Callan Drum,Wimberley,93.67,183.7,88.45,183.7,455.86,Single-ply,SBD,M,
Boys,99.79,5,Maximus Pedroza,Devine,97.16,113.4,86.18,145.15,344.73,Single-ply,SBD,M,
Boys,99.79,DQ,Johnny Lascano,Devine,94.71,249.48,,,,Single-ply,SBD,M,
Boys,99.79,DQ,Trey Larson,Marion,96.8,154.22,,,,Single-ply,SBD,M,
Boys,109.77,1,Ethan Tullos-Chapa,San Antonio Southwest Legacy,109.77,272.16,174.63,238.14,684.92,Single-ply,SBD,M,
Boys,109.77,2,Cody Wilkerson,San Antonio Southside,107.95,240.4,154.22,249.48,644.1,Single-ply,SBD,M,
Boys,109.77,3,Ethan Dranowsky,San Antonio Kennedy,109.68,256.28,142.88,231.33,630.49,Single-ply,SBD,M,
Boys,109.77,4,Mauricio Pecina,Yoakum,104.24,240.4,147.42,206.38,594.21,Single-ply,SBD,M,
Boys,109.77,5,Adan Rodriguez,Comal Davenport,106.23,226.8,136.08,226.8,589.67,Single-ply,SBD,M,
Boys,109.77,6,Anthony Rodriguez,Comal Davenport,104.87,183.7,117.93,183.7,485.34,Single-ply,SBD,M,
Boys,109.77,7,Corben Perankovich,Marion,106.59,183.7,95.25,176.9,455.86,Single-ply,SBD,M,
Boys,109.77,8,Angelo Ybarra,Comal Davenport,101.79,174.63,86.18,183.7,444.52,Single-ply,SBD,M,
Boys,109.77,9,Josiah Trinidad,San Antonio Cornerstone Christian School,108.68,163.29,86.18,167.83,417.3,Single-ply,SBD,M,
Boys,109.77,10,Brett Harwell,Comal Canyon Lake,107.95,151.95,90.72,170.1,412.77,Single-ply,SBD,M,
Boys,109.77,11,Garrett Mann,Marion,103.78,151.95,79.38,174.63,405.97,Single-ply,SBD,M,
Boys,109.77,DQ,Hector Herrera,Wimberley,108.23,226.8,,,,Single-ply,SBD,M,
Boys,124.74,1,Keegan Garcia,San Antonio Cornerstone Christian School,121.56,238.14,115.67,260.82,614.62,Single-ply,SBD,M,
Boys,124.74,2,Jimmy Mendoza,Comal Canyon Lake,116.3,213.19,115.67,226.8,555.65,Single-ply,SBD,M,
Boys,124.74,3,Isaiah Ricondo,San Antonio Cornerstone Christian School,118.48,215.46,131.54,206.38,553.38,Single-ply,SBD,M,
Boys,124.74,4,Jace Dawson,San Antonio Cornerstone Christian School,120.02,185.97,140.61,181.44,508.02,Single-ply,SBD,M,
Boys,124.74,5,Alexander Rivera,San Antonio Southwest Legacy,115.76,172.37,115.67,199.58,487.61,Single-ply,SBD,M,
Boys,124.74,6,Adrian Perez,San Antonio Southwest Legacy,111.49,172.37,97.52,179.17,449.06,Single-ply,SBD,M,
Boys,124.74,7,Reid Jackson,Wimberley,116.03,156.49,108.86,151.95,417.3,Single-ply,SBD,M,
Boys,124.74,8,Emiliano Prieto,Comal Davenport,119.48,183.7,68.04,142.88,394.63,Single-ply,SBD,M,
Boys,139.71,1,Bode Walters,Marion,132.36,294.84,183.7,238.14,716.68,Single-ply,SBD,M,
Boys,139.71,2,Nick Rodriguez,San Antonio Kennedy,130.54,208.65,117.93,208.65,535.24,Single-ply,SBD,M,
Boys,139.71,3,Manuel Reyna,San Antonio Kennedy,128.82,201.85,92.99,201.85,496.68,Single-ply,SBD,M,
Boys,139.71+,1,Sebastian Villarreal,San Antonio Kennedy,145.15,142.88,81.65,165.56,390.09,Single-ply,SBD,M,
