Division,WeightClassKg,Place,Name,Team,BodyweightKg,Best3SquatKg,Best3BenchKg,Best3DeadliftKg,TotalKg,Equipment,Event,Sex
Boys,51.71,1,Zachary Callaway,Whitney,51.26,104.33,61.23,122.47,288.03,Single-ply,SBD,M
Boys,51.71,2,Stephen Mathison,Whitney,48.99,102.06,61.23,106.59,269.89,Single-ply,SBD,M
Boys,51.71,3,Glen Gent,Glen Rose,51.35,70.31,38.56,113.4,222.26,Single-ply,SBD,M
Boys,55.79,1,Philip Sharp,Robinson,55.79,170.1,92.99,201.85,464.93,Single-ply,SBD,M
Boys,55.79,2,Fausto Rodriguez,West,54.16,167.83,97.52,163.29,428.64,Single-ply,SBD,M
Boys,55.79,3,Alex Schaefer,Venus,55.7,138.35,65.77,138.35,342.46,Single-ply,SBD,M
Boys,55.79,4,Cameron Buck,Venus,54.88,97.52,47.63,102.06,247.21,Single-ply,SBD,M
Boys,55.79,DQ,Robbie Brewer,Clifton,55.52,147.42,81.65,,,Single-ply,SBD,M
Boys,59.87,1,Davin Carboni,Hillsboro,59.87,170.1,102.06,165.56,437.72,Single-ply,SBD,M
Boys,59.87,2,Rodrigo Hernandez,Hillsboro,59.87,158.76,90.72,165.56,415.04,Single-ply,SBD,M
Boys,59.87,3,Justin O'Neal,Clifton,58.97,156.49,88.45,163.29,408.23,Single-ply,SBD,M
Boys,59.87,4,Alex Reynoso,West,59.6,142.88,88.45,165.56,396.89,Single-ply,SBD,M
Boys,59.87,5,Osvaldo Antunez,Hillsboro,59.87,147.42,97.52,151.95,396.89,Single-ply,SBD,M
Boys,59.87,6,Greg Norman,Grandview,59.78,156.49,74.84,142.88,374.21,Single-ply,SBD,M
Boys,59.87,7,Jalil Muhammed,Teague,57.97,147.42,83.91,136.08,367.41,Single-ply,SBD,M
Boys,59.87,8,Dillon Graves,Glen Rose,59.15,124.74,81.65,154.22,360.61,Single-ply,SBD,M
Boys,59.87,9,Eduardo Perez,Venus,56.2,115.67,70.31,124.74,310.71,Single-ply,SBD,M
Boys,59.87,10,Holden Rogers,Clifton,59.06,124.74,68.04,117.93,310.71,Single-ply,SBD,M
Boys,59.87,11,Ian Howard,Robinson,57.61,120.2,63.5,117.93,301.64,Single-ply,SBD,M
Boys,59.87,12,Abid Corrujedo,Glen Rose,58.6,95.25,70.31,106.59,272.16,Single-ply,SBD,M
Boys,59.87,13,Aubry Milwee,Sidney,57.15,90.72,54.43,106.59,251.74,Single-ply,SBD,M
Boys,67.13,1,Cory Sauer,Robinson,66.68,208.65,124.74,204.12,537.51,Single-ply,SBD,M
Boys,67.13,2,Cesar Herrera,Glen Rose,65.41,201.85,113.4,199.58,514.83,Single-ply,SBD,M
Boys,67.13,3,Samuel Shorts,Whitney,65.77,174.63,88.45,161.03,424.11,Single-ply,SBD,M
Boys,67.13,4,Israel Castillo,Venus,62.23,165.56,74.84,167.83,408.23,Single-ply,SBD,M
Boys,67.13,5,Dalton Wiethorn,West,65.5,147.42,97.52,161.03,405.97,Single-ply,SBD,M
Boys,67.13,6,Avery Carrell,Castleberry,64.86,140.61,88.45,158.76,387.82,Single-ply,SBD,M
Boys,67.13,7,Max Lauderdale,Glen Rose,64.23,122.47,86.18,151.95,360.61,Single-ply,SBD,M
Boys,67.13,8,Jose Maldonado,Venus,64.68,131.54,70.31,140.61,342.46,Single-ply,SBD,M
Boys,67.13,9,Luke Brookshire,Crawford,66.22,136.08,63.5,142.88,342.46,Single-ply,SBD,M
Boys,67.13,10,Javier Trejo,Hillsboro,62.6,122.47,70.31,140.61,333.39,Single-ply,SBD,M
Boys,67.13,DQ,Jordan Olsen,West,63.5,140.61,,,,Single-ply,SBD,M
Boys,74.84,1,Adolfo Rodriguez,West,73.03,213.19,142.88,179.17,535.24,Single-ply,SBD,M
Boys,74.84,2,Emanuel Silva,Venus,73.94,204.12,97.52,190.51,492.15,Single-ply,SBD,M
Boys,74.84,3,Nathan Gerik,West,69.4,167.83,102.06,158.76,428.64,Single-ply,SBD,M
Boys,74.84,4,Armando Castaneda,Hillsboro,67.59,149.69,102.06,165.56,417.3,Single-ply,SBD,M
Boys,74.84,5,River Stone,Venus,69.31,154.22,68.04,195.04,417.3,Single-ply,SBD,M
Boys,74.84,6,Dalton Baker,West,70.76,158.76,90.72,161.03,410.5,Single-ply,SBD,M
Boys,74.84,7,Josh Granger,Robinson,70.31,147.42,79.38,131.54,358.34,Single-ply,SBD,M
Boys,74.84,8,Dylan Martin,Valley Mills,70.13,131.54,79.38,145.15,356.07,Single-ply,SBD,M
Boys,74.84,9,Jonathan Weatherman,Crawford,70.58,122.47,86.18,145.15,353.8,Single-ply,SBD,M
Boys,74.84,10,Armani Johnson,Robinson,71.67,129.27,65.77,154.22,349.27,Single-ply,SBD,M
Boys,74.84,11,Jorge Diaz,Teague,73.39,111.13,72.57,131.54,315.25,Single-ply,SBD,M
Boys,74.84,DQ,Oscar Manuel,Hillsboro,67.31,163.29,,,,Single-ply,SBD,M
Boys,82.1,1,Griffin Balthrop,Castleberry,80.74,195.04,127.01,229.06,551.11,Single-ply,SBD,M
Boys,82.1,2,Marc Gutierrez,Clifton,75.3,183.7,102.06,176.9,462.66,Single-ply,SBD,M
Boys,82.1,3,Tate Swearingen,Glen Rose,80.74,147.42,120.2,172.37,439.98,Single-ply,SBD,M
Boys,82.1,4,Bryan Chapa,Castleberry,82.1,156.49,86.18,190.51,433.18,Single-ply,SBD,M
Boys,82.1,5,Mariano Perez,West,76.2,167.83,104.33,156.49,428.64,Single-ply,SBD,M
Boys,82.1,6,Lance Sembera,West,81.19,167.83,102.06,158.76,428.64,Single-ply,SBD,M
Boys,82.1,7,Steven Pearce,Castleberry,79.47,136.08,83.91,190.51,410.5,Single-ply,SBD,M
Boys,82.1,8,Bodee Humphreys,Clifton,77.38,158.76,83.91,149.69,392.36,Single-ply,SBD,M
Boys,82.1,9,António Sotero,Hillsboro,81.19,145.15,90.72,149.69,385.55,Single-ply,SBD,M
Boys,82.1,10,Brendon Stockton,Whitney,80.29,156.49,83.91,133.81,374.21,Single-ply,SBD,M
Boys,82.1,11,Colby Fedor,Grandview,78.11,142.88,88.45,136.08,367.41,Single-ply,SBD,M
Boys,82.1,12,Keegan Bunt,Glen Rose,78.47,124.74,81.65,147.42,353.8,Single-ply,SBD,M
Boys,82.1,13,James Harrison,Crawford,81.65,127.01,81.65,136.08,344.73,Single-ply,SBD,M
Boys,82.1,14,Omero Arriaga,Teague,78.83,140.61,70.31,122.47,333.39,Single-ply,SBD,M
Boys,82.1,15,Cade Bennett,Grandview,80.1,117.93,83.91,127.01,328.85,Single-ply,SBD,M
Boys,82.1,16,Juan Medina,Teague,76.02,122.47,72.57,122.47,317.51,Single-ply,SBD,M
Boys,82.1,17,Tate Sehon,Robinson,80.83,127.01,70.31,111.13,308.44,Single-ply,SBD,M
Boys,82.1,DQ,Tanner Mitchell,Crawford,81.56,174.63,,,,Single-ply,SBD,M
Boys,82.1,DQ,Tyler Schiller,China Spring,81.19,170.1,,,,Single-ply,SBD,M
Boys,89.81,1,Abel Barboza,Castleberry,86.64,240.4,129.27,235.87,605.55,Single-ply,SBD,M
Boys,89.81,2,Mason Oliver,Clifton,85.55,224.53,106.59,240.4,571.53,Single-ply,SBD,M
Boys,89.81,3,Koltan Hampton,China Spring,87.63,222.26,127.01,197.31,546.58,Single-ply,SBD,M
Boys,89.81,4,Cade Lewis,Venus,89.81,217.72,92.99,217.72,528.44,Single-ply,SBD,M
Boys,89.81,5,Matthew Freeman,Venus,88.45,215.46,108.86,199.58,523.9,Single-ply,SBD,M
Boys,89.81,6,Timothy Thomas,Whitney,88,199.58,111.13,199.58,510.29,Single-ply,SBD,M
Boys,89.81,7,Eric Rosson,Grandview,87,210.92,115.67,181.44,508.02,Single-ply,SBD,M
Boys,89.81,8,Trey Lewis,Venus,88.9,181.44,92.99,190.51,464.93,Single-ply,SBD,M
Boys,89.81,9,Hunter Ringo,Clifton,87,158.76,102.06,190.51,451.32,Single-ply,SBD,M
Boys,89.81,10,Ryan Hilty,Whitney,87.91,174.63,102.06,172.37,449.06,Single-ply,SBD,M
Boys,89.81,11,Ryan Lloyd,Clifton,86.45,183.7,113.4,149.69,446.79,Single-ply,SBD,M
Boys,89.81,12,Lance Bracco,Crawford,85.73,161.03,106.59,170.1,437.72,Single-ply,SBD,M
Boys,89.81,13,Morgan Marshall #1,Crawford,85.73,167.83,102.06,156.49,426.38,Single-ply,SBD,M
Boys,89.81,14,Timothy Landers,Castleberry,84.37,142.88,88.45,192.78,424.11,Single-ply,SBD,M
Boys,89.81,15,Matt Sparks,West,88.45,165.56,97.52,158.76,421.84,Single-ply,SBD,M
Boys,89.81,16,Brandon VanBenthuysen,Grandview,87.91,136.08,102.06,156.49,394.63,Single-ply,SBD,M
Boys,89.81,17,Nick Barrios,West,86.45,158.76,86.18,145.15,390.09,Single-ply,SBD,M
Boys,89.81,18,Logan Schuetz,China Spring,85.28,129.27,90.72,131.54,351.53,Single-ply,SBD,M
Boys,89.81,DQ,Dylon Frailey,Glen Rose,85,113.4,,,,Single-ply,SBD,M
Boys,99.79,1,Braxton Barrios,Glen Rose,96.34,238.14,140.61,226.8,605.55,Single-ply,SBD,M
Boys,99.79,2,Daniel Fraire,West,96.62,249.48,145.15,174.63,569.26,Single-ply,SBD,M
Boys,99.79,3,Miguel Monjaras,Castleberry,92.44,199.58,136.08,217.72,553.38,Single-ply,SBD,M
Boys,99.79,4,Bryce Latson,Grandview,97.61,219.99,124.74,195.04,539.77,Single-ply,SBD,M
Boys,99.79,5,Mason Chapa,Castleberry,92.99,195.04,113.4,215.46,523.9,Single-ply,SBD,M
Boys,99.79,6,Yuri White,Glen Rose,94.53,170.1,111.13,217.72,498.95,Single-ply,SBD,M
Boys,99.79,7,Nick Lara,Glen Rose,99.16,163.29,113.4,181.44,458.13,Single-ply,SBD,M
Boys,99.79,8,Tanner Sparks,West,96.52,174.63,104.33,170.1,449.06,Single-ply,SBD,M
Boys,99.79,9,Ezequiel Gonzalez,Hillsboro,90.26,158.76,92.99,142.88,394.63,Single-ply,SBD,M
Boys,99.79,10,Isaiah Bell,Teague,91.99,158.76,86.18,147.42,392.36,Single-ply,SBD,M
Boys,99.79,11,Rainey Guthrie,Whitney,96.16,136.08,74.84,151.95,362.87,Single-ply,SBD,M
Boys,99.79,DQ,Nathan Red Elk,Robinson,95.25,181.44,,,,Single-ply,SBD,M
Boys,99.79,DQ,Garrett Moorfield,China Spring,90.9,,,,,Single-ply,SBD,M
Boys,109.77,1,Frederico Arvizu,Castleberry,109.77,247.21,129.27,235.87,612.35,Single-ply,SBD,M
Boys,109.77,2,Ishmael Ramirez,Hillsboro,102.06,226.8,120.2,204.12,551.11,Single-ply,SBD,M
Boys,109.77,3,Will Worrell,Crawford,100.7,204.12,106.59,208.65,519.36,Single-ply,SBD,M
Boys,109.77,4,Logan Begesse,China Spring,109.77,204.12,129.27,170.1,503.49,Single-ply,SBD,M
Boys,109.77,5,Chaas Firth,Whitney,103.42,170.1,92.99,181.44,444.52,Single-ply,SBD,M
Boys,109.77,6,Hayes Burney,Glen Rose,109.77,158.76,111.13,163.29,433.18,Single-ply,SBD,M
Boys,109.77,7,Dustin Stewart,Crawford,109.32,163.29,99.79,145.15,408.23,Single-ply,SBD,M
Boys,109.77,8,Ronnie Sebock,Robinson,108.41,161.03,92.99,129.27,383.29,Single-ply,SBD,M
Boys,109.77,9,Trace Snyder,Robinson,107.5,136.08,58.97,124.74,319.78,Single-ply,SBD,M
Boys,109.77,10,Ryan Fox,Whitney,105.23,113.4,65.77,129.27,308.44,Single-ply,SBD,M
Boys,109.77,DQ,Marcus Williams #2,Teague,101.88,238.14,,,,Single-ply,SBD,M
Boys,109.77,DQ,Payton Price #1,Grandview,104.78,170.1,111.13,,,Single-ply,SBD,M
Boys,124.74,1,Ryan Mitchell #2,Teague,124.74,381.02,188.24,272.16,841.41,Single-ply,SBD,M
Boys,124.74,2,Matt Willis,Glen Rose,110.68,238.14,127.01,240.4,605.55,Single-ply,SBD,M
Boys,124.74,3,Isaias Hernandez,Hillsboro,120.2,235.87,136.08,213.19,585.13,Single-ply,SBD,M
Boys,124.74,4,Joe Fallwell,Whitney,122.02,192.78,129.27,192.78,514.83,Single-ply,SBD,M
Boys,124.74,5,Travis Ferrare,Hillsboro,111.58,167.83,106.59,170.1,444.52,Single-ply,SBD,M
Boys,124.74,6,Troy Meyer,Whitney,111.58,183.7,102.06,151.95,437.72,Single-ply,SBD,M
Boys,124.74,7,Olaf Coleman,Castleberry,119.75,136.08,83.91,163.29,383.29,Single-ply,SBD,M
Boys,124.74+,1,David Garcia #10,Venus,137.89,272.16,174.63,226.8,673.58,Single-ply,SBD,M
Boys,124.74+,2,Justin Huckabee,Glen Rose,128.09,192.78,124.74,226.8,544.31,Single-ply,SBD,M
Boys,124.74+,3,Jacob Villa,Robinson,132.9,215.46,136.08,163.29,514.83,Single-ply,SBD,M
Boys,124.74+,4,Seth Kohlscheen,Crawford,126.1,231.33,104.33,174.63,510.29,Single-ply,SBD,M
Boys,,NS,Dennis Morales,Sidney,,,,,,Single-ply,SBD,M
Boys,,NS,Azaya Patrick,Teague,,,,,,Single-ply,SBD,M
Boys,,NS,Hayden Roberts,Teague,,,,,,Single-ply,SBD,M
Boys,,NS,Patrick Lewis,Whitney,,,,,,Single-ply,SBD,M
Boys,,NS,Elijah Cummings,Whitney,,,,,,Single-ply,SBD,M
