Place,Name,Sex,BirthDate,Age,Country,State,Equipment,Division,BodyweightKg,WeightClassKg,Squat1Kg,Squat2Kg,Squat3Kg,Best3SquatKg,Bench1Kg,Bench2Kg,Bench3Kg,Bench4Kg,Best3BenchKg,Deadlift1Kg,Deadlift2Kg,Deadlift3Kg,Best3DeadliftKg,TotalKg,Event
1,Tori Font,F,1999-06-23,22,USA,TX,Raw,J20-23,56,56,112.5,117.5,-120,117.5,42.5,-47.5,47.5,,47.5,122.5,130,-135,130,295,SBD
1,Gladys Rivas,F,1999-10-02,22,USA,TX,Raw,J20-23,58.6,60,80,85,95,95,45,-50,-52.5,,45,92.5,97.5,107.5,107.5,247.5,SBD
1,Betty Schmidt,F,1976-12-06,45,USA,TX,Raw,M45-49,68.6,75,150,160,165,165,107.5,117.5,-125,,117.5,175,182.5,187.5,187.5,470,SBD
1,Laura Facundo,F,1970-11-26,51,USA,TX,Raw,M50-54,67.35,67.5,105,115,-120,115,70,77.5,82.5,,82.5,160,175,-185,175,372.5,SBD
1,Kathryn Wyman,F,1963-01-27,,USA,TX,Raw,M55-59,82.45,82.5,75,80,85,85,45,47.5,-52.5,,47.5,110,115,120,120,252.5,SBD
1,Betty Schmidt,F,1976-12-06,45,USA,TX,Raw,Open,68.6,75,150,160,165,165,107.5,117.5,-125,,117.5,175,182.5,187.5,187.5,470,SBD
2,Ilyssa del Busto,F,1992-03-26,,USA,TX,Raw,Open,74.6,75,125,-137.5,-137.5,125,62.5,70,-80,,70,135,145,155,155,350,SBD
3,Rachel Nelson,F,1991-07-10,30,USA,TX,Raw,Open,74.25,75,100,107.5,110,110,70,75,-80,,75,110,115,122.5,122.5,307.5,SBD
1,Kellie McThenia,F,1993-12-28,28,USA,TX,Raw,Open,75.8,82.5,92.5,97.5,105,105,50,52.5,-57.5,,52.5,132.5,135,137.5,137.5,295,SBD
1,Mikaela Lindsey,F,,24,,,Raw,Open,84.1,90,102.5,107.5,115,115,80,87.5,-95,,87.5,145,150,165,165,367.5,SBD
2,Kasandra Soto,F,1994-05-19,27,USA,TX,Raw,Open,89.05,90,90,105,110,110,32.5,45,-50,,45,102.5,120,137.5,137.5,292.5,SBD
1,Krista Thielen,F,1990-03-27,31,USA,TX,Raw,Open,92.9,100,72.5,80,87.5,87.5,47.5,-55,-55,,47.5,97.5,105,112.5,112.5,247.5,SBD
1,Aalliyah Jones,F,1994-12-31,27,USA,TX,Wraps,Open,64.35,67.5,107.5,122.5,-140,122.5,57.5,60,-65,,60,137.5,147.5,157.5,157.5,340,SBD
1,Lynette Wilson,F,1988-04-17,33,USA,TX,Wraps,Open,137.7,140,-107.5,107.5,112.5,112.5,67.5,70,75,,75,137.5,145,160,160,347.5,SBD
1,Jade Elaine Dickens,F,1974-01-14,,USA,TX,Raw,M45-49,118.5,125,,,,,125,132.5,137.5,-142.5,137.5,,,,,137.5,B
1,Bob McGhee,M,1959-02-19,63,USA,TX,Raw,M60-64,88.1,90,125,-137.5,137.5,137.5,125,130,135,,135,182.5,195,-205,195,467.5,SBD
1,Hayden Holbrook,M,2000-10-02,21,USA,TX,Raw,J20-23,86.95,90,192.5,210,227.5,227.5,140,150,-155,,150,227.5,250,-260,250,627.5,SBD
1,Mike Green,M,1989-06-11,32,USA,TX,Raw,Open,60.95,67.5,92.5,100,107.5,107.5,70,75,80,,80,92.5,102.5,122.5,122.5,310,SBD
1,Steven Avary,M,1991-01-11,31,USA,TX,Raw,Open,74.5,75,147.5,152.5,157.5,157.5,117.5,125,132.5,,132.5,187.5,200,210,210,500,SBD
1,Zachary Lelii,M,1997-11-21,24,USA,TX,Raw,Open,82,82.5,200,210,220,220,145,152.5,155,,155,210,225,242.5,242.5,617.5,SBD
1,Christopher Hedge,M,1996-02-26,,USA,TX,Raw,Open,88.2,90,242.5,255,-257.5,255,152.5,165,172.5,,172.5,285,302.5,-312.5,302.5,730,SBD
2,Andrew Williams #3,M,1990-12-19,31,USA,TX,Raw,Open,90,90,207.5,225,235,235,125,140,147.5,,147.5,255,265,-275,265,647.5,SBD
3,Eric Dunbar,M,1995-05-10,26,USA,TX,Raw,Open,90,90,180,185,195,195,130,140,-145,,140,185,195,205,205,540,SBD
4,Walker Hormuth,M,1997-08-28,24,USA,TX,Raw,Open,88.4,90,170,185,-187.5,185,102.5,-107.5,-107.5,,102.5,170,185,202.5,202.5,490,SBD
1,Brandan Sullivan,M,1995-04-26,26,USA,TX,Raw,Open,109.3,110,335,352.5,-367.5,352.5,172.5,182.5,-190,,182.5,290,305,-320,305,840,SBD
2,Maxwell Butterfield,M,1992-10-04,29,USA,TX,Raw,Open,109,110,220,227.5,237.5,237.5,132.5,137.5,-140,,137.5,232.5,242.5,252.5,252.5,627.5,SBD
1,Lance Lewis,M,1994-04-11,27,USA,TX,Raw,Open,118.7,125,265,280,287.5,287.5,187.5,205,212.5,,212.5,312.5,332.5,-340,332.5,832.5,SBD
1,Diego Gutierrez,M,2003-12-11,18,USA,TX,Raw,J17-19,81.9,82.5,165,172.5,187.5,187.5,100,105,-112.5,,105,215,232.5,-242.5,232.5,525,SBD
1,Roman Anderson,M,2003-04-29,18,USA,TX,Raw,J17-19,97.6,100,212.5,227.5,242.5,242.5,152.5,165,-172.5,,165,240,-252.5,252.5,252.5,660,SBD
1,Clay Aziz,M,1986-07-23,35,USA,TX,Raw,S35-39,89.1,90,-220,232.5,245,245,155,165,-170,,165,255,275,290,290,700,SBD
1,Michael Obonan,M,1999-11-07,22,USA,TX,Wraps,J20-23,67.35,67.5,175,185,195,195,-120,120,-130,,120,212.5,225,240,240,555,SBD
1,Jorge Cavazos,M,1999-10-19,22,USA,TX,Wraps,J20-23,74.9,75,185,195,205,205,135,-140,140,,140,190,200,220,220,565,SBD
1,Rene Hernandez #1,M,1995-05-21,26,USA,TX,Wraps,Open,87.95,90,227.5,235,240,240,152.5,157.5,-162.5,,157.5,232.5,245,252.5,252.5,650,SBD
1,Tanner Hurst,M,1997-12-05,24,USA,TX,Wraps,Open,101.6,110,277.5,305,320,320,-177.5,-177.5,177.5,,177.5,272.5,292.5,300,300,797.5,SBD
2,Richard Canfield,M,1987-05-03,34,USA,TX,Wraps,Open,104.85,110,230,265,272.5,272.5,145,152.5,-160,,152.5,230,245,-257.5,245,670,SBD
1,Judge Zaragoza,M,1998-01-08,24,USA,TX,Wraps,Open,113.45,125,222.5,240,247.5,247.5,135,-142.5,147.5,,147.5,267.5,280,-285,280,675,SBD
1,Vincent Hernandez,M,1994-01-14,28,USA,TX,Wraps,Open,142.65,140+,325,365,,365,185,200,-210,,200,275,-290,-290,275,840,SBD
1,Joshua Vitto,M,2001-10-06,20,USA,TX,Raw,J20-23,85.9,90,,,,,140,157.5,-162.5,,157.5,187.5,212.5,227.5,227.5,385,BD
1,John Herod,M,1979-04-22,42,USA,TX,Raw,M40-44,118.6,125,,,,,167.5,-182.5,-182.5,,167.5,257.5,270,275,275,442.5,BD
1,Lacey Bridges,M,1995-06-08,26,,TX,Raw,Open,48.6,52,,,,,42.5,-45,-47.5,,42.5,102.5,107.5,115,115,157.5,BD
1,Hector Luna,M,1997-04-08,24,USA,TX,Raw,Open,74.95,75,,,,,70,122.5,-130,,122.5,175,185,-195,185,307.5,BD
1,Anysa Medearis,M,1993-02-03,29,USA,TX,Raw,Open,150.15,140+,,,,,67.5,72.5,-75,,72.5,142.5,147.5,-155,147.5,220,BD
