Division,WeightClassKg,Place,Name,Team,BodyweightKg,Best3SquatKg,Best3BenchKg,Best3DeadliftKg,TotalKg,Equipment,Event,Sex
Boys,51.71,1,Danny Ruiz,Zapata,51.03,165.56,90.72,195.04,451.32,Single-ply,SBD,M
Boys,51.71,2,Angel Garcia #6,Edinburg Idea College Prep,51.62,136.08,90.72,142.88,369.68,Single-ply,SBD,M
Boys,51.71,3,Esteban Urquieta,Corpus Christi Tuloso-Midway,50.89,136.08,61.23,142.88,340.19,Single-ply,SBD,M
Boys,51.71,4,Javier Cantu,San Diego,51.44,92.99,52.16,117.93,263.08,Single-ply,SBD,M
Boys,51.71,5,Victor Vasquez,San Diego,48.9,90.72,47.63,117.93,256.28,Single-ply,SBD,M
Boys,51.71,6,Tristan Salinas,Corpus Christi Tuloso-Midway,48.99,92.99,54.43,106.59,254.01,Single-ply,SBD,M
Boys,51.71,7,Jesus Villarreal,Hebbronville,44.91,65.77,34.02,79.38,179.17,Single-ply,SBD,M
Boys,55.79,1,Littles Jackson,Edinburg Idea College Prep,53.71,131.54,70.31,136.08,337.93,Single-ply,SBD,M
Boys,55.79,2,Robert VanNest,Zapata,52.16,117.93,77.11,136.08,331.12,Single-ply,SBD,M
Boys,55.79,3,Silverio Mendoza,Crystal City,54.88,124.74,68.04,136.08,328.85,Single-ply,SBD,M
Boys,55.79,4,Jacob Martinez,Hebbronville,54.52,86.18,56.7,99.79,242.67,Single-ply,SBD,M
Boys,55.79,DQ,Niko Munoz,Falfurrias,54.34,127.01,,,,Single-ply,SBD,M
Boys,59.87,1,Richard Saenz,Hebbronville,59.87,208.65,108.86,195.04,512.56,Single-ply,SBD,M
Boys,59.87,2,Alejandro Ramirez,Falfurrias,59.33,151.95,86.18,170.1,408.23,Single-ply,SBD,M
Boys,59.87,3,Antonio Miles,Zapata,58.97,81.65,56.7,120.2,258.55,Single-ply,SBD,M
Boys,59.87,4,Israel Munoz,Crystal City,56.52,90.72,43.09,106.59,240.4,Single-ply,SBD,M
Boys,67.13,1,Ismael Franco,Crystal City,61.33,179.17,122.47,206.38,508.02,Single-ply,SBD,M
Boys,67.13,2,Cesar Uribe,Zapata,63.5,179.17,92.99,185.97,458.13,Single-ply,SBD,M
Boys,67.13,3,Orlando Gutierrez,Crystal City,61.78,176.9,83.91,167.83,428.64,Single-ply,SBD,M
Boys,67.13,4,Isaac Blanco,Corpus Christi Tuloso-Midway,64.5,158.76,88.45,181.44,428.64,Single-ply,SBD,M
Boys,67.13,5,Ryan Saenz,Hebbronville,67.13,167.83,86.18,165.56,419.57,Single-ply,SBD,M
Boys,67.13,6,Nevarez Andrew,Edinburg Idea College Prep,65.68,136.08,74.84,156.49,367.41,Single-ply,SBD,M
Boys,67.13,7,Danny Villarreal,Zapata,63.96,131.54,65.77,154.22,351.53,Single-ply,SBD,M
Boys,67.13,8,Jonathan Gonzalez,Hebbronville,67.13,124.74,72.57,154.22,351.53,Single-ply,SBD,M
Boys,67.13,9,Juan Guzman,Crystal City,67.13,127.01,83.91,131.54,342.46,Single-ply,SBD,M
Boys,67.13,10,Dale Baez,Hebbronville,67.13,117.93,70.31,149.69,337.93,Single-ply,SBD,M
Boys,67.13,DQ,Jonathan Galvan,Corpus Christi Tuloso-Midway,67.13,,,,,Single-ply,SBD,M
Boys,74.84,1,John Pizana,Corpus Christi Tuloso-Midway,73.12,181.44,111.13,188.24,480.81,Single-ply,SBD,M
Boys,74.84,2,Nathaniel McRae,Hebbronville,69.31,170.1,104.33,201.85,476.27,Single-ply,SBD,M
Boys,74.84,3,Jon Michael Lomas,Crystal City,71.67,170.1,92.99,170.1,433.18,Single-ply,SBD,M
Boys,74.84,4,Frank Mendez,Carrizo Springs,74.39,149.69,104.33,176.9,430.91,Single-ply,SBD,M
Boys,74.84,5,David Belland,Edinburg Idea College Prep,70.58,149.69,90.72,163.29,403.7,Single-ply,SBD,M
Boys,74.84,6,Ceasar Franco,Crystal City,74.21,147.42,72.57,183.7,403.7,Single-ply,SBD,M
Boys,74.84,7,Kasey Marquez,Corpus Christi Tuloso-Midway,68.4,158.76,68.04,163.29,390.09,Single-ply,SBD,M
Boys,74.84,8,Marcus Cruz,Carrizo Springs,74.48,104.33,81.65,113.4,299.37,Single-ply,SBD,M
Boys,82.1,1,Javier Rodriguez,San Diego,76.02,222.26,147.42,197.31,566.99,Single-ply,SBD,M
Boys,82.1,2,Eric Gonzalez #4,Carrizo Springs,76.93,167.83,102.06,190.51,460.4,Single-ply,SBD,M
Boys,82.1,3,Jc Maldonado,Corpus Christi Tuloso-Midway,75.21,161.03,83.91,147.42,392.36,Single-ply,SBD,M
Boys,82.1,DQ,Justin Rodriguez,Corpus Christi Tuloso-Midway,81.92,226.8,,,,Single-ply,SBD,M
Boys,89.81,1,Ithel Carillo,Hebbronville,82.83,206.38,136.08,195.04,537.51,Single-ply,SBD,M
Boys,89.81,2,Dante Vasquez,Corpus Christi Tuloso-Midway,87.27,188.24,115.67,174.63,478.54,Single-ply,SBD,M
Boys,89.81,3,Carlos Huerta #1,Hebbronville,88.41,170.1,108.86,176.9,455.86,Single-ply,SBD,M
Boys,89.81,4,John Eguia,Corpus Christi Tuloso-Midway,88.45,170.1,115.67,163.29,449.06,Single-ply,SBD,M
Boys,89.81,5,David Castro,Carrizo Springs,87.91,151.95,106.59,154.22,412.77,Single-ply,SBD,M
Boys,89.81,6,Casimiro Rios,Crystal City,86.55,142.88,77.11,142.88,362.87,Single-ply,SBD,M
Boys,89.81,7,Heron Tamez,Falfurrias,84.1,120.2,79.38,124.74,324.32,Single-ply,SBD,M
Boys,99.79,1,Franco Arce,Zapata,96.16,285.76,131.54,247.21,664.51,Single-ply,SBD,M
Boys,99.79,2,Ethan Gonzalez #2,San Diego,91.63,213.19,142.88,201.85,557.92,Single-ply,SBD,M
Boys,99.79,3,Elias Cantu,Hebbronville,95.89,199.58,147.42,208.65,555.65,Single-ply,SBD,M
Boys,99.79,4,Mark Puente,Crystal City,98.61,217.72,147.42,165.56,530.7,Single-ply,SBD,M
Boys,99.79,5,Mario Mendoza,Carrizo Springs,90.72,183.7,124.74,195.04,503.49,Single-ply,SBD,M
Boys,109.77,1,Jose Marquez,Hebbronville,109.59,249.48,142.88,235.87,628.23,Single-ply,SBD,M
Boys,109.77,2,Daniel Vela,Falfurrias,109.41,240.4,136.08,226.8,603.28,Single-ply,SBD,M
Boys,109.77,3,Michael Salaiz,San Diego,106.68,240.4,131.54,213.19,585.13,Single-ply,SBD,M
Boys,109.77,4,Elly Gonzalez,San Diego,106.05,224.53,136.08,179.17,539.77,Single-ply,SBD,M
Boys,109.77,5,Joey Garza,Falfurrias,108.86,215.46,95.25,181.44,492.15,Single-ply,SBD,M
Boys,109.77,6,Jonathan Garza,San Diego,107.41,124.74,86.18,138.35,349.27,Single-ply,SBD,M
Boys,109.77,DQ,Emilio Alvarado,Crystal City,106.96,224.53,,,,Single-ply,SBD,M
Boys,124.74,1,Jacob Rodriguez #4,Corpus Christi Tuloso-Midway,124.65,322.05,188.24,272.16,782.45,Single-ply,SBD,M
Boys,124.74,2,Jaime Rosas,Falfurrias,115.12,244.94,120.2,226.8,591.94,Single-ply,SBD,M
Boys,124.74,3,Rey Mendoza,Crystal City,110.22,226.8,115.67,219.99,562.45,Single-ply,SBD,M
Boys,124.74,4,Abel Tunchez,San Diego,121.11,240.4,127.01,188.24,555.65,Single-ply,SBD,M
Boys,124.74,5,Michael Almedina,Zapata,111.13,192.78,108.86,233.6,535.24,Single-ply,SBD,M
Boys,124.74,6,Michael Moreno,Zapata,122.47,192.78,133.81,188.24,514.83,Single-ply,SBD,M
Boys,124.74,7,Victor Soliz,San Diego,110.68,208.65,115.67,163.29,487.61,Single-ply,SBD,M
Boys,124.74,8,Jose Espinoza,Edinburg Idea College Prep,111.4,165.56,99.79,170.1,435.45,Single-ply,SBD,M
Boys,124.74,9,Brandon Orosco,Carrizo Springs,120.2,158.76,102.06,124.74,385.55,Single-ply,SBD,M
Boys,124.74+,1,George Hughes,San Diego,129.18,226.8,149.69,185.97,562.45,Single-ply,SBD,M
Boys,124.74+,2,Fernando Munoz,Zapata,127.01,183.7,97.52,208.65,489.88,Single-ply,SBD,M
