Division,WeightClassKg,Place,Name,Team,BodyweightKg,Best3SquatKg,Best3BenchKg,Best3DeadliftKg,TotalKg,Equipment,Event,Sex,BirthDate
Boys,51.71,1,Jacob Havelka,McGregor,51.03,124.74,70.31,127.01,322.05,Single-ply,SBD,M,
Boys,51.71,2,Collin McManus,Lampasas,50.8,83.91,58.97,88.45,231.33,Single-ply,SBD,M,
Boys,51.71,3,Heaton Zayden,Moody,47.63,70.31,49.9,86.18,206.38,Single-ply,SBD,M,
Boys,51.71,DQ,Daniel McAnnally,Lampasas,51.71,79.38,,,,Single-ply,SBD,M,
Boys,55.79,1,Corey Michalek,Axtell,54.43,154.22,88.45,158.76,401.43,Single-ply,SBD,M,
Boys,55.79,2,Caden Brister,Gatesville,55.34,158.76,77.11,140.61,376.48,Single-ply,SBD,M,
Boys,55.79,3,Garrett Maddox,China Spring,54.43,131.54,79.38,124.74,335.66,Single-ply,SBD,M,
Boys,55.79,4,Ricky Chavarria,Moody,54.88,127.01,68.04,120.2,315.25,Single-ply,SBD,M,
Boys,55.79,5,Troy Arlitt,Axtell,54.43,115.67,65.77,124.74,306.17,Single-ply,SBD,M,
Boys,55.79,6,Alejandro Rodriguez Jr,Meridian,51.89,102.06,52.16,115.67,269.89,Single-ply,SBD,M,
Boys,55.79,DQ,Kyle Kaldenbach,Three Way,54.88,,65.77,106.59,,Single-ply,SBD,M,
Boys,59.87,1,Dustin Chautin,Maypearl,59.42,154.22,95.25,161.03,410.5,Single-ply,SBD,M,
Boys,59.87,2,Jayden Melendrez,Lorena,58.97,145.15,86.18,149.69,381.02,Single-ply,SBD,M,
Boys,59.87,3,Garrett Kwast,Axtell,58.97,147.42,68.04,140.61,356.07,Single-ply,SBD,M,
Boys,67.13,1,Nicky Nieves,McGregor,67.13,197.31,111.13,197.31,505.76,Single-ply,SBD,M,
Boys,67.13,2,Jordan Davis #1,Axtell,64.41,183.7,104.33,174.63,462.66,Single-ply,SBD,M,
Boys,67.13,3,Landon Kuehn,China Spring,66.68,161.03,102.06,170.1,433.18,Single-ply,SBD,M,
Boys,67.13,4,Landry May,China Spring,65.77,167.83,79.38,181.44,428.64,Single-ply,SBD,M,
Boys,67.13,5,Cayden Crawford,China Spring,61.23,167.83,70.31,188.24,426.38,Single-ply,SBD,M,
Boys,67.13,6,Jon Harris,McGregor,65.77,161.03,95.25,158.76,415.04,Single-ply,SBD,M,
Boys,67.13,7,Nate Riddell,Itasca,66.22,131.54,90.72,172.37,394.63,Single-ply,SBD,M,
Boys,67.13,8,Blake Franks,McGregor,67.13,142.88,77.11,158.76,378.75,Single-ply,SBD,M,
Boys,67.13,9,Elias Sanchez,Axtell,63.96,136.08,79.38,149.69,365.14,Single-ply,SBD,M,
Boys,67.13,10,Robert Ford,Itasca,65.77,136.08,86.18,142.88,365.14,Single-ply,SBD,M,
Boys,67.13,11,Jayden Caudle,Moody,61.92,136.08,61.23,165.56,362.87,Single-ply,SBD,M,
Boys,67.13,12,Ethan Els,Waco Connally,64.86,142.88,74.84,138.35,356.07,Single-ply,SBD,M,
Boys,67.13,13,Brayden Mills,Gatesville,66.22,136.08,74.84,138.35,349.27,Single-ply,SBD,M,
Boys,67.13,14,Jon Winchester,Itasca,62.14,145.15,61.23,136.08,342.46,Single-ply,SBD,M,
Boys,67.13,15,Brayden Wehmeyer,Meridian,66.68,147.42,70.31,124.74,342.46,Single-ply,SBD,M,
Boys,67.13,16,Layden Nichols,Jonesboro,66.68,113.4,70.31,154.22,337.93,Single-ply,SBD,M,
Boys,67.13,17,Aaron Hughitt,Gatesville,61.23,102.06,72.57,127.01,301.64,Single-ply,SBD,M,
Boys,67.13,18,Zack Horton,Lampasas,63.96,124.74,61.23,115.67,301.64,Single-ply,SBD,M,
Boys,67.13,19,Luke Stephenson,Jonesboro,60.33,113.4,61.23,124.74,299.37,Single-ply,SBD,M,
Boys,67.13,20,Michael Flores,Itasca,60.78,120.2,56.7,102.06,278.96,Single-ply,SBD,M,
Boys,67.13,21,Christopher Gentry,Meridian,61.23,113.4,38.56,102.06,254.01,Single-ply,SBD,M,
Boys,67.13,DQ,Kevin Tatum,Axtell,66.68,142.88,81.65,,,Single-ply,SBD,M,
Boys,74.84,1,Lj Hall,Gatesville,72.12,195.04,136.08,206.38,537.51,Single-ply,SBD,M,
Boys,74.84,2,Brice Lechler,McGregor,73.03,192.78,136.08,172.37,501.22,Single-ply,SBD,M,
Boys,74.84,3,Dustan Bowers,Meridian,71.21,183.7,92.99,210.92,487.61,Single-ply,SBD,M,
Boys,74.84,4,Moses Garza,China Spring,73.03,176.9,92.99,190.51,460.4,Single-ply,SBD,M,
Boys,74.84,5,Ryan Holliday,Maypearl,71.67,167.83,104.33,181.44,453.59,Single-ply,SBD,M,
Boys,74.84,6,Alex Andrade,Itasca,74.39,170.1,88.45,183.7,442.25,Single-ply,SBD,M,
Boys,74.84,7,Kasen Taylor,Lorena,68.49,170.1,99.79,167.83,437.72,Single-ply,SBD,M,
Boys,74.84,8,Aidan Votaw,Maypearl,71.21,161.03,99.79,172.37,433.18,Single-ply,SBD,M,
Boys,74.84,9,Rylan Ross,Lampasas,69.4,156.49,102.06,165.56,424.11,Single-ply,SBD,M,
Boys,74.84,10,Nick Jackson,China Spring,68.04,161.03,81.65,172.37,415.04,Single-ply,SBD,M,
Boys,74.84,11,Cooper Staton,Moody,70.31,145.15,92.99,170.1,408.23,Single-ply,SBD,M,
Boys,74.84,12,Austin Pogue,Meridian,71.58,158.76,79.38,142.88,381.02,Single-ply,SBD,M,
Boys,74.84,13,Jaden Domel,Jonesboro,69.4,129.27,81.65,156.49,367.41,Single-ply,SBD,M,
Boys,74.84,14,Luke Smith,Meridian,69.63,124.74,83.91,147.42,356.07,Single-ply,SBD,M,
Boys,74.84,15,Ben Franco,Three Way,70.31,99.79,88.45,156.49,344.73,Single-ply,SBD,M,
Boys,74.84,16,Paxton Jackson,Moody,67.81,127.01,70.31,129.27,326.59,Single-ply,SBD,M,
Boys,74.84,17,Kaden Carpenter,Lingleville,73.94,124.74,58.97,140.61,324.32,Single-ply,SBD,M,
Boys,74.84,18,Noah Alvizo,Meridian,68.95,129.27,68.04,124.74,322.05,Single-ply,SBD,M,
Boys,74.84,19,Tj Huggins,Axtell,72.57,111.13,79.38,124.74,315.25,Single-ply,SBD,M,
Boys,74.84,20,Tanner McAninch,Axtell,71.21,117.93,79.38,113.4,310.71,Single-ply,SBD,M,
Boys,74.84,21,Javin Henson,Valley Mills,74.84,102.06,68.04,127.01,297.1,Single-ply,SBD,M,
Boys,74.84,22,Hunter Swindall,Gatesville,70.76,92.99,54.43,117.93,265.35,Single-ply,SBD,M,
Boys,82.1,1,Jaylen Trotter,China Spring,79.38,213.19,138.35,222.26,573.79,Single-ply,SBD,M,
Boys,82.1,2,Keith Dailey,Moody,81.65,190.51,72.57,217.72,480.81,Single-ply,SBD,M,
Boys,82.1,3,Jacob Mott,China Spring,78.02,201.85,97.52,179.17,478.54,Single-ply,SBD,M,
Boys,82.1,4,Renfro Steele,Maypearl,81.19,181.44,106.59,190.51,478.54,Single-ply,SBD,M,
Boys,82.1,5,Jaeden Davis,China Spring,77.11,181.44,99.79,192.78,474,Single-ply,SBD,M,
Boys,82.1,6,Ricky Garcia,Moody,75.3,176.9,102.06,190.51,469.47,Single-ply,SBD,M,
Boys,82.1,7,David Sims,Gatesville,79.83,183.7,108.86,165.56,458.13,Single-ply,SBD,M,
Boys,82.1,8,Jack Henry,China Spring,81.65,156.49,99.79,165.56,421.84,Single-ply,SBD,M,
Boys,82.1,9,Preston Isom,Lampasas,79.83,172.37,81.65,165.56,419.57,Single-ply,SBD,M,
Boys,82.1,10,Gauge Chandler,Meridian,76.88,145.15,83.91,174.63,403.7,Single-ply,SBD,M,
Boys,82.1,11,Kyle Wright,Valley Mills,77.56,142.88,86.18,163.29,392.36,Single-ply,SBD,M,
Boys,82.1,12,Austin Massingill,Jonesboro,79.38,154.22,61.23,163.29,378.75,Single-ply,SBD,M,
Boys,82.1,13,Jackson Clark,Valley Mills,78.93,140.61,90.72,145.15,376.48,Single-ply,SBD,M,
Boys,82.1,14,Jonah Utton,Meridian,79.83,122.47,79.38,147.42,349.27,Single-ply,SBD,M,
Boys,82.1,15,Trenton Southern,Valley Mills,79.83,117.93,72.57,145.15,335.66,Single-ply,SBD,M,
Boys,82.1,DQ,Cameron Elston,Lorena,80.29,,,,,Single-ply,SBD,M,
Boys,89.81,1,Cayden Mata,Gatesville,84.82,238.14,124.74,210.92,573.79,Single-ply,SBD,M,
Boys,89.81,2,Tristan Exline,China Spring,86.18,213.19,111.13,215.46,539.77,Single-ply,SBD,M,
Boys,89.81,3,Ryder Merritt,Maypearl,85.73,190.51,104.33,195.04,489.88,Single-ply,SBD,M,
Boys,89.81,4,Tristan Williams,Lorena,82.55,204.12,92.99,185.97,483.08,Single-ply,SBD,M,
Boys,89.81,5,Carson Fields,Lampasas,86.18,181.44,111.13,167.83,460.4,Single-ply,SBD,M,
Boys,89.81,6,Jacob Gipson,Waco Connally,82.55,158.76,124.74,156.49,439.98,Single-ply,SBD,M,
Boys,89.81,7,Jaysean Malone,Waco Connally,87.54,158.76,83.91,183.7,426.38,Single-ply,SBD,M,
Boys,89.81,8,Titan Richards,Maypearl,85.28,156.49,97.52,161.03,415.04,Single-ply,SBD,M,
Boys,89.81,9,Adam Hart,Axtell,84.37,165.56,97.52,147.42,410.5,Single-ply,SBD,M,
Boys,89.81,10,Jon Franco,Three Way,89.58,136.08,102.06,167.83,405.97,Single-ply,SBD,M,
Boys,89.81,11,Lalo Paz,Valley Mills,89.81,142.88,79.38,161.03,383.29,Single-ply,SBD,M,
Boys,89.81,12,Sean Magana,Moody,88.9,74.84,63.5,136.08,274.42,Single-ply,SBD,M,
Boys,89.81,13,Jason Yates,Moody,83.01,111.13,56.7,102.06,269.89,Single-ply,SBD,M,
Boys,89.81,DQ,Nathan Elliot,Gatesville,87.09,163.29,,,,Single-ply,SBD,M,
Boys,99.79,1,Aiden King,McGregor,91.63,242.67,147.42,235.87,625.96,Single-ply,SBD,M,
Boys,99.79,2,Dawson Exline,China Spring,90.72,238.14,145.15,238.14,621.42,Single-ply,SBD,M,
Boys,99.79,3,Colby Hale,China Spring,97.52,238.14,140.61,229.06,607.81,Single-ply,SBD,M,
Boys,99.79,4,Dylan Peek,Maypearl,94.8,204.12,140.61,226.8,571.53,Single-ply,SBD,M,
Boys,99.79,5,Thiele Alvarado,Gatesville,93.89,231.33,127.01,197.31,555.65,Single-ply,SBD,M,
Boys,99.79,6,Christian Teichelman,Valley Mills,94.8,219.99,113.4,183.7,517.1,Single-ply,SBD,M,
Boys,99.79,7,Wyatt Saunders,Moody,90.72,192.78,117.93,188.24,498.95,Single-ply,SBD,M,
Boys,99.79,8,Juan Hernandez #19,Itasca,92.99,195.04,95.25,183.7,474,Single-ply,SBD,M,
Boys,99.79,9,Jahnathan Ferguson,Waco Connally,98.43,174.63,106.59,188.24,469.47,Single-ply,SBD,M,
Boys,99.79,10,Colt Walling,Lampasas,90.72,158.76,124.74,174.63,458.13,Single-ply,SBD,M,
Boys,99.79,11,Lucas Braswell,Lorena,95.25,170.1,106.59,158.76,435.45,Single-ply,SBD,M,
Boys,99.79,12,Daniel Norton,Lampasas,96.62,154.22,106.59,165.56,426.38,Single-ply,SBD,M,
Boys,99.79,13,Landon Stegall,Lampasas,98.43,174.63,102.06,149.69,426.38,Single-ply,SBD,M,
Boys,99.79,14,Landon Rayford,Maypearl,99.79,151.95,90.72,136.08,378.75,Single-ply,SBD,M,
Boys,99.79,15,Kayden Kemp,China Spring,99.79,136.08,106.59,129.27,371.95,Single-ply,SBD,M,
Boys,99.79,16,Wil Federer,Lorena,94.35,142.88,74.84,142.88,360.61,Single-ply,SBD,M,
Boys,99.79,17,Matthew Toldan,China Spring,99.79,113.4,81.65,127.01,322.05,Single-ply,SBD,M,
Boys,99.79,DQ,Bodhi Westra,Lampasas,93.89,,,,,Single-ply,SBD,M,
Boys,109.77,1,Frank Cruz,McGregor,108.41,231.33,172.37,217.72,621.42,Single-ply,SBD,M,
Boys,109.77,2,Jaiden Taylor,China Spring,108.86,215.46,140.61,215.46,571.53,Single-ply,SBD,M,
Boys,109.77,3,Trey Haynes,Valley Mills,103.42,222.26,138.35,204.12,564.72,Single-ply,SBD,M,
Boys,109.77,4,Marshall Vrana,Lorena,106.59,192.78,124.74,206.38,523.9,Single-ply,SBD,M,
Boys,109.77,5,Tyler Martel,China Spring,100.24,165.56,117.93,176.9,460.4,Single-ply,SBD,M,
Boys,109.77,6,Braden Moore,Axtell,107.95,165.56,86.18,199.58,451.32,Single-ply,SBD,M,
Boys,109.77,7,Payton Brister,Jonesboro,102.97,,77.11,181.44,258.55,Single-ply,BD,M,
Boys,124.74,1,Ryan Smiley,Gatesville,122.47,349.27,188.24,254.01,791.52,Single-ply,SBD,M,
Boys,124.74,2,Carter Chandler,McGregor,121.11,274.42,149.69,226.8,650.91,Single-ply,SBD,M,
Boys,124.74,3,Joe Gutshall,Lorena,115.67,226.8,145.15,226.8,598.74,Single-ply,SBD,M,
Boys,124.74,4,Greg Salazar,China Spring,116.12,195.04,165.56,192.78,553.38,Single-ply,SBD,M,
Boys,124.74,5,Ryan Allred,McGregor,122.38,229.06,122.47,188.24,539.77,Single-ply,SBD,M,
Boys,124.74,6,Jeremiah Cleveland,Waco Connally,119.29,199.58,102.06,204.12,505.76,Single-ply,SBD,M,
Boys,124.74,7,Carter Norman,Lorena,115.67,204.12,117.93,181.44,503.49,Single-ply,SBD,M,
Boys,124.74,8,John Wyatt #2,Meridian,119.75,188.24,120.2,183.7,492.15,Single-ply,SBD,M,
Boys,124.74,9,Cole Alton,Moody,110.68,181.44,136.08,167.83,485.34,Single-ply,SBD,M,
Boys,124.74,10,Gage Ashley,Lorena,117.93,192.78,108.86,183.7,485.34,Single-ply,SBD,M,
Boys,124.74,11,Steven Bomar,Gatesville,117.48,183.7,115.67,181.44,480.81,Single-ply,SBD,M,
Boys,124.74,12,John Gorrell,Maypearl,122.47,174.63,120.2,185.97,480.81,Single-ply,SBD,M,
Boys,124.74,13,Krew Patton,Maypearl,116.57,165.56,117.93,161.03,444.52,Single-ply,SBD,M,
Boys,139.71,1,Devon Jenkins,McGregor,126.78,276.69,158.76,231.33,666.78,Single-ply,SBD,M,
Boys,139.71,2,Davis Orr,Moody,126.1,226.8,158.76,226.8,612.35,Single-ply,SBD,M,
Boys,139.71,3,Landon McMillan,China Spring,127.01,226.8,140.61,188.24,555.65,Single-ply,SBD,M,
Boys,139.71,4,Zach Bryant,Gatesville,138.35,226.8,136.08,183.7,546.58,Single-ply,SBD,M,
Boys,139.71,5,Augustine Jimenez,McGregor,126.01,213.19,124.74,174.63,512.56,Single-ply,SBD,M,
Boys,139.71,6,Joseph Walden,Lampasas,128.82,165.56,111.13,151.95,428.64,Single-ply,SBD,M,
Boys,139.71+,1,Jackson Blackwell,Lorena,140.61,249.48,174.63,249.48,673.58,Single-ply,SBD,M,
Boys,139.71+,2,Domeniss McFadden,McGregor,150.82,272.16,142.88,215.46,630.49,Single-ply,SBD,M,
Boys,,NS,Bryice Polk,McGregor,,,,,,Single-ply,SBD,M,
Boys,,NS,Phillip Soto,Waco Connally,,,,,,Single-ply,SBD,M,
Boys,,NS,Damion Pearson,Waco Connally,,,,,,Single-ply,SBD,M,
Boys,,NS,Daiylon Richardson,Waco Connally,,,,,,Single-ply,SBD,M,
