Division,WeightClassKg,Place,Name,Team,BodyweightKg,Best3SquatKg,Best3BenchKg,Best3DeadliftKg,TotalKg,Equipment,Event,Sex,BirthDate
Boys,51.71,1,Xavier Flores,Merkel,50.8,120.2,61.23,138.35,319.78,Single-ply,SBD,M,
Boys,51.71,2,Axel Cervantes,Roscoe Collegiate,49.8,77.11,49.9,102.06,229.06,Single-ply,SBD,M,
Boys,55.79,1,Adrian Avalos,Snyder,55.16,170.1,88.45,170.1,428.64,Single-ply,SBD,M,
Boys,55.79,2,Alejandro Flores,Snyder,54.52,170.1,83.91,170.1,424.11,Single-ply,SBD,M,
Boys,55.79,3,Tyler Munoz,Sweetwater,55.34,142.88,86.18,138.35,367.41,Single-ply,SBD,M,
Boys,55.79,4,Trey Jimenez,Sweetwater,54.43,142.88,72.57,145.15,360.61,Single-ply,SBD,M,
Boys,55.79,5,Graham Gleaton,Roscoe Collegiate,55.43,102.06,61.23,113.4,276.69,Single-ply,SBD,M,
Boys,59.87,1,Cougar Jetton,San Angelo Grape Creek,59.24,188.24,95.25,163.29,446.79,Single-ply,SBD,M,
Boys,59.87,2,Colten Morgan,Roscoe Highland,59.78,122.47,74.84,145.15,342.46,Single-ply,SBD,M,
Boys,59.87,3,Keller Vinson,Roscoe Collegiate,59.69,136.08,68.04,124.74,328.85,Single-ply,SBD,M,
Boys,59.87,4,Aiden Compton,San Angelo Central,57.06,97.52,56.7,113.4,267.62,Single-ply,SBD,M,
Boys,59.87,5,Jadin Silva,Snyder,57.79,79.38,63.5,72.57,215.46,Single-ply,SBD,M,
Boys,59.87,DQ,Chandler Tran,Snyder,59.51,,,,,Single-ply,SBD,M,
Boys,67.13,1,Eric Martinez,Sweetwater,66.86,215.46,124.74,215.46,555.65,Single-ply,SBD,M,
Boys,67.13,2,Luis Cabrera,Snyder,66.68,210.92,120.2,185.97,517.1,Single-ply,SBD,M,
Boys,67.13,3,Tristen Thompson,Merkel,61.6,201.85,124.74,188.24,514.83,Single-ply,SBD,M,
Boys,67.13,4,John Rivera,Snyder,65.14,201.85,102.06,210.92,514.83,Single-ply,SBD,M,
Boys,67.13,5,Jeremiah Orosco,Snyder,64.86,188.24,79.38,170.1,437.72,Single-ply,SBD,M,
Boys,67.13,6,Jamarian Amos,Sweetwater,65.68,165.56,97.52,151.95,415.04,Single-ply,SBD,M,
Boys,67.13,7,Calixto Mendez,Sweetwater,66.04,151.95,92.99,156.49,401.43,Single-ply,SBD,M,
Boys,67.13,8,Noah Fuentes,Snyder,64.05,151.95,102.06,142.88,396.89,Single-ply,SBD,M,
Boys,67.13,9,Cory Lane,Anson,67.13,142.88,77.11,165.56,385.55,Single-ply,SBD,M,
Boys,67.13,10,Shane Wiseman,Snyder,60.06,138.35,97.52,124.74,360.61,Single-ply,SBD,M,
Boys,67.13,11,Jaiden Frith,Roscoe Collegiate,60.78,122.47,74.84,115.67,312.98,Single-ply,SBD,M,
Boys,67.13,DQ,Levi Muncy,Roscoe Highland,63.5,,,,,Single-ply,SBD,M,
Boys,67.13,DQ,Atre Allen,San Angelo Central,64.05,136.08,,,,Single-ply,SBD,M,
Boys,74.84,1,Oscar Montoya,Merkel,67.31,199.58,108.86,190.51,498.95,Single-ply,SBD,M,
Boys,74.84,2,Jay Castillo,Snyder,74.3,174.63,113.4,190.51,478.54,Single-ply,SBD,M,
Boys,74.84,3,Ryan Pacheco,Midland Legacy,73.48,151.95,120.2,188.24,460.4,Single-ply,SBD,M,
Boys,74.84,4,Nicholas Perez,San Angelo Central,68.76,165.56,92.99,192.78,451.32,Single-ply,SBD,M,
Boys,74.84,5,Jase Ellison,Merkel,72.12,170.1,90.72,181.44,442.25,Single-ply,SBD,M,
Boys,74.84,6,Reese Kiser,Roscoe Collegiate,73.39,165.56,106.59,161.03,433.18,Single-ply,SBD,M,
Boys,74.84,7,Bailey Jowers,San Angelo Central,68.49,156.49,90.72,167.83,415.04,Single-ply,SBD,M,
Boys,74.84,8,Jace Adames,Sweetwater,69.13,142.88,97.52,163.29,403.7,Single-ply,SBD,M,
Boys,74.84,9,Jayden Spells,Anson,70.22,129.27,83.91,165.56,378.75,Single-ply,SBD,M,
Boys,74.84,10,Blayne Bankhead,Roscoe Highland,71.76,122.47,68.04,154.22,344.73,Single-ply,SBD,M,
Boys,74.84,DQ,Matthew Richard,Anson,69.49,115.67,83.91,,,Single-ply,SBD,M,
Boys,74.84,DQ,Grayson Bond,San Angelo Grape Creek,74.75,124.74,,,,Single-ply,SBD,M,
Boys,82.1,1,Ngai Thang,Midland Legacy,81.65,219.99,129.27,206.38,555.65,Single-ply,SBD,M,
Boys,82.1,2,Michael Fulton,Roscoe Collegiate,77.02,210.92,131.54,195.04,537.51,Single-ply,SBD,M,
Boys,82.1,3,Tristen Harding,Roscoe Highland,81.47,204.12,111.13,208.65,523.9,Single-ply,SBD,M,
Boys,82.1,4,Ethan Brockman,Sweetwater,81.74,201.85,108.86,213.19,523.9,Single-ply,SBD,M,
Boys,82.1,5,Quay Lloyd,Roscoe Highland,78.29,147.42,88.45,197.31,433.18,Single-ply,SBD,M,
Boys,82.1,6,Brayden Winans,San Angelo Grape Creek,79.83,142.88,72.57,147.42,362.87,Single-ply,SBD,M,
Boys,89.81,1,Cedrick Brown,Sweetwater,83.64,219.99,131.54,213.19,564.72,Single-ply,SBD,M,
Boys,89.81,2,Xander Richardson,Snyder,89.81,215.46,115.67,204.12,535.24,Single-ply,SBD,M,
Boys,89.81,3,Lucas Jordahl,San Angelo Grape Creek,85.55,192.78,108.86,192.78,494.42,Single-ply,SBD,M,
Boys,89.81,4,Felipe Ramirez,Midland Legacy,85.18,158.76,108.86,176.9,444.52,Single-ply,SBD,M,
Boys,89.81,5,Justin Saenz,Roscoe Collegiate,87.63,142.88,92.99,161.03,396.89,Single-ply,SBD,M,
Boys,89.81,6,Rylan Ortiz,Merkel,86.55,129.27,79.38,145.15,353.8,Single-ply,SBD,M,
Boys,99.79,1,Reyes Silva,Snyder,98.16,351.53,179.17,272.16,802.86,Single-ply,SBD,M,
Boys,99.79,2,Kreed Turney,Roscoe Highland,97.7,226.8,147.42,226.8,601.01,Single-ply,SBD,M,
Boys,99.79,3,Caleb Lee,Sweetwater,95.8,192.78,131.54,201.85,526.17,Single-ply,SBD,M,
Boys,99.79,4,Caleb Russell,San Angelo Central,93.8,197.31,113.4,213.19,523.9,Single-ply,SBD,M,
Boys,99.79,5,Josiah St John,Anson,98.43,183.7,133.81,156.49,474,Single-ply,SBD,M,
Boys,99.79,6,Jace Thompson,Anson,99.79,156.49,102.06,158.76,417.3,Single-ply,SBD,M,
Boys,99.79,7,Auston Jahn,Snyder,89.99,179.17,74.84,156.49,410.5,Single-ply,SBD,M,
Boys,109.77,1,Ely Barrera,Sweetwater,108.86,272.16,142.88,244.94,659.98,Single-ply,SBD,M,
Boys,109.77,2,Elijah Flores,Merkel,108.5,219.99,151.95,254.01,625.96,Single-ply,SBD,M,
Boys,109.77,3,Peyton Friedman,Roscoe Collegiate,106.32,226.8,136.08,199.58,562.45,Single-ply,SBD,M,
Boys,109.77,4,Nate Bennett,Roscoe Highland,103.06,204.12,120.2,233.6,557.92,Single-ply,SBD,M,
Boys,109.77,5,Christian Reyes,Midland Legacy,101.79,197.31,131.54,206.38,535.24,Single-ply,SBD,M,
Boys,109.77,6,Connor Elliott,Midland Legacy,99.88,188.24,138.35,195.04,521.63,Single-ply,SBD,M,
Boys,109.77,7,Jonathan Taylor,Midland Legacy,102.24,192.78,131.54,183.7,508.02,Single-ply,SBD,M,
Boys,109.77,8,Juan Torres #12,Midland Legacy,104.69,183.7,151.95,172.37,508.02,Single-ply,SBD,M,
Boys,109.77,9,Bren Dyess,Midland Legacy,107.14,185.97,142.88,176.9,505.76,Single-ply,SBD,M,
Boys,109.77,10,Tate Cain,Roscoe Highland,106.05,167.83,127.01,201.85,496.68,Single-ply,SBD,M,
Boys,109.77,11,Isaac Silva,San Angelo Grape Creek,103.69,170.1,115.67,170.1,455.86,Single-ply,SBD,M,
Boys,109.77,12,Esi Maldodo,Anson,101.6,149.69,83.91,183.7,417.3,Single-ply,SBD,M,
Boys,109.77,13,Jose Huerta,Merkel,102.33,120.2,65.77,136.08,322.05,Single-ply,SBD,M,
Boys,109.77,DQ,Jaylon James,Snyder,107.95,272.16,145.15,,,Single-ply,SBD,M,
Boys,124.74,1,Jonovan Matthews,Midland Legacy,113.67,249.48,183.7,249.48,682.66,Single-ply,SBD,M,
Boys,124.74,2,Vance Martinez,Snyder,114.53,224.53,127.01,210.92,562.45,Single-ply,SBD,M,
Boys,124.74,3,Diego Vela,Roscoe Collegiate,111.86,204.12,165.56,181.44,551.11,Single-ply,SBD,M,
Boys,124.74,4,Lucas Barrientes,Midland Legacy,112.94,204.12,127.01,181.44,512.56,Single-ply,SBD,M,
Boys,124.74,5,Eduardo Islas,Roscoe Collegiate,111.95,163.29,86.18,154.22,403.7,Single-ply,SBD,M,
Boys,124.74,6,Bryan Guynes,San Angelo Central,119.84,92.99,65.77,147.42,306.17,Single-ply,SBD,M,
Boys,139.71,1,Aden Hernandez,Snyder,129,240.4,179.17,215.46,635.03,Single-ply,SBD,M,
Boys,139.71+,1,Xavier Lopez,Roscoe Collegiate,140.07,222.26,136.08,163.29,521.63,Single-ply,SBD,M,
Boys,139.71+,2,Abel Lopez,Sweetwater,152.68,167.83,117.93,197.31,483.08,Single-ply,SBD,M,
Boys,139.71+,DQ,Gage Bathrop,Roscoe Highland,162.3,213.19,97.52,,,Single-ply,SBD,M,
