Place,WeightClassKg,Sex,Name,Team,BodyweightKg,Squat1Kg,Squat2Kg,Squat3Kg,Best3SquatKg,Bench1Kg,Bench2Kg,Bench3Kg,Best3BenchKg,Deadlift1Kg,Deadlift2Kg,Deadlift3Kg,Best3DeadliftKg,TotalKg,Event,Equipment,Division
1,52,F,Paulina Szymanel,Politechnika Gdańska,48.1,90,95,,95,72.5,75,-78,75,120,130,-141,130,300,SBD,Raw,Seniorki
2,52,F,Alicja Lipka,Uniwersytet Przyrodniczy w Lublinie,51.4,90,100,110,110,47.5,52.5,-57.5,52.5,105,115,122.5,122.5,285,SBD,Raw,Seniorki
3,52,F,Natalia Jurczak,Akademia Wychowania Fizycznego w Warszawie,46,87.5,97.5,-100,97.5,45,47.5,50,50,95,105,-107.5,105,252.5,SBD,Raw,Seniorki
4,52,F,Justyna Zawada,Politechnika Opolska,48.5,87.5,95,100,100,37.5,42.5,45,45,-90,95,105,105,250,SBD,Raw,Seniorki
5,52,F,Aleksandra Banasiak,Politechnika Łódzka,51.1,77.5,-85,85,85,45,50,52.5,52.5,95,105,110,110,247.5,SBD,Raw,Seniorki
6,52,F,Viktoriia Voloshchenko,Politechnika Łódzka,50.4,80,85,-87.5,85,40,45,-47.5,45,95,105,110,110,240,SBD,Raw,Seniorki
7,52,F,Natalia Wencel,Wyższa Szkoła Bankowa w Poznaniu Wydział Zamiejscowy w Chorzowie,51.3,95,-97.5,-97.5,95,50,52.5,-55,52.5,87.5,-90,-90,87.5,235,SBD,Raw,Seniorki
8,52,F,Zuzanna Marczak,Akademia Wychowania Fizycznego i Sportu w Gdańsku,50.6,82.5,-85,87.5,87.5,45,47.5,-52.5,47.5,92.5,-95,-95,92.5,227.5,SBD,Raw,Seniorki
9,52,F,Dominikia Chuda,Politechnika Rzeszowska,51.4,60,70,75,75,40,45,-50,45,70,85,95,95,215,SBD,Raw,Seniorki
10,52,F,Julia Perek,Uniwersytet Ekonomiczny w Katowicach,50.5,50,60,65,65,25,37.5,42.5,42.5,60,80,85,85,192.5,SBD,Raw,Seniorki
11,52,F,Sylwia Chruszcz,Uniwersytet Medyczny w Łodzi,49.6,62.5,67.5,-72.5,67.5,-32.5,32.5,-37.5,32.5,80,90,-100,90,190,SBD,Raw,Seniorki
12,52,F,Sylwia Piwowarczyk,Uniwersytet Łódzki,50.7,55,-60,-62.5,55,40,42.5,-45,42.5,80,85,90,90,187.5,SBD,Raw,Seniorki
13,52,F,Alicja Zaremba,Uniwersytet Ekonomiczny w Katowicach,49.2,-40,40,-50,40,25,-27.5,-27.5,25,40,50,55,55,120,SBD,Raw,Seniorki
G,57,F,Karolina Nowok,Akademia Wychowania Fizycznego w Katowicach,54.4,110,112.5,115,115,47.5,50,-52.5,50,110,115,120,120,285,SBD,Raw,Seniorki
DQ,52,F,Natalia Symela,Śląski Uniwersytet Medyczny w Katowicach,45.2,-35,-35,-35,,,,,,,,,,,SBD,Raw,Seniorki
DQ,52,F,Monika Lisak,Państwowa Wyższa Szkoła Zawodowa w Tarnowie,51.4,-60,-60,-60,,30,-32.5,-40,30,70,75,80,80,,SBD,Raw,Seniorki
1,57,F,Joanna Czekurłan,Uniwersytet Wrocławski,55.9,-121,121,-125,121,77.5,80,82.5,82.5,120,127.5,-130,127.5,331,SBD,Raw,Seniorki
2,57,F,Inga Dynowska,Uniwersytet Medyczny w Lublinie,56.4,110,-115,115,115,55,60,-62.5,60,140,145,148,148,323,SBD,Raw,Seniorki
3,57,F,Iga Dąbek,Wyższa Szkoła Policji w Szczytnie,55.7,105,115,122.5,122.5,55,60,62.5,62.5,110,122.5,130,130,315,SBD,Raw,Seniorki
4,57,F,Alicja Szymkowiak,Akademia Wychowania Fizycznego we Wrocławiu,57,100,110,117.5,117.5,50,-55,55,55,115,130,-145,130,302.5,SBD,Raw,Seniorki
5,57,F,Alicja Kowal,Politechnika Poznańska,55.2,105,-110,-110,105,62.5,-65,65,65,120,-130,130,130,300,SBD,Raw,Seniorki
6,57,F,Marta Jagielska,Wyższa Szkoła Policji w Szczytnie,56.5,95,-100,100,100,55,-57.5,57.5,57.5,112.5,120,127.5,127.5,285,SBD,Raw,Seniorki
7,57,F,Anna Fistek,Uniwersytet Technologiczno - Przyrodniczy w Bydgoszczy,54.3,95,102.5,105,105,45,52.5,-55,52.5,115,125,-130,125,282.5,SBD,Raw,Seniorki
8,57,F,Beata Błaszczyk,Uniwersytet Jagielloński w Krakowie,53.8,85,95,100,100,37.5,-42.5,-42.5,37.5,110,120,125,125,262.5,SBD,Raw,Seniorki
9,57,F,Sandra Wojtasik,Państwowa Wyższa Szkoła Zawodowa w Nysie,56.7,75,-80,80,80,55,-57.5,-57.5,55,120,125,-135,125,260,SBD,Raw,Seniorki
10,57,F,Klaudia Wróbel,Uniwersytet Przyrodniczy w Lublinie,56.5,95,100,-105,100,40,-50,-50,40,105,115,-125,115,255,SBD,Raw,Seniorki
11,57,F,Gabriela Pietraszek,Uniwersytet Warmińsko-Mazurski w Olsztynie,54.5,-92.5,92.5,100,100,47.5,50,-52.5,50,90,97.5,102.5,102.5,252.5,SBD,Raw,Seniorki
12,57,F,Wiktoria Kaiser,Politechnika Gdańska,53.3,90,97.5,-102.5,97.5,50,55,57.5,57.5,85,95,-102.5,95,250,SBD,Raw,Seniorki
13,57,F,Zuzanna Sobolewska,Wyższa Szkoła Zarządzania w Gdańsku,56.8,85,-90,90,90,47.5,50,-52.5,50,105,110,-115,110,250,SBD,Raw,Seniorki
14,57,F,Aleksandra Kantypowicz,Uniwersytet Gdański,55.9,80,90,100,100,40,-45,-50,40,85,95,100,100,240,SBD,Raw,Seniorki
15,57,F,Gabriela Jurecka,Uniwersytet Przyrodniczy w Lublinie,56.8,70,80,85,85,40,45,47.5,47.5,105,-112.5,-120,105,237.5,SBD,Raw,Seniorki
16,57,F,Weronika Kawa,Uniwersytet Przyrodniczy w Lublinie,57,85,-92.5,-92.5,85,37.5,-42.5,-42.5,37.5,110,115,-120,115,237.5,SBD,Raw,Seniorki
17,57,F,Justyna Legumina,Uniwersytet Przyrodniczy w Poznaniu,56.2,60,65,70,70,45,47.5,50,50,100,110,-120,110,230,SBD,Raw,Seniorki
18,57,F,Anna Elsner,Szkoła Główna Handlowa w Warszawie,56.8,77.5,-82.5,-82.5,77.5,37.5,40,42.5,42.5,95,102.5,110,110,230,SBD,Raw,Seniorki
19,57,F,Klaudia Woźniak,Uniwersytet Łódzki,55.1,-65,-65,65,65,45,-47.5,-47.5,45,95,105,115,115,225,SBD,Raw,Seniorki
20,57,F,Anna Szwędrys,Uniwersytet Warmińsko-Mazurski w Olsztynie,55.8,-82.5,82.5,87.5,87.5,45,47.5,-50,47.5,80,85,90,90,225,SBD,Raw,Seniorki
21,57,F,Sylwia Gadomska,Uniwersytet Marii Curie - Skłodowskiej w Lublinie,56.6,72.5,-80,80,80,40,-45,45,45,80,90,100,100,225,SBD,Raw,Seniorki
22,57,F,Justyna Rychły,Uniwersytet Adama Mickiewicza w Poznaniu,56.6,72.5,77.5,80,80,42.5,45,-47.5,45,92.5,97.5,100,100,225,SBD,Raw,Seniorki
23,57,F,Agnieszka Kuczmaszewska,Państwowa Wyższa Szkoła Zawodowa w Zamościu,52.2,75,80,82.5,82.5,35,37.5,40,40,80,85,90,90,212.5,SBD,Raw,Seniorki
24,57,F,Karolina Boruszka,Uniwersytet Łódzki,55.9,-70,70,-75,70,42.5,45,-47.5,45,90,95,-100,95,210,SBD,Raw,Seniorki
25,57,F,Aleksandra Skowron,Katolicki Uniwersytet Lubelski Jana Pawła II,55.5,65,75,-82.5,75,-37.5,40,45,45,75,85,-95,85,205,SBD,Raw,Seniorki
26,57,F,Agata Górna,Politechnika Śląska w Gliwicach,55.6,65,-70,70,70,-35,40,-42.5,40,80,85,90,90,200,SBD,Raw,Seniorki
27,57,F,Joanna Zagrodnik,Uniwersytet Ekonomiczny w Katowicach,56.1,60,-65,-65,60,30,-35,35,35,70,80,90,90,185,SBD,Raw,Seniorki
28,57,F,Oliwia Kołodziejczyk,Uniwersytet Ekonomiczny w Katowicach,57,60,67.5,-75,67.5,27.5,32.5,-37.5,32.5,70,75,80,80,180,SBD,Raw,Seniorki
29,57,F,Nadia Płońska,Uniwersytet Ekonomiczny w Poznaniu,55.9,50,55,60,60,-25,25,-30,25,60,70,80,80,165,SBD,Raw,Seniorki
DQ,57,F,Ada Urbanska,Politechnika Śląska w Gliwicach,55.9,-80,-80,-80,,35,37.5,40,40,85,95,100,100,,SBD,Raw,Seniorki
DQ,57,F,Kamila Kuźnicka,Śląska Wyższa Szkoła Medyczna w Katowicach,57,105,-115,-115,105,-52.5,-57.5,,,105,115,-127.5,115,,SBD,Raw,Seniorki
DQ,57,F,Anna Kaźmierowska,Uniwersytet Ekonomiczny w Poznaniu,57,-97.5,-97.5,-97.5,,47.5,-52.5,-52.5,47.5,120,132.5,-145,132.5,,SBD,Raw,Seniorki
1,63,F,Marika Zandecka,Uniwersytet Adama Mickiewicza w Poznaniu,62.2,132.5,140,146,146,72.5,75,77,77,155,165.5,172,172,395,SBD,Raw,Seniorki
2,63,F,Justyna Turek,Uniwersytet Rolniczy w Krakowie,62.3,-125,-125,125,125,65,67.5,-70,67.5,155,165,170,170,362.5,SBD,Raw,Seniorki
3,63,F,Agata Przybylska,Uniwersytet Warszawski,59.5,115,127.5,-132.5,127.5,60,65,-67.5,65,135,150,-166,150,342.5,SBD,Raw,Seniorki
4,63,F,Martyna Roczkalska,Akademia Wychowania Fizycznego w Katowicach,62.3,-125,125,,125,62.5,-67.5,-67.5,62.5,125,135,145,145,332.5,SBD,Raw,Seniorki
5,63,F,Kinga Wójtowicz,Uniwersytet Przyrodniczy w Lublinie,61,90,100,-105,100,55,60,65,65,125,140,156,156,321,SBD,Raw,Seniorki
6,63,F,Michalina Walkowiak,Akademia Wychowania Fizycznego w Poznaniu,62.1,-115,115,-120,115,60,62.5,65,65,122.5,130,-135,130,310,SBD,Raw,Seniorki
7,63,F,Małgorzata Halemska,Uniwersytet Gdański,62.2,95,102.5,105,105,45,-50,50,50,137.5,147.5,-157.5,147.5,302.5,SBD,Raw,Seniorki
8,63,F,Natalia Hupało,Akademia Wychowania Fizycznego we Wrocławiu,61.3,95,102.5,107.5,107.5,65,70,-72.5,70,110,120,-130,120,297.5,SBD,Raw,Seniorki
9,63,F,Joanna Lenart,Uniwersytet Ekonomiczny w Krakowie,62.1,-107.5,107.5,112.5,112.5,52.5,-55,-55,52.5,115,120,125,125,290,SBD,Raw,Seniorki
10,63,F,Katarzyna Walczak,Uniwersytet Adama Mickiewicza w Poznaniu,61.8,102.5,-107.5,-107.5,102.5,47.5,-50,-50,47.5,125,132.5,137.5,137.5,287.5,SBD,Raw,Seniorki
11,63,F,Natalia Zięba,Warszawski Uniwersytet Medyczny,60.9,97.5,-107.5,-107.5,97.5,55,60,-65,60,117.5,127.5,-137.5,127.5,285,SBD,Raw,Seniorki
12,63,F,Aleksandra Sobiech,Pomorski Uniwersytet Medyczny w Szczecinie,62.4,-95,-95,95,95,55,60,-65,60,110,120,-130,120,275,SBD,Raw,Seniorki
13,63,F,Ewelina Czop,Wyższa Szkoła Policji w Szczytnie,60.9,105,110,-115,110,40,42.5,-45,42.5,105,112.5,117.5,117.5,270,SBD,Raw,Seniorki
14,63,F,Michalina Leśniewska,Gdański Uniwersytet Medyczny,61.5,82.5,87.5,92.5,92.5,45,50,52.5,52.5,110,117.5,125,125,270,SBD,Raw,Seniorki
15,63,F,Paulina Krupa,Śląski Uniwersytet Medyczny w Katowicach,60.6,-95,-95,95,95,47.5,-52.5,52.5,52.5,120,-130,-132.5,120,267.5,SBD,Raw,Seniorki
16,63,F,Martyna Kielin,Uniwersytet Jagielloński w Krakowie,62.2,80,-87.5,-87.5,80,47.5,-52.5,-52.5,47.5,120,130,132.5,132.5,260,SBD,Raw,Seniorki
17,63,F,Julia Brejwo,Uniwersytet Adama Mickiewicza w Poznaniu,62,82.5,-87.5,90,90,50,52.5,-55,52.5,102.5,107.5,112.5,112.5,255,SBD,Raw,Seniorki
18,63,F,Angelika Gronowska,Uniwersytet Szczeciński,62.3,85,-90,-90,85,45,50,-55,50,105,110,120,120,255,SBD,Raw,Seniorki
19,63,F,Martyna Zyśk,Szkoła Główna Handlowa w Warszawie,61.5,85,92.5,-100,92.5,37.5,40,42.5,42.5,100,107.5,115,115,250,SBD,Raw,Seniorki
20,63,F,Daria Trepczyk,Uniwersytet Gdański,61.9,-95,-95,95,95,-42.5,-45,45,45,105,110,-115,110,250,SBD,Raw,Seniorki
21,63,F,Gabriela Szymańska,Politechnika Rzeszowska,60.2,-80,80,-87.5,80,45,47.5,50,50,102.5,107.5,110,110,240,SBD,Raw,Seniorki
22,63,F,Aleksandra Bańbor,Politechnika Śląska w Gliwicach,61.7,-85,-85,87.5,87.5,55,57.5,-60,57.5,85,95,-100,95,240,SBD,Raw,Seniorki
23,63,F,Sandra Kieszkowska,Uniwersytet Łódzki,62.9,87.5,-92.5,-92.5,87.5,40,42.5,-45,42.5,100,105,110,110,240,SBD,Raw,Seniorki
24,63,F,Patrycja Polewaczyk,Uniwersytet Warmińsko-Mazurski w Olsztynie,62.9,80,85,-90,85,37.5,42.5,-45,42.5,90,97.5,-102.5,97.5,225,SBD,Raw,Seniorki
25,63,F,Julia Przybysz,Politechnika Poznańska,61.6,70,75,-80,75,37.5,40,-42.5,40,80,95,100,100,215,SBD,Raw,Seniorki
26,63,F,Karolina Buras,Akademia Techniczno - Humanistyczna w Bielsku-Białej,60.6,-70,70,-75,70,40,-42.5,42.5,42.5,85,95,-102.5,95,207.5,SBD,Raw,Seniorki
27,63,F,Agata Kucharzewska,Uniwersytet Jagielloński w Krakowie,61.7,70,80,-82.5,80,32.5,37.5,-40,37.5,70,80,90,90,207.5,SBD,Raw,Seniorki
28,63,F,Dominika Sobczak,Uniwersytet Ekonomiczny w Poznaniu,59.2,65,-67.5,70,70,35,37.5,40,40,85,90,95,95,205,SBD,Raw,Seniorki
29,63,F,Marta Piotrowska,Uniwersytet Mikołaja Kopernika w Toruniu,62.2,60,65,-70,65,37.5,40,-42.5,40,70,-80,80,80,185,SBD,Raw,Seniorki
30,63,F,Kamila Matuszak,Państwowa Wyższa Szkoła Zawodowa w Nysie,59.4,-50,55,67.5,67.5,27.5,30,32.5,32.5,65,75,80,80,180,SBD,Raw,Seniorki
31,63,F,Maria Tułecka,Uniwersytet Szczeciński,59.6,-60,-60,60,60,25,30,32.5,32.5,70,75,77.5,77.5,170,SBD,Raw,Seniorki
DQ,63,F,Magdalena Kwiatek,Politechnika Rzeszowska,60.7,-125,-125,-125,,65,70,72.5,72.5,110,117.5,-125,117.5,,SBD,Raw,Seniorki
DQ,63,F,Klaudia Łącz,Uniwersytet Medyczny w Łodzi,61.4,-125,-125,-125,,62.5,67.5,-70,67.5,,,,,,SBD,Raw,Seniorki
G,72,F,Snizhana Derkach,Wyższa Szkoła Bankowa w Poznaniu,64,65,-75,-80,65,35,40,-42.5,40,85,95,-102.5,95,200,SBD,Raw,Seniorki
1,72,F,Alicja Klińska,Politechnika Gdańska,68.7,117.5,125,-130,125,57.5,62.5,67.5,67.5,150,160,167.5,167.5,360,SBD,Raw,Seniorki
2,72,F,Edyta Stark,Uniwersytet Mikołaja Kopernika w Toruniu,66.5,127.5,137.5,142.5,142.5,55,60,62.5,62.5,137.5,147.5,152.5,152.5,357.5,SBD,Raw,Seniorki
3,72,F,Julia Wilczyńska,Uniwersytet Ekonomiczny w Krakowie,70.3,-120,120,125,125,65,70,-72.5,70,135,145,-150,145,340,SBD,Raw,Seniorki
4,72,F,Magdalena Ziętek,Uniwersytet Technologiczno-Humanistyczny im Kazimierza Pułaskiego w Radomiu,68.9,-120,125,132.5,132.5,50,55,-60,55,120,127.5,135,135,322.5,SBD,Raw,Seniorki
5,72,F,Aleksandra Milczarek,Uniwersytet Adama Mickiewicza w Poznaniu,68.8,120,125,127.5,127.5,45,47.5,50,50,125,132.5,140,140,317.5,SBD,Raw,Seniorki
6,72,F,Izabela Janiak,Politechnika Łódzka,71.6,115,120,-125,120,55,57.5,-60,57.5,120,130,-140,130,307.5,SBD,Raw,Seniorki
7,72,F,Paulina Randzio,Uniwersytet Warmińsko-Mazurski w Olsztynie,66.9,107.5,112.5,-117.5,112.5,52.5,-55,-55,52.5,127.5,-135,135,135,300,SBD,Raw,Seniorki
8,72,F,Aleksandra Pachnicka,Politechnika Łódzka,71.1,110,-117.5,-120,110,55,-60,-60,55,120,130,-140,130,295,SBD,Raw,Seniorki
9,72,F,Joanna Oćwieja,Uniwersytet Jagielloński w Krakowie,68,-100,-102.5,107.5,107.5,45,47.5,-55,47.5,125,132.5,137.5,137.5,292.5,SBD,Raw,Seniorki
10,72,F,Aleksandra Iwanek,Uniwersytet Marii Curie - Skłodowskiej w Lublinie,65.7,-90,90,100,100,55,-60,-62.5,55,125,135,-140,135,290,SBD,Raw,Seniorki
11,72,F,Dorota Gędoś,Akademia Wychowania Fizycznego w Krakowie,67.4,-100,100,105,105,50,55,60,60,110,125,-135,125,290,SBD,Raw,Seniorki
12,72,F,Hanna Gałuszka,Zachodniopomorski Uniwersytet Technologiczny w Szczecinie,66,80,95,105,105,35,45,-52.5,45,120,135,-140,135,285,SBD,Raw,Seniorki
13,72,F,Emilia Rechul,Państwowa Wyższa Szkoła Zawodowa w Zamościu,67.5,105,-120,-120,105,50,55,-60,55,-115,120,125,125,285,SBD,Raw,Seniorki
14,72,F,Magdalena Bryk,Szkoła Główna Handlowa w Warszawie,68.7,87.5,92.5,-97.5,92.5,50,-52.5,52.5,52.5,135,140,-145,140,285,SBD,Raw,Seniorki
15,72,F,Anita Słomska,Katolicki Uniwersytet Lubelski Jana Pawła II,69.5,100,105,,105,52.5,57.5,-62.5,57.5,120,-130,,120,282.5,SBD,Raw,Seniorki
16,72,F,Joanna Wierzbicka,Szkoła Główna Gospodarstwa Wiejskiego w Warszawie,68.3,80,90,95,95,45,50,-55,50,115,125,135,135,280,SBD,Raw,Seniorki
17,72,F,Żaneta Mielczarek,Politechnika Śląska w Gliwicach,68.5,85,97.5,105,105,45,50,-55,50,110,120,125,125,280,SBD,Raw,Seniorki
18,72,F,Katarzyna Szymańska,Uniwersytet Śląski w Katowicach,71.5,85,90,97.5,97.5,55,60,-65,60,110,115,122.5,122.5,280,SBD,Raw,Seniorki
19,72,F,Kamila Ponikiewska,Państwowa Wyższa Szkoła Zawodowa w Nysie,67.3,90,105,-112.5,105,45,52.5,-55,52.5,-110,120,-130,120,277.5,SBD,Raw,Seniorki
20,72,F,Wiktoria Białacka,Akademia Wychowania Fizycznego w Krakowie,68.1,85,90,-95,90,47.5,52.5,-55,52.5,115,125,-130,125,267.5,SBD,Raw,Seniorki
21,72,F,Nina Stawska,Uniwersytet Przyrodniczy w Lublinie,67.4,80,-90,90,90,45,50,-55,50,100,120,-130,120,260,SBD,Raw,Seniorki
22,72,F,Nikola Kuduk,Uniwersytet Szczeciński,69.2,-82.5,85,90,90,37.5,-45,-45,37.5,100,115,130,130,257.5,SBD,Raw,Seniorki
23,72,F,Sylwia Manterys,Akademia Górniczo - Hutnicza w Krakowie,63.5,85,87.5,90,90,57.5,60,-62.5,60,80,85,92.5,92.5,242.5,SBD,Raw,Seniorki
24,72,F,Magdalena Gomułkiewicz,Uniwersytet Medyczny w Łodzi,68.5,80,-95,95,95,42.5,-47.5,-47.5,42.5,90,100,-107.5,100,237.5,SBD,Raw,Seniorki
25,72,F,Anna Syp,Uniwersytet Marii Curie - Skłodowskiej w Lublinie,69.3,75,80,-92.5,80,40,45,47.5,47.5,85,95,105,105,232.5,SBD,Raw,Seniorki
26,72,F,Katarzyna Głódkowska,Uniwersytet Gdański,66.3,65,72.5,80,80,37.5,40,-45,40,95,102.5,107.5,107.5,227.5,SBD,Raw,Seniorki
27,72,F,Martyna Kowalke,Politechnika Gdańska,67.7,70,75,80,80,37.5,40,-45,40,80,85,90,90,210,SBD,Raw,Seniorki
28,72,F,Klaudia Lewandowska,Uniwersytet Technologiczno - Przyrodniczy w Bydgoszczy,66.4,-65,65,70,70,37.5,42.5,-47.5,42.5,95,-100,-100,95,207.5,SBD,Raw,Seniorki
DQ,72,F,Kinga Kuryło,Uniwersytet Przyrodniczy w Lublinie,67.6,85,-90,-95,85,57.5,-62.5,-62.5,57.5,-110,-110,-110,,,SBD,Raw,Seniorki
G,84,F,Agnieszka Nałęcz,Uniwersytet Warszawski,73.3,-80,80,-97.5,80,45,50,-55,50,90,95,102.5,102.5,232.5,SBD,Raw,Seniorki
1,84,F,Abigail McLean,Szkoła Główna Gospodarstwa Wiejskiego w Warszawie,78.7,130,140,145,145,75,80,82.5,82.5,172.5,182.5,190,190,417.5,SBD,Raw,Seniorki
2,84,F,Kamila Kasperska,Wojskowa Akademia Techniczna w Warszawie,73.1,155,-162.5,-162.5,155,72.5,77.5,-80,77.5,155,165,-175,165,397.5,SBD,Raw,Seniorki
3,84,F,Anna Niemczyk,Akademia Wychowania Fizycznego we Wrocławiu,81.2,145,152.5,157.5,157.5,57.5,62.5,-65,62.5,150,162.5,167.5,167.5,387.5,SBD,Raw,Seniorki
4,84,F,Daria Ławniczak,Akademia Wychowania Fizycznego we Wrocławiu,78.9,120,-130,-135,120,90,95,-100,95,135,147.5,-157.5,147.5,362.5,SBD,Raw,Seniorki
5,84,F,Małgorzata Mazur,Akademia Wychowania Fizycznego w Krakowie,82.7,120,125,130,130,85,90,-92.5,90,140,-155,-155,140,360,SBD,Raw,Seniorki
6,84,F,Joanna Sałek,Uniwersytet Jagielloński w Krakowie,78.1,90,100,-105,100,55,60,62.5,62.5,145,155,162.5,162.5,325,SBD,Raw,Seniorki
7,84,F,Julita Kalita,Uniwersytet Mikołaja Kopernika w Toruniu,76.8,90,100,110,110,-60,60,-65,60,115,-130,135,135,305,SBD,Raw,Seniorki
8,84,F,Gabriela Piątek,Państwowa Wyższa Szkoła Zawodowa w Tarnowie,81.9,80,85,90,90,50,65,-75,65,120,135,-145,135,290,SBD,Raw,Seniorki
9,84,F,Martyna Ponikiewska,Państwowa Wyższa Szkoła Zawodowa w Nysie,78.4,-90,90,105,105,45,52.5,-55,52.5,115,130,-140,130,287.5,SBD,Raw,Seniorki
10,84,F,Agata Sałamacha,Państwowa Wyższa Szkoła Zawodowa w Zamościu,82.5,90,100,105,105,40,45,50,50,105,115,-125,115,270,SBD,Raw,Seniorki
11,84,F,Anastasiia Zakernychna,Wyższa Szkoła Bankowa w Poznaniu,82,75,85,92.5,92.5,35,37.5,40,40,105,-120,125,125,257.5,SBD,Raw,Seniorki
12,84,F,Anna Wilmanowicz,Uniwersytet Warmińsko-Mazurski w Olsztynie,76,80,85,90,90,37.5,42.5,-47.5,42.5,95,102.5,110,110,242.5,SBD,Raw,Seniorki
13,84,F,Jadwiga Gieniusz,Uniwersytet Śląski w Katowicach,78.8,60,65,-70,65,40,47.5,-52.5,47.5,70,80,90,90,202.5,SBD,Raw,Seniorki
14,84,F,Paulina Kozioł,Państwowa Wyższa Szkoła Zawodowa w Tarnowie,82.4,55,60,62.5,62.5,37.5,42.5,-50,42.5,75,80,-90,80,185,SBD,Raw,Seniorki
1,84+,F,Agnieszka Korycka,Politechnika Poznańska,89.5,140.5,-155,155,155,50,60,65,65,150.5,165,180.5,180.5,400.5,SBD,Raw,Seniorki
2,84+,F,Agata Kaliciak,Akademia Wychowania Fizycznego we Wrocławiu,87.8,125,135,-141,135,67.5,70,-72.5,70,140,155,165,165,370,SBD,Raw,Seniorki
3,84+,F,Marlena Wronka,Uniwersytet Medyczny w Łodzi,112.2,-140,140,147.5,147.5,67.5,72.5,-75,72.5,140,150,-155,150,370,SBD,Raw,Seniorki
4,84+,F,Patrycja Kulczycka,Uniwersytet Przyrodniczy w Lublinie,88.2,120,130,137.5,137.5,57.5,62.5,-65,62.5,145,-155,-162.5,145,345,SBD,Raw,Seniorki
5,84+,F,Katarzyna Pietkiewicz,Uniwersytet Wrocławski,84.1,120,130,-135,130,62.5,-67.5,67.5,67.5,140,-155,-155,140,337.5,SBD,Raw,Seniorki
6,84+,F,Marta Domino,Uniwersytet Śląski w Katowicach,87.7,-120,127.5,-135,127.5,57.5,-62.5,-62.5,57.5,127.5,-135,135,135,320,SBD,Raw,Seniorki
7,84+,F,Martyna Michalska,Uniwersytet Przyrodniczy w Lublinie,92.1,85,95,105,105,35,40,-45,40,105,-120,120,120,265,SBD,Raw,Seniorki
1,59,M,Piotr Żmuda,Akademia Górniczo - Hutnicza w Krakowie,58.67,115,130,135,135,85,92.5,-97.5,92.5,135,150,-157.5,150,377.5,SBD,Raw,Seniorki
2,59,M,Kamil Szymula,Akademia Sztuki Wojennej w Warszawie,59,122.5,127.5,-132.5,127.5,92.5,-95,95,95,145,152.5,-157.5,152.5,375,SBD,Raw,Seniorki
3,59,M,Patryk Żelazek,Uniwersytet Przyrodniczy w Lublinie,59,110,-115,115,115,80,85,-87.5,85,150,160,170,170,370,SBD,Raw,Seniorki
4,59,M,Marcin Krzesiński,Politechnika Śląska w Gliwicach,57.75,110,120,-127.5,120,95,100,105,105,120,135,142.5,142.5,367.5,SBD,Raw,Seniorki
5,59,M,Kamil Charkot,Uniwersytet Przyrodniczy w Lublinie,58.2,-120,120,130,130,70,75,80,80,130,140,150,150,360,SBD,Raw,Seniorki
6,59,M,Cyprian Zdankiewicz,Uniwersytet Gdański,53.17,75,85,92.5,92.5,62.5,-72.5,75,75,120,130,140,140,307.5,SBD,Raw,Seniorki
1,66,M,Michał Jasak,Politechnika Warszawska,66,175,182.5,-185,182.5,122.5,-127.5,127.5,127.5,215,231.5,-238,231.5,541.5,SBD,Raw,Seniorki
2,66,M,Dariusz Rafalski,Wojskowa Akademia Techniczna w Warszawie,65.8,150,160,167.5,167.5,100,110,117.5,117.5,180,192.5,202.5,202.5,487.5,SBD,Raw,Seniorki
3,66,M,Paweł Wyparło,Politechnika Krakowska,65.3,160,170,177.5,177.5,92.5,97.5,-102.5,97.5,190,200,-210,200,475,SBD,Raw,Seniorki
4,66,M,Dominik Nowogórski,Uniwersytet Jagielloński w Krakowie,65.9,165,175,-180,175,97.5,102.5,-107.5,102.5,175,182.5,190,190,467.5,SBD,Raw,Seniorki
5,66,M,Szymon Radziszewski,Uniwersytet Ekonomiczny w Poznaniu,65.5,160,-175,-175,160,-95,95,-100,95,180,-195,-210,180,435,SBD,Raw,Seniorki
6,66,M,Mateusz Lorek,Politechnika Warszawska,65.4,140,147.5,-155,147.5,75,82.5,-85,82.5,170,177.5,185,185,415,SBD,Raw,Seniorki
7,66,M,Krystian Moroz,Uniwersytet Morski w Gdyni,64.4,130,140,-150,140,80,85,87.5,87.5,160,170,-175,170,397.5,SBD,Raw,Seniorki
8,66,M,Rafał Barczyk,Śląska Wyższa Szkoła Medyczna w Katowicach,66,110,120,-130,120,105,110,-115,110,120,130,140,140,370,SBD,Raw,Seniorki
9,66,M,Cezary Piskorski,Uniwersytet Warmińsko-Mazurski w Olsztynie,65.7,110,120,-127.5,120,80,85,-90,85,120,130,-140,130,335,SBD,Raw,Seniorki
10,66,M,Krystian Motyka,Uniwersytet Ekonomiczny w Katowicach,61.1,-80,80,-90,80,60,70,-75,70,90,110,120,120,270,SBD,Raw,Seniorki
1,74,M,Sebastian Sądej,Państwowa Wyższa Szkoła Zawodowa im Witelona w Legnicy,73.6,207.5,215,220,220,140,145,150,150,240,-245,-252.5,240,610,SBD,Raw,Seniorki
2,74,M,Kamil Linstedt,Politechnika Gdańska,71.4,212.5,222.5,231,231,120,125,-127.5,125,220,230,237.5,237.5,593.5,SBD,Raw,Seniorki
3,74,M,Grzegorz Bracha,Politechnika Krakowska,73.3,190,200,205,205,135,140,-145,140,212.5,222.5,232.5,232.5,577.5,SBD,Raw,Seniorki
4,74,M,Adrian Klatt,Śląski Uniwersytet Medyczny w Katowicach,73.23,-190,190,-202.5,190,130,135,140,140,-210,210,220,220,550,SBD,Raw,Seniorki
5,74,M,Konrad Barczykowski,Uniwersytet Ekonomiczny we Wrocławiu,72.76,192.5,200,205,205,112.5,117.5,122.5,122.5,210,220,-225,220,547.5,SBD,Raw,Seniorki
6,74,M,Mateusz Tobiasz,Akademia Wychowania Fizycznego w Krakowie,73.5,177.5,185,-190,185,140,145,150,150,195,205,-210,205,540,SBD,Raw,Seniorki
7,74,M,Tomasz Balewicz,Politechnika Opolska,73.4,180,187.5,195,195,117.5,-122.5,-122.5,117.5,-220,225,-235,225,537.5,SBD,Raw,Seniorki
8,74,M,Mateusz Szajewski,Uniwersytet Przyrodniczy w Lublinie,73.9,185,-192.5,-192.5,185,115,117.5,-120,117.5,235,-240,-240,235,537.5,SBD,Raw,Seniorki
9,74,M,Wojciech Rokowski,Akademia Górniczo - Hutnicza w Krakowie,70.7,180,190,-200,190,115,120,-125,120,200,210,225,225,535,SBD,Raw,Seniorki
10,74,M,Krystian Niedźwiedź,Państwowa Wyższa Szkoła Zawodowa w Zamościu,72.8,185,195,-200,195,120,125,130,130,205,-215,-215,205,530,SBD,Raw,Seniorki
11,74,M,Wiktor Kubis,Uniwersytet Śląski w Katowicach,73.6,160,170,-175,170,-107.5,107.5,115,115,220,230,240,240,525,SBD,Raw,Seniorki
12,74,M,Stanisław Chodorowski,Uniwersytet Ekonomiczny w Krakowie,73.4,180,190,-200,190,100,105,110,110,210,220,-230,220,520,SBD,Raw,Seniorki
13,74,M,Przemysław Kawczyński,Uniwersytet Warmińsko-Mazurski w Olsztynie,73.43,170,185,-192.5,185,100,102.5,105,105,220,227.5,-235,227.5,517.5,SBD,Raw,Seniorki
14,74,M,Piotr Burzawa,Uniwersytet Jana Kochanowskiego w Kielcach,73.66,185,-190,-190,185,115,120,-125,120,205,212.5,-222.5,212.5,517.5,SBD,Raw,Seniorki
15,74,M,Kamil Światły,Uniwersytet Adama Mickiewicza w Poznaniu,73.75,177.5,187.5,-192.5,187.5,117.5,122.5,127.5,127.5,185,195,200,200,515,SBD,Raw,Seniorki
16,74,M,Rafał Oraczewski,Uniwersytet Warmińsko-Mazurski w Olsztynie,73.9,160,170,180,180,140,145,-147.5,145,180,190,-195,190,515,SBD,Raw,Seniorki
17,74,M,Pavlo Barskiy,Uniwersytet Mikołaja Kopernika w Toruniu,71.7,165,172.5,177.5,177.5,110,115,-117.5,115,207.5,217.5,-222.5,217.5,510,SBD,Raw,Seniorki
18,74,M,Kazimierz Daszkiewicz,Politechnika Warszawska,72.7,165,172.5,-180,172.5,120,-127.5,127.5,127.5,202.5,210,-222.5,210,510,SBD,Raw,Seniorki
19,74,M,Tomasz Roś,Uniwersytet Morski w Gdyni,72.73,160,167.5,-175,167.5,120,127.5,-130,127.5,190,205,212.5,212.5,507.5,SBD,Raw,Seniorki
20,74,M,Bartosz Krzesiński,Akademia Wychowania Fizycznego w Katowicach,73.32,165,175,180,180,120,130,137.5,137.5,190,-200,-200,190,507.5,SBD,Raw,Seniorki
21,74,M,Hugo Urbańczyk,Akademia Górniczo - Hutnicza w Krakowie,73.9,170,180,185,185,107.5,112.5,-117.5,112.5,210,-220,-220,210,507.5,SBD,Raw,Seniorki
22,74,M,Adam Chudaś,Uniwersytet Wrocławski,72.7,160,177.5,-185,177.5,90,97.5,100,100,200,212.5,225,225,502.5,SBD,Raw,Seniorki
23,74,M,Rafał Zaremba,Uniwersytet Jagielloński w Krakowie,72.4,167.5,175,-182.5,175,117.5,125,-130,125,190,200,-205,200,500,SBD,Raw,Seniorki
24,74,M,Krzysztof Bocheński,Uniwersytet Przyrodniczy w Lublinie,73,160,165,170,170,105,110,-112.5,110,210,-220,220,220,500,SBD,Raw,Seniorki
25,74,M,Adrian Matusiak,Uniwersytet Ekonomiczny w Poznaniu,72.1,175,-185,-185,175,122.5,127.5,132.5,132.5,180,190,-202.5,190,497.5,SBD,Raw,Seniorki
26,74,M,Wojciech Dąbrowski,Uniwersytet Śląski w Katowicach,72.7,190,-205,-205,190,100,-107.5,-107.5,100,-195,205,-215,205,495,SBD,Raw,Seniorki
27,74,M,Jacek Waingertner,Społeczna Akademia Nauk w Łodzi,73,155,-160,160,160,115,120,125,125,-195,195,-200,195,480,SBD,Raw,Seniorki
28,74,M,Dawid Kmieć,Uniwersytet Ekonomiczny w Poznaniu,71.8,160,170,-175,170,110,115,117.5,117.5,170,180,190,190,477.5,SBD,Raw,Seniorki
29,74,M,Cezary Piankowski,Szkoła Główna Gospodarstwa Wiejskiego w Warszawie,73.55,160,167.5,-172.5,167.5,100,107.5,-110,107.5,190,200,-210,200,475,SBD,Raw,Seniorki
30,74,M,Igor Ożadowicz,Uniwersytet Przyrodniczy w Poznaniu,73.8,135,-145,145,145,112.5,-115,-115,112.5,160,180,200,200,457.5,SBD,Raw,Seniorki
31,74,M,Tomasz Stalowski,Państwowa Wyższa Szkoła Zawodowa w Nysie,73.3,140,155,170,170,90,100,105,105,160,-180,180,180,455,SBD,Raw,Seniorki
32,74,M,Patryk Depowski,Akademia Wychowania Fizycznego w Krakowie,73.3,162.5,-172.5,-172.5,162.5,97.5,-107.5,-107.5,97.5,195,-205,-205,195,455,SBD,Raw,Seniorki
33,74,M,Rafał Olbryś,Uniwersytet Warmińsko-Mazurski w Olsztynie,73.56,140,150,-157.5,150,95,102.5,-107.5,102.5,190,200,-210,200,452.5,SBD,Raw,Seniorki
34,74,M,Filip Styrcz,Państwowa Wyższa Szkoła Zawodowa w Nysie,72.04,135,145,155,155,85,90,-95,90,180,190,200,200,445,SBD,Raw,Seniorki
35,74,M,Piotr Jaworski,Uniwersytet Adama Mickiewicza w Poznaniu,72.66,157.5,167.5,172.5,172.5,87.5,92.5,95,95,175,-182.5,-182.5,175,442.5,SBD,Raw,Seniorki
36,74,M,Jakub Tomala,Politechnika Warszawska,73.66,160,165,,165,92.5,97.5,-100,97.5,170,175,180,180,442.5,SBD,Raw,Seniorki
37,74,M,Konrad Mrozowski,Politechnika Łódzka,71,135,145,152.5,152.5,-95,95,100,100,165,170,180,180,432.5,SBD,Raw,Seniorki
38,74,M,Dominik Walczak,Akademia Wychowania Fizycznego w Krakowie,72.8,-135,135,-145,135,100,105,-110,105,165,175,-192.5,175,415,SBD,Raw,Seniorki
39,74,M,Piotr Szachowski,Uniwersytet Łódzki,71.8,130,140,-150,140,90,-95,-95,90,170,180,-190,180,410,SBD,Raw,Seniorki
40,74,M,Marek Zalewski,Uniwersytet Śląski w Katowicach,74,140,150,-170,150,85,92.5,-100,92.5,165,-172.5,-175,165,407.5,SBD,Raw,Seniorki
41,74,M,Mariusz Michalak,Państwowa Wyższa Szkoła Zawodowa w Koninie,71.45,120,-130,130,130,110,-115,-115,110,150,160,165,165,405,SBD,Raw,Seniorki
42,74,M,Bartłomiej Trybała,Politechnika Wrocławska,73.4,130,140,-150,140,90,-100,-100,90,145,155,-162.5,155,385,SBD,Raw,Seniorki
43,74,M,Maciej Przyłoga,Uniwersytet Przyrodniczy w Poznaniu,70.4,110,120,-130,120,-80,-80,80,80,-170,170,180,180,380,SBD,Raw,Seniorki
44,74,M,Piotr Wojsław,Gdański Uniwersytet Medyczny,72.8,110,117.5,-125,117.5,-85,90,100,100,140,145,150,150,367.5,SBD,Raw,Seniorki
45,74,M,Yurii Boiko,Wyższa Szkoła Bankowa w Poznaniu,74,110,120,125,125,90,100,-102.5,100,125,135,142.5,142.5,367.5,SBD,Raw,Seniorki
46,74,M,Jakub Antoniewicz,Zachodniopomorski Uniwersytet Technologiczny w Szczecinie,69.3,100,110,120,120,90,100,105,105,120,130,140,140,365,SBD,Raw,Seniorki
47,74,M,Marek Borkowski,Uniwersytet Ekonomiczny w Katowicach,71.93,-100,110,115,115,100,-110,-110,100,120,130,140,140,355,SBD,Raw,Seniorki
48,74,M,Hubert Wilk,Gdański Uniwersytet Medyczny,72.4,-130,140,-150,140,70,-75,75,75,120,130,-145,130,345,SBD,Raw,Seniorki
49,74,M,Mikołaj Paździoch,Uniwersytet Śląski w Katowicach,74,70,80,90,90,100,110,117.5,117.5,-120,120,125,125,332.5,SBD,Raw,Seniorki
50,74,M,Jan Drzewiecki,Uniwersytet Ekonomiczny w Poznaniu,71.9,80,90,100,100,-60,60,70,70,-110,-110,110,110,280,SBD,Raw,Seniorki
DQ,74,M,Adrian Jatczak,Akademia Górniczo - Hutnicza w Krakowie,73.7,-190,-190,-190,,115,122.5,-127.5,122.5,215,230,-240,230,,SBD,Raw,Seniorki
1,83,M,Daniel Ilczyszyn,Wojskowa Akademia Techniczna w Warszawie,82.23,245,255,260,260,162.5,170,-175,170,260,275,-280,275,705,SBD,Raw,Seniorki
2,83,M,Andrzej Krawontka,Akademia Górniczo - Hutnicza w Krakowie,81.95,225,235,245,245,150,155,-157.5,155,250,262.5,270,270,670,SBD,Raw,Seniorki
3,83,M,Franciszek Magiera,Akademia Górniczo - Hutnicza w Krakowie,80.4,215,230,-240,230,125,135,-140,135,235,250,-260,250,615,SBD,Raw,Seniorki
4,83,M,Marcin Statkiewicz,Akademia Marynarki Wojennej w Gdyni,82.52,200,210,215,215,127.5,132.5,137.5,137.5,250,260,-265,260,612.5,SBD,Raw,Seniorki
5,83,M,Mariusz Brito,Politechnika Rzeszowska,82.44,192.5,202.5,-210,202.5,122.5,127.5,132.5,132.5,237.5,247.5,-265,247.5,582.5,SBD,Raw,Seniorki
6,83,M,Paweł Wasielewski,Wojskowa Akademia Techniczna w Warszawie,80.5,190,205,215,215,-110,120,-127.5,120,220,235,-242.5,235,570,SBD,Raw,Seniorki
7,83,M,Miłosz Michalczyszyn,Uniwersytet Technologiczno - Przyrodniczy w Bydgoszczy,82.1,190,200,-207.5,200,130,135,-140,135,220,230,-237.5,230,565,SBD,Raw,Seniorki
8,83,M,Wiktor Ciachera,Uniwersytet Adama Mickiewicza w Poznaniu,81.8,202.5,210,-212.5,210,125,130,-132.5,130,220,-230,-230,220,560,SBD,Raw,Seniorki
9,83,M,Tomasz Waleczek,Politechnika Śląska w Gliwicach,80.1,180,190,-200,190,115,122.5,127.5,127.5,220,227.5,237.5,237.5,555,SBD,Raw,Seniorki
10,83,M,Marcin Oleś,Śląska Wyższa Szkoła Medyczna w Katowicach,81.9,-200,-200,200,200,142.5,-147.5,-147.5,142.5,210,-220,-220,210,552.5,SBD,Raw,Seniorki
11,83,M,Daniel Przybysz,Politechnika Gdańska,81.6,197.5,202.5,-205,202.5,127.5,132.5,-135,132.5,200,210,-212.5,210,545,SBD,Raw,Seniorki
12,83,M,Mariusz Świderski,Państwowa Wyższa Szkoła Zawodowa w Kaliszu,81.9,-160,160,180,180,115,122.5,-130,122.5,200,220,235,235,537.5,SBD,Raw,Seniorki
13,83,M,Konrad Królikowski,Uniwersytet Ekonomiczny w Krakowie,82,160,170,175,175,137.5,-145,-145,137.5,225,-235,,225,537.5,SBD,Raw,Seniorki
14,83,M,Ernest Bil,Katolicki Uniwersytet Lubelski Jana Pawła II,82.6,180,190,195,195,130,140,-142.5,140,180,190,200,200,535,SBD,Raw,Seniorki
15,83,M,Bartosz Przybysławski,Uniwersytet Marii Curie - Skłodowskiej w Lublinie,82.65,175,185,-190,185,125,135,-140,135,215,-220,-220,215,535,SBD,Raw,Seniorki
16,83,M,Michał Pająk,Uniwersytet Medyczny w Łodzi,81.4,165,175,180,180,102.5,110,112.5,112.5,217.5,230,240,240,532.5,SBD,Raw,Seniorki
17,83,M,Piotr Barzdo,Uniwersytet Przyrodniczy we Wrocławiu,81.7,190,-205,-205,190,105,110,-115,110,215,230,-240,230,530,SBD,Raw,Seniorki
18,83,M,Damian Szczygielski,Politechnika Poznańska,82.5,185,-195,-200,185,125,130,135,135,-200,200,210,210,530,SBD,Raw,Seniorki
19,83,M,Mateusz Smak,Politechnika Śląska w Gliwicach,82.7,-175,175,185,185,137.5,142.5,-147.5,142.5,195,202.5,-210,202.5,530,SBD,Raw,Seniorki
20,83,M,Paweł Chrzanowski,Uniwersytet Łódzki,82.6,195,205,-210,205,110,115,-117.5,115,200,207.5,-210,207.5,527.5,SBD,Raw,Seniorki
21,83,M,Adrian Twardosz,Politechnika Krakowska,80.36,-192.5,192.5,-200,192.5,122.5,132.5,-137.5,132.5,197.5,-205,-205,197.5,522.5,SBD,Raw,Seniorki
22,83,M,Paweł Skowron,Katolicki Uniwersytet Lubelski Jana Pawła II,80.9,170,180,-190,180,110,-117.5,-117.5,110,215,225,-237.5,225,515,SBD,Raw,Seniorki
23,83,M,Kamil Rzóska,Uniwersytet Warmińsko-Mazurski w Olsztynie,81.5,200,-205,-205,200,100,105,110,110,190,200,205,205,515,SBD,Raw,Seniorki
24,83,M,Andrzej Wolicki,Warszawski Uniwersytet Medyczny,81.82,185,-200,-200,185,115,122.5,125,125,205,-225,-225,205,515,SBD,Raw,Seniorki
25,83,M,Wojciech Celner,Uniwersytet Ekonomiczny w Katowicach,82.75,170,180,190,190,105,112.5,-120,112.5,180,195,210,210,512.5,SBD,Raw,Seniorki
26,83,M,Przemysław Kuleczko,Politechnika Opolska,80.15,160,170,-177.5,170,130,-137.5,-137.5,130,200,210,,210,510,SBD,Raw,Seniorki
27,83,M,Piotr Kalbarczyk,Wyższa Szkoła Rehabilitacji w Warszawie,79.5,170,180,-192.5,180,120,130,137.5,137.5,-190,190,-200,190,507.5,SBD,Raw,Seniorki
28,83,M,Łukasz Dębski,Uniwersytet Marii Curie - Skłodowskiej w Lublinie,81.7,160,-170,-170,160,125,130,135,135,190,200,210,210,505,SBD,Raw,Seniorki
29,83,M,Ivo John,Politechnika Warszawska,80.83,165,175,-180,175,107.5,115,120,120,190,205,-210,205,500,SBD,Raw,Seniorki
30,83,M,Bartłomiej Adamski,Politechnika Śląska w Gliwicach,82.56,165,170,-175,170,-110,110,120,120,-200,210,-215,210,500,SBD,Raw,Seniorki
31,83,M,Marcin Bąk,Akademia Wychowania Fizycznego w Krakowie,82.9,170,-180,180,180,115,120,-125,120,180,190,200,200,500,SBD,Raw,Seniorki
32,83,M,Sebastian Kępka,Uniwersytet Przyrodniczy w Lublinie,81.15,140,155,165,165,110,-117.5,117.5,117.5,200,215,-222.5,215,497.5,SBD,Raw,Seniorki
33,83,M,Krystian Kochoń,Katolicki Uniwersytet Lubelski Jana Pawła II,81.4,170,177.5,-180,177.5,125,-130,-130,125,190,195,-200,195,497.5,SBD,Raw,Seniorki
34,83,M,Kacper Konstanty,Politechnika Gdańska,82.95,155,170,-180,170,105,110,112.5,112.5,190,200,215,215,497.5,SBD,Raw,Seniorki
35,83,M,Kacper Więcław,Uniwersytet Medyczny w Łodzi,79.05,167.5,-175,-175,167.5,120,125,127.5,127.5,187.5,195,-200,195,490,SBD,Raw,Seniorki
36,83,M,Mchał Burzawa,Uniwersytet Jana Kochanowskiego w Kielcach,82.03,-185,190,-195,190,105,110,-115,110,190,-205,,190,490,SBD,Raw,Seniorki
37,83,M,Mikołaj Dąbrowski,Collegium Da Vinci w Poznaniu,77.95,130,160,170,170,95,102.5,107.5,107.5,185,200,210,210,487.5,SBD,Raw,Seniorki
38,83,M,Michał Pol,Politechnika Wrocławska,82.08,140,150,-160,150,120,125,132.5,132.5,190,200,205,205,487.5,SBD,Raw,Seniorki
39,83,M,Marek Rzeczkowski,Gdański Uniwersytet Medyczny,80.97,145,152.5,160,160,125,130,132.5,132.5,175,185,192.5,192.5,485,SBD,Raw,Seniorki
40,83,M,Mateusz Jankowski,Uniwersytet Śląski w Katowicach,80.1,145,155,165,165,117.5,-125,-125,117.5,180,190,-200,190,472.5,SBD,Raw,Seniorki
41,83,M,Robert Zwierucho,Gdański Uniwersytet Medyczny,82.2,130,135,140,140,117.5,120,125,125,197.5,207.5,-212.5,207.5,472.5,SBD,Raw,Seniorki
42,83,M,Piotr Kopik,Uniwersytet Przyrodniczy w Lublinie,80.4,140,155,170,170,100,-105,,100,160,180,200,200,470,SBD,Raw,Seniorki
43,83,M,Wojciech Półrolniczak,Uniwersytet Ekonomiczny w Poznaniu,80.95,145,155,165,165,105,110,115,115,175,185,190,190,470,SBD,Raw,Seniorki
44,83,M,Mariusz Płachta,Politechnika Łódzka,81.55,135,150,160,160,120,125,-130,125,160,175,180,180,465,SBD,Raw,Seniorki
45,83,M,Wiktor Zieliński,Szkoła Główna Handlowa w Warszawie,80.9,140,150,155,155,100,110,115,115,170,180,185,185,455,SBD,Raw,Seniorki
46,83,M,Wojciech Abratański,Wyższa Szkoła Bankowa w Poznaniu,81.32,145,-160,160,160,80,-85,-85,80,190,200,-210,200,440,SBD,Raw,Seniorki
47,83,M,Wojciech Pinkas,Politechnika Wrocławska,81.4,150,155,-157.5,155,90,95,-100,95,170,185,-200,185,435,SBD,Raw,Seniorki
48,83,M,Krzysztof Samordak,Zachodniopomorski Uniwersytet Technologiczny w Szczecinie,80.6,130,140,-150,140,90,100,107.5,107.5,160,170,177.5,177.5,425,SBD,Raw,Seniorki
49,83,M,Jakub Marek,Państwowa Wyższa Szkoła Zawodowa w Tarnowie,80.3,105,120,135,135,85,105,-115,105,135,155,180,180,420,SBD,Raw,Seniorki
50,83,M,Dawid Strachowski,Państwowa Wyższa Szkoła Zawodowa w Nysie,80.3,130,-140,-145,130,100,110,-115,110,140,170,180,180,420,SBD,Raw,Seniorki
51,83,M,Przemysław Olewnik,Uniwersytet Warmińsko-Mazurski w Olsztynie,81.09,145,155,162.5,162.5,90,-100,-100,90,155,165,-175,165,417.5,SBD,Raw,Seniorki
52,83,M,Przemysław Chycki,Politechnika Łódzka,74.76,135,145,152.5,152.5,85,92.5,95,95,150,165,-175,165,412.5,SBD,Raw,Seniorki
53,83,M,Jakub Otlewski,Uniwersytet Morski w Gdyni,81.8,130,137.5,-140,137.5,100,102.5,105,105,160,-170,-170,160,402.5,SBD,Raw,Seniorki
54,83,M,Wiktor Bagiński,Państwowa Wyższa Szkoła Zawodowa w Koninie,75.8,115,125,-130,125,-95,95,-100,95,130,145,160,160,380,SBD,Raw,Seniorki
55,83,M,Hubert Kulas,Zachodniopomorski Uniwersytet Technologiczny w Szczecinie,76.06,90,100,-115,100,-85,95,100,100,150,-180,180,180,380,SBD,Raw,Seniorki
56,83,M,Artur Orliński,Państwowa Wyższa Szkoła Zawodowa w Tarnowie,81.35,80,100,110,110,80,-100,110,110,100,150,-180,150,370,SBD,Raw,Seniorki
57,83,M,Wojciech Janus,Uniwersytet Mikołaja Kopernika w Toruniu,76.67,-115,120,125,125,75,80,82.5,82.5,130,140,150,150,357.5,SBD,Raw,Seniorki
58,83,M,Bartłomiej Sterkowicz,Uniwersytet Ekonomiczny w Katowicach,82.75,60,75,85,85,-90,100,110,110,100,110,120,120,315,SBD,Raw,Seniorki
59,83,M,Norbert Wierzbicki,Uniwersytet Technologiczno - Przyrodniczy w Bydgoszczy,79.4,90,100,110,110,70,-80,-80,70,100,110,120,120,300,SBD,Raw,Seniorki
60,83,M,Krystian Bytnar,Państwowa Wyższa Szkoła Zawodowa w Tarnowie,80.7,50,55,-60,55,90,100,-102.5,100,75,85,100,100,255,SBD,Raw,Seniorki
DQ,83,M,Piotr Halastra,Państwowa Wyższa Szkoła Zawodowa w Tarnowie,82.2,-90,90,95,95,-105,-105,-105,,155,160,170,170,,SBD,Raw,Seniorki
DQ,83,M,Jacek Kotra,Politechnika Krakowska,81.4,160,-170,170,170,-112.5,-112.5,-112.5,,-200,-220,220,220,,SBD,Raw,Seniorki
DQ,83,M,Paweł Szymczyna,Państwowa Wyższa Szkoła Zawodowa w Nysie,80.8,-165,-170,-175,,110,-130,-135,110,160,180,-200,180,,SBD,Raw,Seniorki
DQ,83,M,Maksym Krupa,Akademia Górniczo - Hutnicza w Krakowie,80.92,185,195,-205,195,140,-150,150,150,-225,-225,-225,,,SBD,Raw,Seniorki
1,93,M,Mateusz Czechyra,Wojskowa Akademia Techniczna w Warszawie,91.86,250,265.5,270,270,175,180,185,185,285,300,-310.5,300,755,SBD,Raw,Seniorki
2,93,M,Dariusz Konopelski,Politechnika Gdańska,91.9,250,260,-266,260,155,162.5,170,170,230,240,250,250,680,SBD,Raw,Seniorki
3,93,M,Dawid Borkowski,Wyższa Szkoła Bankowa we Wrocławiu,92.1,225,232.5,-235,232.5,155,162.5,167.5,167.5,250,265,270,270,670,SBD,Raw,Seniorki
4,93,M,Patryk Zaniewski,Politechnika Warszawska,92.8,230,240,245,245,160,167.5,170,170,255,-265,-267.5,255,670,SBD,Raw,Seniorki
5,93,M,Łukasz Hajduk,Uniwersytet Przyrodniczy w Lublinie,89.9,225,235,-240,235,160,165,-167.5,165,240,255,265,265,665,SBD,Raw,Seniorki
6,93,M,Patryk Zagórski,Politechnika Gdańska,91.8,225,235,-240,235,140,147.5,152.5,152.5,240,252.5,260,260,647.5,SBD,Raw,Seniorki
7,93,M,Jan Duma,Wojskowa Akademia Techniczna w Warszawie,92.96,225,235,-242.5,235,130,-137.5,137.5,137.5,255,265,270,270,642.5,SBD,Raw,Seniorki
8,93,M,Sławomir Nowak,Wyższa Szkoła Bankowa we Wrocławiu,91.9,220,230,235,235,152.5,160,165,165,215,230,-240,230,630,SBD,Raw,Seniorki
9,93,M,Dawid Kozłowski,Politechnika Lubelska,92.86,-230,230,-245,230,155,165,-172.5,165,220,235,-245,235,630,SBD,Raw,Seniorki
10,93,M,Mateusz Bagiński,Uniwersytet Wrocławski,91.1,215,-222.5,-222.5,215,120,127.5,135,135,270,277.5,-290,277.5,627.5,SBD,Raw,Seniorki
11,93,M,Patryk Bartnicki,Uniwersytet Adama Mickiewicza w Poznaniu,92.35,225,-240,240,240,125,132.5,-137.5,132.5,230,255,-267.5,255,627.5,SBD,Raw,Seniorki
12,93,M,Daniel Mularczyk,Politechnika Wrocławska,89.65,200,210,217.5,217.5,150,-157.5,157.5,157.5,235,250,-262.5,250,625,SBD,Raw,Seniorki
13,93,M,Jan Polaczek-Kornecki,Śląski Uniwersytet Medyczny w Katowicach,90.8,-180,190,200,200,150,155,160,160,230,240,250,250,610,SBD,Raw,Seniorki
14,93,M,Piotr Wnęk,Uniwersytet Kazimierza Wielkiego w Bydgoszczy,89.5,-220,220,-230,220,142.5,-147.5,147.5,147.5,200,240,-260,240,607.5,SBD,Raw,Seniorki
15,93,M,Łukasz Topór,Politechnika Poznańska,91.54,202.5,212.5,-220,212.5,155,-162.5,162.5,162.5,210,220,230,230,605,SBD,Raw,Seniorki
16,93,M,Dawid Zaniewski,Politechnika Warszawska,92.45,210,220,227.5,227.5,142.5,-150,-150,142.5,220,232.5,-245,232.5,602.5,SBD,Raw,Seniorki
17,93,M,Adam Sota,Uniwersytet Jagielloński w Krakowie,91.5,200,207.5,-212.5,207.5,162.5,-167.5,-167.5,162.5,215,222.5,,222.5,592.5,SBD,Raw,Seniorki
18,93,M,Konrad Szczerbiński,Gdański Uniwersytet Medyczny,92.43,200,215,-217.5,215,130,137.5,-140,137.5,240,-260,-260,240,592.5,SBD,Raw,Seniorki
19,93,M,Dziamid Kolas,Uniwersytet Szczeciński,90.6,200,210,-220,210,130,140,150,150,230,-237.5,,230,590,SBD,Raw,Seniorki
20,93,M,Dominik Pawelec,Uniwersytet Adama Mickiewicza w Poznaniu,92.08,197.5,207.5,-212.5,207.5,125,130,135,135,220,232.5,-240,232.5,575,SBD,Raw,Seniorki
21,93,M,Paweł Zadrożny,Uniwersytet Gdański,89.2,170,180,190,190,120,130,-135,130,225,240,250,250,570,SBD,Raw,Seniorki
22,93,M,Jakub Podolski,Collegium Da Vinci w Poznaniu,90.73,200,210,-220,210,120,125,-130,125,235,-250,,235,570,SBD,Raw,Seniorki
23,93,M,Mariusz Liegmann,Uniwersytet Gdański,92.4,-170,170,187.5,187.5,130,140,145,145,200,220,235,235,567.5,SBD,Raw,Seniorki
24,93,M,Cezary Kanas,Politechnika Łódzka,87.9,170,190,200,200,150,160,165,165,180,200,,200,565,SBD,Raw,Seniorki
25,93,M,Tomasz Kolbusz,Akademia Górniczo - Hutnicza w Krakowie,91,185,195,205,205,115,-120,,115,220,232.5,245,245,565,SBD,Raw,Seniorki
26,93,M,Kamil Michalak,Uniwersytet Marii Curie - Skłodowskiej w Lublinie,91.9,190,195,-200,195,140,-145,-145,140,220,230,-240,230,565,SBD,Raw,Seniorki
27,93,M,Kamil Kurpanik,Politechnika Śląska w Gliwicach,92.25,210,220,-225,220,110,-117.5,117.5,117.5,215,225,-232.5,225,562.5,SBD,Raw,Seniorki
28,93,M,Dawid Dominiak,Uniwersytet Łódzki,90.9,170,180,185,185,130,140,-145,140,220,230,235,235,560,SBD,Raw,Seniorki
29,93,M,Wojciech Białczak,Uniwersytet Przyrodniczy w Poznaniu,92.5,195,-205,-210,195,140,145,-150,145,210,220,-230,220,560,SBD,Raw,Seniorki
30,93,M,Mateusz Ząbczyk,Politechnika Wrocławska,90.4,165,175,-185,175,115,120,-125,120,230,250,260,260,555,SBD,Raw,Seniorki
31,93,M,Jarosław Szwaczkiewicz,Katolicki Uniwersytet Lubelski Jana Pawła II,91.15,195,200,-205,200,130,140,-145,140,205,215,-220,215,555,SBD,Raw,Seniorki
32,93,M,Mateusz Gajos,Politechnika Gdańska,88.56,170,175,180,180,115,120,-122.5,120,235,250,-260,250,550,SBD,Raw,Seniorki
33,93,M,Łukasz Kalksztejn,Uniwersytet Technologiczno - Przyrodniczy w Bydgoszczy,89.67,170,180,-190,180,130,140,-145,140,200,-210,220,220,540,SBD,Raw,Seniorki
34,93,M,Piotr Janiszewski,Politechnika Poznańska,90.92,190,-200,-200,190,120,127.5,135,135,190,210,-230,210,535,SBD,Raw,Seniorki
35,93,M,Aleksander Sykut,Uniwersytet Warmińsko-Mazurski w Olsztynie,92.03,170,-180,180,180,120,125,-127.5,125,220,227.5,-235,227.5,532.5,SBD,Raw,Seniorki
36,93,M,Patryk Hajduk,Państwowa Wyższa Szkoła Zawodowa w Nysie,89.3,150,-175,-180,150,-140,140,-160,140,200,240,-250,240,530,SBD,Raw,Seniorki
37,93,M,Krzysztof Kopeć,Uniwersytet Ekonomiczny w Krakowie,91.5,185,-195,-195,185,110,-112.5,-115,110,220,235,-250,235,530,SBD,Raw,Seniorki
38,93,M,Filip Potoczny,Politechnika Śląska w Gliwicach,92.85,195,-205,205,205,-125,125,130,130,195,-205,-205,195,530,SBD,Raw,Seniorki
39,93,M,Artur Durczak,Uniwersytet Szczeciński,90.4,190,195,200,200,115,122.5,127.5,127.5,185,195,200,200,527.5,SBD,Raw,Seniorki
40,93,M,Bartłomiej Klamerski,Politechnika Łódzka,84.9,170,185,200,200,115,120,125,125,200,,,200,525,SBD,Raw,Seniorki
41,93,M,Maciej Mazurkiewicz,Uniwersytet Morski w Gdyni,90.07,180,190,195,195,120,125,130,130,190,200,-210,200,525,SBD,Raw,Seniorki
42,93,M,Jakub Kowalik,Szkoła Główna Gospodarstwa Wiejskiego w Warszawie,90.95,170,177.5,185,185,130,140,-145,140,190,-200,-200,190,515,SBD,Raw,Seniorki
43,93,M,Damian Gawrjołek,Katolicki Uniwersytet Lubelski Jana Pawła II,90.9,195,-205,-205,195,112.5,117.5,-120,117.5,190,195,-200,195,507.5,SBD,Raw,Seniorki
44,93,M,Marcin Gałażyn,Uniwersytet Gdański,90.37,160,-170,-170,160,100,110,-115,110,-235,-235,235,235,505,SBD,Raw,Seniorki
45,93,M,Andrzej Rzepiela,Politechnika Opolska,85.92,177.5,182.5,-187.5,182.5,107.5,115,-120,115,190,200,205,205,502.5,SBD,Raw,Seniorki
46,93,M,Mateusz Nowak,Politechnika Poznańska,87.4,160,170,177.5,177.5,115,120,125,125,180,190,200,200,502.5,SBD,Raw,Seniorki
47,93,M,Wojciech Romanowski,Katolicki Uniwersytet Lubelski Jana Pawła II,88.05,160,170,175,175,117.5,122.5,-127.5,122.5,195,205,-210,205,502.5,SBD,Raw,Seniorki
48,93,M,Grzegorz Wojdała,Akademia Wychowania Fizycznego w Katowicach,86.6,150,165,180,180,120,-130,-130,120,170,185,200,200,500,SBD,Raw,Seniorki
49,93,M,Kacper Kalinowski,Wyższa Szkoła Rehabilitacji w Warszawie,88.9,150,160,165,165,135,142.5,150,150,170,180,-185,180,495,SBD,Raw,Seniorki
50,93,M,Konrad Klimas,Państwowa Wyższa Szkoła Zawodowa w Nysie,91.91,170,175,180,180,-95,95,-102.5,95,190,200,205,205,480,SBD,Raw,Seniorki
51,93,M,Szymon Karpiński,Uniwersytet Mikołaja Kopernika w Toruniu,89.9,165,180,-185,180,-105,107.5,-112.5,107.5,187.5,-202.5,-202.5,187.5,475,SBD,Raw,Seniorki
52,93,M,Michał Pawlak,Politechnika Łódzka,89.2,-140,140,150,150,107.5,112.5,-117.5,112.5,170,190,210,210,472.5,SBD,Raw,Seniorki
53,93,M,Paweł Kamiński,Uniwersytet Medyczny w Łodzi,88.2,165,175,180,180,92.5,97.5,100,100,-190,190,,190,470,SBD,Raw,Seniorki
54,93,M,Tomasz Kubik,Uniwersytet Ekonomiczny w Katowicach,90.4,140,147.5,-155,147.5,-112.5,115,-117.5,115,195,202.5,205,205,467.5,SBD,Raw,Seniorki
55,93,M,Albert Przybysławski,Uniwersytet Ekonomiczny w Poznaniu,90.9,140,160,-175,160,110,120,-125,120,150,160,180,180,460,SBD,Raw,Seniorki
56,93,M,Kamil Mokrzyński,Uniwersytet Śląski w Katowicach,92.45,150,160,170,170,100,110,120,120,150,160,170,170,460,SBD,Raw,Seniorki
57,93,M,Konrad Sklenarz,Zachodniopomorski Uniwersytet Technologiczny w Szczecinie,90.8,140,-160,160,160,90,100,-105,100,160,180,190,190,450,SBD,Raw,Seniorki
58,93,M,Szymon Nowakowski,Uniwersytet Gdański,86.5,150,160,-165,160,110,115,-120,115,150,165,172.5,172.5,447.5,SBD,Raw,Seniorki
59,93,M,Dawid Bugara,Uniwersytet Jagielloński Collegium Medicum Kraków,90.95,135,150,160,160,-80,85,-95,85,170,185,195,195,440,SBD,Raw,Seniorki
60,93,M,Jakub Rzepka,Uniwersytet Mikołaja Kopernika w Toruniu,89.3,-140,140,147.5,147.5,100,-105,105,105,160,170,185,185,437.5,SBD,Raw,Seniorki
61,93,M,Kamil Szwiec,Państwowa Wyższa Szkoła Zawodowa w Tarnowie,88.93,110,-112.5,130,130,-100,110,-120,110,160,-180,190,190,430,SBD,Raw,Seniorki
62,93,M,Bartosz Nowak,Uniwersytet Technologiczno - Przyrodniczy w Bydgoszczy,85.4,130,140,145,145,85,-90,90,90,180,190,-200,190,425,SBD,Raw,Seniorki
63,93,M,Karol Nowak,Uniwersytet Przyrodniczy w Poznaniu,92.3,130,140,-150,140,-120,-125,125,125,140,150,160,160,425,SBD,Raw,Seniorki
64,93,M,Konrad Janyst,Uniwersytet Jagielloński w Krakowie,89.17,100,110,-125,110,110,117.5,122.5,122.5,150,170,-180,170,402.5,SBD,Raw,Seniorki
65,93,M,Damian Zydenberg,Zachodniopomorski Uniwersytet Technologiczny w Szczecinie,85.4,-100,110,-125,110,70,80,-85,80,160,180,-195,180,370,SBD,Raw,Seniorki
66,93,M,Michał Matyjasik,Uniwersytet Technologiczno - Przyrodniczy w Bydgoszczy,90.4,110,120,-135,120,80,85,90,90,130,140,150,150,360,SBD,Raw,Seniorki
67,93,M,Daniil Derko,Wyższa Szkoła Bankowa w Poznaniu,87.24,90,100,105,105,90,95,-100,95,90,100,105,105,305,SBD,Raw,Seniorki
68,93,M,Jakub Karnafel,Państwowa Wyższa Szkoła Zawodowa w Koninie,83.9,-80,80,-100,80,-50,50,-65,50,100,115,125,125,255,SBD,Raw,Seniorki
DQ,93,M,Tomasz Kaszek,Politechnika Krakowska,90.33,140,150,-155,150,100,-105,-105,100,-190,-190,-190,,,SBD,Raw,Seniorki
1,105,M,Marcin Bogacki,Wojskowa Akademia Techniczna w Warszawie,102.22,250,265,270,270,170,180,-182.5,180,270,-282.5,282.5,282.5,732.5,SBD,Raw,Seniorki
2,105,M,Jacek Juszczyk,Politechnika Opolska,104.95,255,265,-270,265,165,172.5,175,175,260,270,277.5,277.5,717.5,SBD,Raw,Seniorki
3,105,M,Marcin Lange,Uniwersytet Morski w Gdyni,99.9,250,255,260,260,180,185,-190,185,270,,,270,715,SBD,Raw,Seniorki
4,105,M,Gabriel Pihan,Politechnika Poznańska,102.5,230,245,260,260,145,157.5,165,165,270,290,-300,290,715,SBD,Raw,Seniorki
5,105,M,Filip Ćwikła,Uniwersytet Technologiczno - Przyrodniczy w Bydgoszczy,99.6,230,237.5,242.5,242.5,165,172.5,177.5,177.5,240,250,260,260,680,SBD,Raw,Seniorki
6,105,M,Marcin Rojewski,Uniwersytet Przyrodniczy w Lublinie,96.6,-220,235,245,245,130,140,147.5,147.5,260,275,285,285,677.5,SBD,Raw,Seniorki
7,105,M,Dawid Perenc,Politechnika Śląska w Gliwicach,104.2,250,-257.5,-257.5,250,150,-157.5,-157.5,150,250,270,-290,270,670,SBD,Raw,Seniorki
8,105,M,Krzysztof Wojda,Uniwersytet Warmińsko-Mazurski w Olsztynie,103.6,210,-220,225,225,170,-175,-175,170,250,260,270,270,665,SBD,Raw,Seniorki
9,105,M,Michał Horyń,Politechnika Wrocławska,104.2,207.5,-220,220,220,185,195,200,200,230,-245,-255,230,650,SBD,Raw,Seniorki
10,105,M,Bartłomiej Sieradzki,Politechnika Poznańska,102.7,215,-225,232.5,232.5,130,140,-147.5,140,215,235,250,250,622.5,SBD,Raw,Seniorki
11,105,M,Paweł Dawidziuk,Uniwersytet Przyrodniczy w Lublinie,101.25,-225,225,232.5,232.5,135,142.5,-150,142.5,240,-250,-250,240,615,SBD,Raw,Seniorki
12,105,M,Wojciech Groth,Politechnika Gdańska,103.3,190,200,-205,200,150,157.5,162.5,162.5,240,250,-252.5,250,612.5,SBD,Raw,Seniorki
13,105,M,Filip Kuczma,Uniwersytet Ekonomiczny w Krakowie,100.3,202.5,210,-217.5,210,147.5,152.5,-155,152.5,215,225,232.5,232.5,595,SBD,Raw,Seniorki
14,105,M,Przemysław Sarnacki,Wojskowa Akademia Techniczna w Warszawie,97.9,200,215,230,230,110,120,-125,120,-230,240,-260,240,590,SBD,Raw,Seniorki
15,105,M,Mateusz Kaźmierski,Politechnika Poznańska,100.15,192.5,202.5,210,210,135,142.5,147.5,147.5,207.5,220,232.5,232.5,590,SBD,Raw,Seniorki
16,105,M,Mateusz Kumański,Uniwersytet Jana Kochanowskiego w Kielcach,104.3,180,-195,205,205,145,-155,155,155,185,205,222.5,222.5,582.5,SBD,Raw,Seniorki
17,105,M,Krzysztof Klak,Politechnika Poznańska,98.52,190,200,207.5,207.5,117.5,122.5,-125,122.5,225,240,250,250,580,SBD,Raw,Seniorki
18,105,M,Daniel Kwiatkowski,Uniwersytet Jagielloński w Krakowie,102.7,180,195,200,200,120,130,135,135,220,235,245,245,580,SBD,Raw,Seniorki
19,105,M,Kacper Krzyszczuk,Politechnika Wrocławska,96.23,-215,215,225,225,120,125,130,130,207.5,215,220,220,575,SBD,Raw,Seniorki
20,105,M,Karol Łazicki,Uniwersytet Medyczny w Łodzi,102.1,195,205,210,210,137.5,145,-150,145,200,210,215,215,570,SBD,Raw,Seniorki
21,105,M,Patryk Raczyński,Uniwersytet Medyczny w Łodzi,96.08,170,180,190,190,155,-160,160,160,210,217.5,-222.5,217.5,567.5,SBD,Raw,Seniorki
22,105,M,Ivan Urubleuski,Politechnika Krakowska,102.15,195,207.5,212.5,212.5,115,122.5,-130,122.5,215,225,-230,225,560,SBD,Raw,Seniorki
23,105,M,Mateusz Mróz,Uniwersytet Wrocławski,98.08,180,185,190,190,120,125,-130,125,235,242.5,-247.5,242.5,557.5,SBD,Raw,Seniorki
24,105,M,Marek Walczak,Akademia Wychowania Fizycznego w Poznaniu,97.06,195,202.5,210,210,112.5,117.5,-122.5,117.5,220,225,-230,225,552.5,SBD,Raw,Seniorki
25,105,M,Mateusz Koralewicz,Uniwersytet Medyczny w Łodzi,104.2,170,185,-190,185,135,142.5,-147.5,142.5,215,225,-230,225,552.5,SBD,Raw,Seniorki
26,105,M,Gracjan Idzik,Politechnika Wrocławska,104.8,180,-195,195,195,140,147.5,152.5,152.5,180,195,205,205,552.5,SBD,Raw,Seniorki
27,105,M,Bartłomiej Zieliński,Uniwersytet Przyrodniczy w Lublinie,102.2,150,165,-175,165,150,-155,-160,150,210,220,232.5,232.5,547.5,SBD,Raw,Seniorki
28,105,M,Patryk Olejnik,Politechnika Wrocławska,103.55,175,185,190,190,130,137.5,142.5,142.5,190,200,210,210,542.5,SBD,Raw,Seniorki
29,105,M,Sebastian Kruk,Katolicki Uniwersytet Lubelski Jana Pawła II,101.2,160,170,175,175,125,-130,132.5,132.5,210,220,-230,220,527.5,SBD,Raw,Seniorki
30,105,M,Mateusz Pluciński,Politechnika Poznańska,99.66,200,210,215,215,-120,125,130,130,180,-190,,180,525,SBD,Raw,Seniorki
31,105,M,Michał Moliński,Państwowa Wyższa Szkoła Zawodowa w Nysie,99.9,170,180,-190,180,130,137.5,-145,137.5,180,195,202.5,202.5,520,SBD,Raw,Seniorki
32,105,M,Jakub Buras,Uniwersytet Morski w Gdyni,104,180,-190,-190,180,115,120,-125,120,220,-235,-235,220,520,SBD,Raw,Seniorki
33,105,M,Andrzej Popowski,Politechnika Warszawska,96.75,125,140,150,150,160,165,-172.5,165,-170,175,185,185,500,SBD,Raw,Seniorki
34,105,M,Filip Kulesza,Wyższa Szkoła Edukacji i Terapii w Poznaniu,97.7,165,172.5,180,180,107.5,112.5,-117.5,112.5,170,175,182.5,182.5,475,SBD,Raw,Seniorki
35,105,M,Sebastian Cierzniewski,Uniwersytet Mikołaja Kopernika w Toruniu,103.3,145,155,-160,155,110,-115,115,115,185,200,-205,200,470,SBD,Raw,Seniorki
36,105,M,Mateusz Porożyński,Uniwersytet Gdański,95.66,-130,130,150,150,65,75,85,85,130,145,155,155,390,SBD,Raw,Seniorki
37,105,M,Wiktor Pięta,Uniwersytet Śląski w Katowicach,101.3,100,110,130,130,80,90,100,100,100,120,130,130,360,SBD,Raw,Seniorki
G,120,M,Robert Przepiórka,Wyższa Szkoła Rehabilitacji w Warszawie,111.2,230,240,-250,240,145,152.5,-157.5,152.5,270,280,290,290,682.5,SBD,Raw,Seniorki
DQ,105,M,Przemysław Banaś,Uniwersytet Ekonomiczny w Krakowie,103.28,-150,-150,-150,,-112.5,-112.5,,,,,,,,SBD,Raw,Seniorki
DQ,105,M,Krzysztof Hoffmann,Uniwersytet Adama Mickiewicza w Poznaniu,101.75,-250,250,-257.5,250,-160,-162.5,-162.5,,,,,,,SBD,Raw,Seniorki
DQ,105,M,Jakub Łakomik,Akademia Górniczo - Hutnicza w Krakowie,104.43,220,240,-260,240,170,-172.5,,170,230,250,-255,250,,SBD,Raw,Seniorki
1,120,M,Łukasz Nizio,Uniwersytet Adama Mickiewicza w Poznaniu,118.5,270,285,,285,185,195,-200,195,270,295,315,315,795,SBD,Raw,Seniorki
2,120,M,Marek Gortad,Politechnika Poznańska,114.6,265,-275,-275,265,175,182.5,-190,182.5,250,280,-302.5,280,727.5,SBD,Raw,Seniorki
3,120,M,Szymon Wawrzyniak,Collegium Da Vinci w Poznaniu,117.45,210,225,232.5,232.5,145,152.5,-157.5,152.5,255,270,277.5,277.5,662.5,SBD,Raw,Seniorki
4,120,M,Krzysztof Stangret,Wojskowa Akademia Techniczna w Warszawie,107.42,225,240,-245,240,145,155,-157.5,155,250,265,-275,265,660,SBD,Raw,Seniorki
5,120,M,Sebastian Bojewski,Politechnika Gdańska,115.45,-220,220,230,230,147.5,155,160,160,247.5,-255,-255,247.5,637.5,SBD,Raw,Seniorki
6,120,M,Bazyli Kicia,Uniwersytet Medyczny w Łodzi,107.6,200,210,217.5,217.5,150,157.5,-162.5,157.5,230,245,250,250,625,SBD,Raw,Seniorki
7,120,M,Jacek Jastrzębski,Uniwersytet Adama Mickiewicza w Poznaniu,114.3,187.5,-200,200,200,175,182.5,187.5,187.5,215,232.5,-240,232.5,620,SBD,Raw,Seniorki
8,120,M,Sebastian Bogiel,Politechnika Poznańska,112.7,220,232.5,-240,232.5,137.5,145,152.5,152.5,210,225,-237.5,225,610,SBD,Raw,Seniorki
9,120,M,Samuele Bouchachi,Uniwersytet Morski w Gdyni,115.1,195,205,212.5,212.5,100,107.5,115,115,190,205,220,220,547.5,SBD,Raw,Seniorki
10,120,M,Dominik Nitychoruk,Uniwersytet Adama Mickiewicza w Poznaniu,113.65,170,-180,,170,120,130,140,140,75,,,75,385,SBD,Raw,Seniorki
DQ,120,M,Mateusz Zbylut,Uniwersytet Medyczny w Łodzi,118.03,-175,-175,-190,,137.5,142.5,-147.5,142.5,205,210,,210,,SBD,Raw,Seniorki
1,120+,M,Piotr Konkol,Politechnika Gdańska,127.4,285,295,302.5,302.5,192.5,-197.5,-197.5,192.5,325,,-346,325,820,SBD,Raw,Seniorki
2,120+,M,Jacek Jurga,Politechnika Poznańska,128.75,240,250,262.5,262.5,165,-170,170,170,230,240,-250,240,672.5,SBD,Raw,Seniorki
3,120+,M,Krzysztof Sauter,Uniwersytet Medyczny w Łodzi,133.8,205,215,225,225,175,180,185,185,232.5,255,-265,255,665,SBD,Raw,Seniorki
4,120+,M,Krzysztof Gołębiowski,Uniwersytet Przyrodniczy w Lublinie,120.1,190,200,215,215,120,127.5,132.5,132.5,235,250,260,260,607.5,SBD,Raw,Seniorki
5,120+,M,Patryk Neukirch,Akademia Wychowania Fizycznego w Katowicach,131,210,222.5,230,230,130,137.5,145,145,220,-235,-235,220,595,SBD,Raw,Seniorki
6,120+,M,Rafał Wróblewski,Uniwersytet Przyrodniczy w Lublinie,125.5,160,180,200,200,140,150,160,160,200,220,230,230,590,SBD,Raw,Seniorki
7,120+,M,Maciej Juchimiuk,Uniwersytet Marii Curie - Skłodowskiej w Lublinie,121.4,195,205,212.5,212.5,135,140,-145,140,215,225,232.5,232.5,585,SBD,Raw,Seniorki
