Division,WeightClassKg,Place,Name,Team,BodyweightKg,Best3SquatKg,Best3BenchKg,Best3DeadliftKg,TotalKg,Equipment,Event,Sex,BirthDate
Boys,51.71,1,Ja-Kelon Tutt,Garrison,49.9,111.13,72.57,113.4,297.1,Single-ply,SBD,M,
Boys,55.79,1,Jagger Allen,Garrison,55.7,149.69,97.52,156.49,403.7,Single-ply,SBD,M,
Boys,59.87,1,Adam Dean,Pollok Central,57.83,142.88,72.57,154.22,369.68,Single-ply,SBD,M,
Boys,59.87,2,Jonathan Cockrell,Pollok Central,59.56,131.54,70.31,147.42,349.27,Single-ply,SBD,M,
Boys,59.87,3,Aj Walker,Pollok Central,58.33,117.93,72.57,151.95,342.46,Single-ply,SBD,M,
Boys,59.87,4,Wyatt Alexander,Pollok Central,59.51,115.67,68.04,142.88,326.59,Single-ply,SBD,M,
Boys,59.87,5,Corey Holcomb,Pineland West Sabine,59.33,90.72,58.97,136.08,285.76,Single-ply,SBD,M,
Boys,59.87,6,Tanner Brooks,Rusk,59.78,102.06,54.43,129.27,285.76,Single-ply,SBD,M,
Boys,59.87,7,Baker Seegers,Beckville,55.97,104.33,54.43,117.93,276.69,Single-ply,SBD,M,
Boys,59.87,DQ,Tyler Striegel,Pineland West Sabine,58.97,,,,,Single-ply,SBD,M,
Boys,67.13,1,Cole Heard,Beckville,65.05,181.44,113.4,185.97,480.81,Single-ply,SBD,M,
Boys,67.13,2,Crowley Pierce,Crockett,66.09,147.42,102.06,158.76,408.23,Single-ply,SBD,M,
Boys,67.13,3,Kameron Striegel,Pineland West Sabine,64.05,151.95,83.91,154.22,390.09,Single-ply,SBD,M,
Boys,67.13,4,Lajarian Leadon,Nacogdoches,63.05,142.88,77.11,142.88,362.87,Single-ply,SBD,M,
Boys,67.13,5,Paxton Darnell,Beckville,64.41,124.74,70.31,124.74,319.78,Single-ply,SBD,M,
Boys,67.13,6,Ethan Cramer,Pineland West Sabine,59.96,90.72,68.04,127.01,285.76,Single-ply,SBD,M,
Boys,67.13,7,Brody Downs,Beckville,67.04,99.79,56.7,127.01,283.5,Single-ply,SBD,M,
Boys,67.13,8,Christian Chavez,Pineland West Sabine,59.92,99.79,56.7,117.93,274.42,Single-ply,SBD,M,
Boys,67.13,DQ,Maxwell Gipson,Garrison,66.77,,,,,Single-ply,SBD,M,
Boys,67.13,DQ,Nathan Matthews,Pollok Central,64.41,,,,,Single-ply,SBD,M,
Boys,74.84,1,Caleb Bumstead,Pollok Central,72.94,172.37,102.06,167.83,442.25,Single-ply,SBD,M,
Boys,74.84,2,Dylan Porter,Crockett,74.84,102.06,92.99,158.76,353.8,Single-ply,SBD,M,
Boys,74.84,3,Kyle Hooper,Rusk,72.35,129.27,83.91,136.08,349.27,Single-ply,SBD,M,
Boys,74.84,4,Julian Alonzo,Rusk,70.22,102.06,63.5,131.54,297.1,Single-ply,SBD,M,
Boys,74.84,5,Dallas McFadden,Garrison,67.77,113.4,61.23,113.4,288.03,Single-ply,SBD,M,
Boys,74.84,6,Abraham Flores,Rusk,73.16,92.99,52.16,122.47,267.62,Single-ply,SBD,M,
Boys,74.84,DQ,Zak Martin,Pollok Central,69.4,158.76,,,,Single-ply,SBD,M,
Boys,74.84,DQ,Gracen Packard,Nacogdoches,74.34,190.51,,,,Single-ply,SBD,M,
Boys,82.1,1,Cameron Fields,Nacogdoches,80.24,165.56,106.59,197.31,469.47,Single-ply,SBD,M,
Boys,82.1,2,Elijah Jackson,Beckville,79.61,174.63,102.06,176.9,453.59,Single-ply,SBD,M,
Boys,82.1,3,Adam Lindgren,Garrison,80.92,165.56,102.06,174.63,442.25,Single-ply,SBD,M,
Boys,82.1,4,Alex Alvarez #5,Rusk,80.38,151.95,92.99,154.22,399.16,Single-ply,SBD,M,
Boys,82.1,5,Bryson Burton,Crockett,82.01,147.42,97.52,147.42,392.36,Single-ply,SBD,M,
Boys,82.1,6,Dakota Roach,Rusk,79.38,83.91,61.23,136.08,281.23,Single-ply,SBD,M,
Boys,82.1,DQ,Jonathan Lockhart,Crockett,81.69,108.86,,,,Single-ply,SBD,M,
Boys,82.1,DQ,Emmanuel Garcia,Nacogdoches,76.16,,,,,Single-ply,SBD,M,
Boys,89.81,1,Blaine Bourque,Pineland West Sabine,84.96,188.24,122.47,185.97,496.68,Single-ply,SBD,M,
Boys,89.81,2,Micah English,Beckville,86.64,170.1,106.59,158.76,435.45,Single-ply,SBD,M,
Boys,89.81,3,Yahir Escarcega,Nacogdoches,89.81,183.7,83.91,167.83,435.45,Single-ply,SBD,M,
Boys,89.81,4,Kaden Thorton,Pollok Central,85.23,154.22,104.33,172.37,430.91,Single-ply,SBD,M,
Boys,89.81,5,Grayson Shivers,Beckville,86.68,147.42,86.18,147.42,381.02,Single-ply,SBD,M,
Boys,89.81,DQ,Javien Black,Garrison,87.72,,,,,Single-ply,SBD,M,
Boys,99.79,1,Isaac Traxler,Garrison,94.26,204.12,133.81,265.35,603.28,Single-ply,SBD,M,
Boys,99.79,2,Billy Bateman,Jacksonville,97.2,192.78,158.76,222.26,573.79,Single-ply,SBD,M,
Boys,99.79,3,Sam McNeely,Nacogdoches,97.11,206.38,111.13,208.65,526.17,Single-ply,SBD,M,
Boys,99.79,4,Carter Anderson,Pollok Central,99.11,208.65,111.13,206.38,526.17,Single-ply,SBD,M,
Boys,99.79,5,Nahum Rivera,Joaquin,91.63,204.12,108.86,208.65,521.63,Single-ply,SBD,M,
Boys,99.79,6,Bo Hammons,Beckville,91.9,188.24,124.74,172.37,485.34,Single-ply,SBD,M,
Boys,99.79,7,Jasper Best,Beckville,93.67,147.42,111.13,174.63,433.18,Single-ply,SBD,M,
Boys,99.79,8,Cody Claude,Nacogdoches,99.34,147.42,111.13,165.56,424.11,Single-ply,SBD,M,
Boys,99.79,9,Jesus Alanis-Zamago,Pollok Central,97.11,142.88,79.38,142.88,365.14,Single-ply,SBD,M,
Boys,99.79,10,Landon Bennett,Beckville,93.53,117.93,95.25,149.69,362.87,Single-ply,SBD,M,
Boys,99.79,11,Lisandro Ortega #2,Rusk,92.71,147.42,74.84,136.08,358.34,Single-ply,SBD,M,
Boys,99.79,12,Jimmy Buford,Rusk,99.43,124.74,70.31,147.42,342.46,Single-ply,SBD,M,
Boys,99.79,DQ,Tanner Powell,Garrison,99.43,,,,,Single-ply,SBD,M,
Boys,99.79,DQ,David Tomaszewski,Joaquin,91.26,,,,,Single-ply,SBD,M,
Boys,109.77,1,Brantley Bauer,Jacksonville,102.1,199.58,142.88,210.92,553.38,Single-ply,SBD,M,
Boys,109.77,2,Toby Beard,Pollok Central,106,244.94,102.06,199.58,546.58,Single-ply,SBD,M,
Boys,109.77,3,Andrew Parker,Garrison,100.02,199.58,131.54,204.12,535.24,Single-ply,SBD,M,
Boys,109.77,4,Michael Taylor,Pollok Central,100.83,197.31,127.01,210.92,535.24,Single-ply,SBD,M,
Boys,109.77,5,Gavin Pollard,Garrison,101.83,199.58,138.35,183.7,521.63,Single-ply,SBD,M,
Boys,109.77,6,Alex Oliveros,Nacogdoches,104.46,188.24,117.93,204.12,510.29,Single-ply,SBD,M,
Boys,109.77,7,Amari Tatum,Nacogdoches,102.92,204.12,97.52,204.12,505.76,Single-ply,SBD,M,
Boys,109.77,8,James Williams #27,Nacogdoches,105.37,183.7,122.47,183.7,489.88,Single-ply,SBD,M,
Boys,109.77,9,Willy Williams,Nacogdoches,101.7,174.63,108.86,183.7,467.2,Single-ply,SBD,M,
Boys,109.77,10,Reily Vanscoder,Nacogdoches,103.87,163.29,104.33,163.29,430.91,Single-ply,SBD,M,
Boys,109.77,11,Juan Zamarripa,Pollok Central,100.47,165.56,65.77,165.56,396.89,Single-ply,SBD,M,
Boys,109.77,DQ,Jerimya Corn,Garrison,103.19,149.69,,,,Single-ply,SBD,M,
Boys,109.77,DQ,Camden Curbow,Garrison,106.96,142.88,92.99,,,Single-ply,SBD,M,
Boys,124.74,1,Andrew Rodgers,Nacogdoches,117.48,249.48,145.15,256.28,650.91,Single-ply,SBD,M,
Boys,124.74,2,Bryan Granados,Nacogdoches,114.35,226.8,122.47,213.19,562.45,Single-ply,SBD,M,
Boys,124.74,3,Parker Perry,Garrison,123.29,192.78,122.47,206.38,521.63,Single-ply,SBD,M,
Boys,124.74,4,Jaden Sanders,Nacogdoches,118.3,183.7,102.06,151.95,437.72,Single-ply,SBD,M,
Boys,124.74,DQ,Stephen Morrison,Pineland West Sabine,120.56,99.79,,,,Single-ply,SBD,M,
Boys,139.71,1,Aiden Gay,Jacksonville,139.48,217.72,158.76,231.33,607.81,Single-ply,SBD,M,
Boys,139.71,2,Ryan Larson,Nacogdoches,131.45,215.46,142.88,213.19,571.53,Single-ply,SBD,M,
Boys,139.71,3,Magnum Fitzgerald,Garrison,136.62,219.99,138.35,199.58,557.92,Single-ply,SBD,M,
Boys,139.71,4,Aiden Gonzalez,Pollok Central,125.19,215.46,113.4,195.04,523.9,Single-ply,SBD,M,
Boys,139.71,5,Ethan Davis,Joaquin,132.99,199.58,158.76,154.22,512.56,Single-ply,SBD,M,
Boys,139.71+,1,Jasper Shaw,Garrison,173.09,244.94,161.03,229.06,635.03,Single-ply,SBD,M,
Boys,139.71+,2,Jabrodrick Polk,Garrison,143.06,197.31,145.15,215.46,557.92,Single-ply,SBD,M,
Boys,139.71+,3,Cason Curbow,Garrison,140.7,192.78,140.61,188.24,521.63,Single-ply,SBD,M,
Boys,,NS,Isaiah Hardison,Joaquin,,,,,,Single-ply,SBD,M,
Boys,,NS,Detravance Burns,Crockett,,,,,,Single-ply,SBD,M,
Boys,,NS,Canaan Schmitz,Beckville,,,,,,Single-ply,SBD,M,
Boys,,NS,Ethan Sides,Beckville,,,,,,Single-ply,SBD,M,
Boys,,NS,Bedford Devin,Crockett,,,,,,Single-ply,SBD,M,
Boys,,NS,Antonio Ledesma,Crockett,,,,,,Single-ply,SBD,M,
Boys,,NS,Karmond Robinson,Crockett,,,,,,Single-ply,SBD,M,
Boys,,NS,Corey Simon,Crockett,,,,,,Single-ply,SBD,M,
Boys,,NS,Elijah Taylor,Crockett,,,,,,Single-ply,SBD,M,
Boys,,NS,Luke Hernandez,Joaquin,,,,,,Single-ply,SBD,M,
Boys,,NS,Andre Brown,Joaquin,,,,,,Single-ply,SBD,M,
Boys,,NS,Khoen Baker,Joaquin,,,,,,Single-ply,SBD,M,
Boys,,NS,Ty Neal,Joaquin,,,,,,Single-ply,SBD,M,
Boys,,NS,Dallon Jordan,Joaquin,,,,,,Single-ply,SBD,M,
Boys,,NS,Gauge Jordan,Joaquin,,,,,,Single-ply,SBD,M,
Boys,,NS,Duncan McCain,Joaquin,,,,,,Single-ply,SBD,M,
Boys,,NS,Connor McAnich,Nacogdoches,,,,,,Single-ply,SBD,M,
Boys,,NS,Kelan Elder,Nacogdoches,,,,,,Single-ply,SBD,M,
Boys,,NS,Luke Denby,Nacogdoches,,,,,,Single-ply,SBD,M,
Boys,,NS,Gael Salzar,Nacogdoches,,,,,,Single-ply,SBD,M,
Boys,,NS,Christian Ochoa,Nacogdoches,,,,,,Single-ply,SBD,M,
Boys,,NS,Jalen Wickware,Nacogdoches,,,,,,Single-ply,SBD,M,
Boys,,NS,Leon Venegas,Nacogdoches,,,,,,Single-ply,SBD,M,
Boys,,NS,Ethan Poindexter,Pollok Central,,,,,,Single-ply,SBD,M,
Boys,,NS,Tyson Johnson,Pollok Central,,,,,,Single-ply,SBD,M,
Boys,,NS,Dawson Reneau,Rusk,,,,,,Single-ply,SBD,M,
Boys,,NS,Pedro Alonzo,Rusk,,,,,,Single-ply,SBD,M,
Boys,,NS,Anthony Rojo,Rusk,,,,,,Single-ply,SBD,M,
Boys,,NS,Roberto Santaloaya,Rusk,,,,,,Single-ply,SBD,M,
