Division,WeightClassKg,Place,Name,Team,BodyweightKg,Best3SquatKg,Best3BenchKg,Best3DeadliftKg,TotalKg,Equipment,Event,Sex
Boys,51.71,1,Cole Terry,Skidmore-Tynan,51.35,167.83,99.79,181.44,449.06,Single-ply,SBD,M
Boys,51.71,2,Fabian Garcia,Edinburg Idea College Prep,50.71,163.29,83.91,165.56,412.77,Single-ply,SBD,M
Boys,51.71,3,Joey Rodriguez,Edinburg Idea College Prep,51.44,151.95,104.33,149.69,405.97,Single-ply,SBD,M
Boys,51.71,4,Seth Munoz,Mathis,50.53,140.61,74.84,149.69,365.14,Single-ply,SBD,M
Boys,51.71,5,Hutch Rabenaldt,Marion,51.71,142.88,95.25,127.01,365.14,Single-ply,SBD,M
Boys,51.71,6,Uziel Vasquez,Edinburg Idea College Prep,51.35,151.95,77.11,129.27,358.34,Single-ply,SBD,M
Boys,51.71,7,Joe Castillo #3,Altair Rice,51.17,133.81,68.04,154.22,356.07,Single-ply,SBD,M
Boys,51.71,8,Javier Aleman,Karnes City,51.44,129.27,79.38,140.61,349.27,Single-ply,SBD,M
Boys,51.71,9,Jacob Guerrero,Yorktown,51.07,129.27,72.57,140.61,342.46,Single-ply,SBD,M
Boys,51.71,10,Marco Garza,Dilley,50.89,117.93,77.11,129.27,324.32,Single-ply,SBD,M
Boys,51.71,DQ,Christian Pena,Benavides,51.17,,,,,Single-ply,SBD,M
Boys,51.71,DQ,Alex Garcia #2,Cotulla,50.44,129.27,,,,Single-ply,SBD,M
Boys,55.79,1,Adrian Campos,Freer,55.25,197.31,124.74,188.24,510.29,Single-ply,SBD,M
Boys,55.79,2,Niko Munoz,Falfurrias,54.79,183.7,113.4,185.97,483.08,Single-ply,SBD,M
Boys,55.79,3,Robbie Montemayor,Taft,54.7,156.49,88.45,179.17,424.11,Single-ply,SBD,M
Boys,55.79,4,Chris Trevino,San Diego,55.52,127.01,104.33,163.29,394.63,Single-ply,SBD,M
Boys,55.79,5,Dalton Opperman,Columbus,54.43,149.69,83.91,140.61,374.21,Single-ply,SBD,M
Boys,55.79,6,Dylan Crye,Hallettsville,54.79,145.15,74.84,151.95,371.95,Single-ply,SBD,M
Boys,55.79,7,Bryan Gutierrez,Bishop,55.02,138.35,88.45,142.88,369.68,Single-ply,SBD,M
Boys,55.79,8,Jacob Forster,Center Point,54.52,142.88,74.84,142.88,360.61,Single-ply,SBD,M
Boys,55.79,9,Matt Lopez,Mathis,54.16,124.74,63.5,147.42,335.66,Single-ply,SBD,M
Boys,55.79,10,Bryan Peralta,Yorktown,53.07,120.2,68.04,142.88,331.12,Single-ply,SBD,M
Boys,55.79,DQ,Gabriel Chavez,Lyford,54.43,,,,,Single-ply,SBD,M
Boys,55.79,NS,Joe Fraga,Runge,,,,,,Single-ply,SBD,M
Boys,55.79,DQ,Ernesto Consuegra,Cotulla,55.79,124.74,79.38,,,Single-ply,SBD,M
Boys,59.87,1,Manny Padilla,Natalia,59.24,215.46,113.4,215.46,544.31,Single-ply,SBD,M
Boys,59.87,2,Elijah Wheeler,Edinburg Quest College Prep,59.15,199.58,106.59,201.85,508.02,Single-ply,SBD,M
Boys,59.87,3,Lucas Lara,Mathis,59.06,183.7,111.13,206.38,501.22,Single-ply,SBD,M
Boys,59.87,4,Aaron Lozano,Edinburg Quest College Prep,59.51,192.78,92.99,213.19,498.95,Single-ply,SBD,M
Boys,59.87,5,Gavin Chapa,Corpus Christi London,59.51,174.63,120.2,183.7,478.54,Single-ply,SBD,M
Boys,59.87,6,Ryan Juarez,Natalia,59.6,183.7,106.59,185.97,476.27,Single-ply,SBD,M
Boys,59.87,7,AJ Perez,Ben Bolt-Palito Blanco,58.6,174.63,120.2,163.29,458.13,Single-ply,SBD,M
Boys,59.87,8,Dedrick Querner,Jourdanton,58.6,170.1,92.99,192.78,455.86,Single-ply,SBD,M
Boys,59.87,9,Austin Mendez,San Diego,59.87,154.22,97.52,192.78,444.52,Single-ply,SBD,M
Boys,59.87,10,Jerome Martinez,Cotulla,59.78,163.29,95.25,156.49,415.04,Single-ply,SBD,M
Boys,59.87,11,Quen Syma,Lytle,59.06,136.08,90.72,167.83,394.63,Single-ply,SBD,M
Boys,59.87,DQ,Damian Diaz,Hebbronville,58.88,181.44,83.91,,,Single-ply,SBD,M
Boys,67.13,1,Anthony Perez,San Diego,66.68,301.64,167.83,256.28,725.75,Single-ply,SBD,M
Boys,67.13,2,Garett McDonald,Jourdanton,66.86,247.21,124.74,206.38,578.33,Single-ply,SBD,M
Boys,67.13,3,Andrew Garcia,Mathis,63.5,210.92,124.74,226.8,562.45,Single-ply,SBD,M
Boys,67.13,4,Richard Rea,Freer,65.59,206.38,115.67,222.26,544.31,Single-ply,SBD,M
Boys,67.13,5,Adrian Vasquez,Natalia,66.77,222.26,102.06,219.99,544.31,Single-ply,SBD,M
Boys,67.13,6,Alejandro Ramirez,Hebbronville,67.13,199.58,131.54,213.19,544.31,Single-ply,SBD,M
Boys,67.13,7,Taylor Weber,Jourdanton,66.68,217.72,131.54,181.44,530.7,Single-ply,SBD,M
Boys,67.13,8,Hayden Johnson,Center Point,62.87,192.78,106.59,165.56,464.93,Single-ply,SBD,M
Boys,67.13,9,Jorge Gonzalez #8,Cotulla,65.86,167.83,115.67,156.49,439.98,Single-ply,SBD,M
Boys,67.13,DQ,Sergio Sanchez,Falfurrias,64.86,,,,,Single-ply,SBD,M
Boys,67.13,DQ,Justin Cardenas,Pettus,66.32,,,,,Single-ply,SBD,M
Boys,67.13,NS,Christian Pina,Runge,,,,,,Single-ply,SBD,M
Boys,74.84,1,Lee Bazan,San Diego,74.39,283.5,165.56,219.99,669.05,Single-ply,SBD,M
Boys,74.84,2,Andrew Nevarez,Edinburg Idea College Prep,73.94,260.82,147.42,226.8,635.03,Single-ply,SBD,M
Boys,74.84,3,Logen Schanen,Skidmore-Tynan,74.84,204.12,111.13,226.8,542.04,Single-ply,SBD,M
Boys,74.84,4,Fabian Santos,Dilley,73.39,226.8,97.52,215.46,539.77,Single-ply,SBD,M
Boys,74.84,5,Ray Rayos,Marion,73.94,174.63,120.2,238.14,532.97,Single-ply,SBD,M
Boys,74.84,6,Rylan Wagner,Lytle,72.94,188.24,120.2,199.58,508.02,Single-ply,SBD,M
Boys,74.84,7,Marco Burkman-Flaig,San Antonio Cole,71.21,197.31,111.13,195.04,503.49,Single-ply,SBD,M
Boys,74.84,8,Alvin Amador,Kenedy,72.94,185.97,106.59,208.65,501.22,Single-ply,SBD,M
Boys,74.84,9,Carlos Gonzales,Mathis,73.12,185.97,124.74,190.51,501.22,Single-ply,SBD,M
Boys,74.84,10,Joseph Dominguez,Taft,72.85,174.63,104.33,217.72,496.68,Single-ply,SBD,M
Boys,74.84,11,Aaron Champion,Mathis,73.94,188.24,120.2,174.63,483.08,Single-ply,SBD,M
Boys,74.84,NS,Joaquin Leija,Agua Dulce,,,,,,Single-ply,SBD,M
Boys,82.1,1,Oscar Salazar,Hebbronville,82.01,240.4,195.04,229.06,664.51,Single-ply,SBD,M
Boys,82.1,2,John Hodge,Pettus,80.38,256.28,136.08,249.48,641.83,Single-ply,SBD,M
Boys,82.1,3,Garrett Ralph,Lytle,80.47,226.8,167.83,226.8,621.42,Single-ply,SBD,M
Boys,82.1,4,Ezekiel Davila,Altair Rice,79.65,258.55,124.74,229.06,612.35,Single-ply,SBD,M
Boys,82.1,5,Connor Bowers,Bishop,80.74,222.26,172.37,217.72,612.35,Single-ply,SBD,M
Boys,82.1,6,Kyle Jones,Poth,81.92,254.01,117.93,240.4,612.35,Single-ply,SBD,M
Boys,82.1,7,Dale Baez,Hebbronville,82.1,222.26,142.88,192.78,557.92,Single-ply,SBD,M
Boys,82.1,8,Demetri Sanchez,Corpus Christi London,80.83,204.12,117.93,226.8,548.85,Single-ply,SBD,M
Boys,82.1,9,Johnny Paredes,Lytle,81.1,210.92,117.93,215.46,544.31,Single-ply,SBD,M
Boys,82.1,10,Caleb Marshall,Hebbronville,81.74,195.04,145.15,201.85,542.04,Single-ply,SBD,M
Boys,82.1,11,Weston Warschak,Columbus,81.47,210.92,131.54,195.04,537.51,Single-ply,SBD,M
Boys,82.1,DQ,Giovanni Mendez,Cotulla,79.2,215.46,,,,Single-ply,SBD,M
Boys,82.1,NS,Felipe Ortega,La Villa,,,,,,Single-ply,SBD,M
Boys,89.81,1,Joseph Araujo,San Diego,87.36,249.48,165.56,249.48,664.51,Single-ply,SBD,M
Boys,89.81,2,Joseph Perez,Lytle,87.91,265.35,158.76,240.4,664.51,Single-ply,SBD,M
Boys,89.81,3,John Martinez,Falfurrias,87,272.16,163.29,215.46,650.91,Single-ply,SBD,M
Boys,89.81,4,Tucker Walters,Marion,88.9,215.46,142.88,276.69,635.03,Single-ply,SBD,M
Boys,89.81,5,Marcus Cerda,Taft,88.9,238.14,149.69,215.46,603.28,Single-ply,SBD,M
Boys,89.81,6,Damien Campos,Bishop,88.36,235.87,145.15,219.99,601.01,Single-ply,SBD,M
Boys,89.81,7,Aaron Ramirez,Dilley,88.18,242.67,136.08,210.92,589.67,Single-ply,SBD,M
Boys,89.81,8,Orlando Gonzalez,Odem,87.54,219.99,136.08,224.53,580.6,Single-ply,SBD,M
Boys,89.81,9,Jacob Trujillo,Universal City Randolph,86.64,217.72,133.81,215.46,566.99,Single-ply,SBD,M
Boys,89.81,10,Giovanni Narvaiz,Cotulla,88.54,240.4,140.61,185.97,566.99,Single-ply,SBD,M
Boys,89.81,NS,Jackson Roensch,Columbus,,,,,,Single-ply,SBD,M
Boys,89.81,DQ,Francisco Duran,Marion,89.18,,,,,Single-ply,SBD,M
Boys,99.79,1,Sean Allen,Poth,97.34,265.35,181.44,217.72,664.51,Single-ply,SBD,M
Boys,99.79,2,Michael Martinez,Natalia,96.89,276.69,133.81,247.21,657.71,Single-ply,SBD,M
Boys,99.79,3,Ryan Rasbury,Mathis,97.07,269.89,138.35,249.48,657.71,Single-ply,SBD,M
Boys,99.79,4,Aj Flores,Altair Rice,97.52,272.16,140.61,244.94,657.71,Single-ply,SBD,M
Boys,99.79,5,Jeremiah Gomez,Natalia,92.71,226.8,124.74,229.06,580.6,Single-ply,SBD,M
Boys,99.79,6,Jordan Longoria,Bishop,96.16,249.48,124.74,206.38,580.6,Single-ply,SBD,M
Boys,99.79,7,Juan Chavera,Falfurrias,94.35,235.87,136.08,172.37,544.31,Single-ply,SBD,M
Boys,99.79,DQ,Emmanuel Cepeda,Lyford,99.61,254.01,145.15,,,Single-ply,SBD,M
Boys,99.79,DQ,Tristian Perez,Ben Bolt-Palito Blanco,92.9,251.74,,,,Single-ply,SBD,M
Boys,99.79,DQ,Sebastian Segura,Karnes City,98.88,260.82,,,,Single-ply,SBD,M
Boys,99.79,NS,Issac Paredes,Jourdanton,,,,,,Single-ply,SBD,M
Boys,99.79,NS,Marcus Hinojosa,Skidmore-Tynan,,,,,,Single-ply,SBD,M
Boys,99.79,DQ,Joseph Martinez,Cotulla,99.61,260.82,,,,Single-ply,SBD,M
Boys,109.77,1,Joey Garza,Falfurrias,108.14,285.76,158.76,288.03,732.55,Single-ply,SBD,M
Boys,109.77,2,Uriel Arellano,Natalia,103.42,249.48,181.44,249.48,680.39,Single-ply,SBD,M
Boys,109.77,3,Joey Ramirez,La Villa,106.78,272.16,197.31,199.58,669.05,Single-ply,SBD,M
Boys,109.77,4,Thomas Puente,Skidmore-Tynan,100.88,263.08,147.42,251.74,662.24,Single-ply,SBD,M
Boys,109.77,5,Shawn Allen,Schulenburg,108.23,244.94,161.03,235.87,641.83,Single-ply,SBD,M
Boys,109.77,6,Richard Alvarado,Aransas Pass,104.78,213.19,145.15,213.19,571.53,Single-ply,SBD,M
Boys,109.77,7,Dustin Soto,Natalia,106.96,226.8,122.47,210.92,560.19,Single-ply,SBD,M
Boys,109.77,8,Mason Pena,Ben Bolt-Palito Blanco,104.87,217.72,127.01,199.58,544.31,Single-ply,SBD,M
Boys,109.77,DQ,Nathaniel Gomez,Karnes City,109.59,,,,,Single-ply,SBD,M
Boys,109.77,NS,Jordan Garza,Weimar,,,,,,Single-ply,SBD,M
Boys,109.77,DQ,Darriel Gonzalez,Hebbronville,106.32,,,,,Single-ply,SBD,M
Boys,109.77,DQ,Richard Villarreal,Kenedy,106.14,278.96,156.49,,,Single-ply,SBD,M
Boys,124.74,1,Michael Salaiz,San Diego,118.39,306.17,192.78,278.96,777.91,Single-ply,SBD,M
Boys,124.74,2,Jaime Gonzales,Taft,119.48,285.76,174.63,242.67,703.07,Single-ply,SBD,M
Boys,124.74,3,Paul Billalobos,Natalia,122.38,251.74,163.29,263.08,678.12,Single-ply,SBD,M
Boys,124.74,4,Clayton Klekar,Goliad,117.84,258.55,151.95,258.55,669.05,Single-ply,SBD,M
Boys,124.74,5,Jason Carrillo,Rocksprings,122.74,272.16,176.9,217.72,666.78,Single-ply,SBD,M
Boys,124.74,6,Julian Gomez,Odem,115.21,260.82,161.03,240.4,662.24,Single-ply,SBD,M
Boys,124.74,7,Jace Gonzales,Karnes City,111.95,283.5,140.61,226.8,650.91,Single-ply,SBD,M
Boys,124.74,8,Baldomero Ortega,Cotulla,120.93,249.48,147.42,254.01,650.91,Single-ply,SBD,M
Boys,124.74,9,Dustin Dominguez,Dilley,122.11,267.62,151.95,231.33,650.91,Single-ply,SBD,M
Boys,124.74,10,Jacob Hernandez,Stockdale,120.2,242.67,183.7,217.72,644.1,Single-ply,SBD,M
Boys,124.74,11,Diego Gutierrez,Mathis,123.01,249.48,138.35,213.19,601.01,Single-ply,SBD,M
Boys,124.74,12,Samson Montoya,Marion,121.11,213.19,149.69,219.99,582.87,Single-ply,SBD,M
Boys,124.74+,1,Marcos Romero,Odem,138.16,303.91,190.51,249.48,743.89,Single-ply,SBD,M
Boys,124.74+,2,Alfredo Enriquez,Rocksprings,161.48,294.84,174.63,265.35,734.82,Single-ply,SBD,M
Boys,124.74+,3,Jonathan Rodriguez #9,Agua Dulce,148.96,294.84,181.44,226.8,703.07,Single-ply,SBD,M
Boys,124.74+,4,Danny Hernandez,Ingram Moore,130.73,249.48,156.49,244.94,650.91,Single-ply,SBD,M
Boys,124.74+,5,Taj Fields,Altair Rice,156.31,274.42,142.88,217.72,635.03,Single-ply,SBD,M
Boys,124.74+,6,Enrique Paredes,Cotulla,207.47,240.4,183.7,210.92,635.03,Single-ply,SBD,M
Boys,124.74+,7,Ruben Leal,Aransas Pass,249.48,249.48,170.1,192.78,612.35,Single-ply,SBD,M
Boys,124.74+,8,Aaron Flores #2,Santa Gertrudis Academy,148.42,240.4,115.67,231.33,587.4,Single-ply,SBD,M
Boys,124.74+,9,Rudy Orosco,Pettus,127.1,249.48,140.61,195.04,585.13,Single-ply,SBD,M
Boys,124.74+,DQ,Leandro Gonzales,Rocksprings,141.79,,,,,Single-ply,SBD,M
Boys,124.74+,DQ,Xavier Perry,Goliad,143.24,,,,,Single-ply,SBD,M
Boys,124.74+,DQ,Joseph Anaglia,San Antonio Jubilee,137.35,,,,,Single-ply,SBD,M
